%YAML 1.1
%TAG !u! tag:unity3d.com,2011:
--- !u!29 &1
OcclusionCullingSettings:
  m_ObjectHideFlags: 0
  serializedVersion: 2
  m_OcclusionBakeSettings:
    smallestOccluder: 5
    smallestHole: 0.25
    backfaceThreshold: 100
  m_SceneGUID: 00000000000000000000000000000000
  m_OcclusionCullingData: {fileID: 0}
--- !u!104 &2
RenderSettings:
  m_ObjectHideFlags: 0
  serializedVersion: 8
  m_Fog: 0
  m_FogColor: {r: 0.5, g: 0.5, b: 0.5, a: 1}
  m_FogMode: 3
  m_FogDensity: 0.01
  m_LinearFogStart: 0
  m_LinearFogEnd: 300
  m_AmbientSkyColor: {r: 0.212, g: 0.227, b: 0.259, a: 1}
  m_AmbientEquatorColor: {r: 0.114, g: 0.125, b: 0.133, a: 1}
  m_AmbientGroundColor: {r: 0.047, g: 0.043, b: 0.035, a: 1}
  m_AmbientIntensity: 1
  m_AmbientMode: 0
  m_SubtractiveShadowColor: {r: 0.42, g: 0.478, b: 0.627, a: 1}
  m_SkyboxMaterial: {fileID: 10304, guid: 0000000000000000f000000000000000, type: 0}
  m_HaloStrength: 0.5
  m_FlareStrength: 1
  m_FlareFadeSpeed: 3
  m_HaloTexture: {fileID: 0}
  m_SpotCookie: {fileID: 10001, guid: 0000000000000000e000000000000000, type: 0}
  m_DefaultReflectionMode: 0
  m_DefaultReflectionResolution: 128
  m_ReflectionBounces: 1
  m_ReflectionIntensity: 1
  m_CustomReflection: {fileID: 0}
  m_Sun: {fileID: 0}
  m_IndirectSpecularColor: {r: 0.44657898, g: 0.4964133, b: 0.5748178, a: 1}
--- !u!157 &3
LightmapSettings:
  m_ObjectHideFlags: 0
  serializedVersion: 11
  m_GIWorkflowMode: 0
  m_GISettings:
    serializedVersion: 2
    m_BounceScale: 1
    m_IndirectOutputScale: 1
    m_AlbedoBoost: 1
    m_TemporalCoherenceThreshold: 1
    m_EnvironmentLightingMode: 0
    m_EnableBakedLightmaps: 1
    m_EnableRealtimeLightmaps: 1
  m_LightmapEditorSettings:
    serializedVersion: 9
    m_Resolution: 2
    m_BakeResolution: 40
    m_TextureWidth: 1024
    m_TextureHeight: 1024
    m_AO: 0
    m_AOMaxDistance: 1
    m_CompAOExponent: 1
    m_CompAOExponentDirect: 0
    m_Padding: 2
    m_LightmapParameters: {fileID: 0}
    m_LightmapsBakeMode: 1
    m_TextureCompression: 1
    m_FinalGather: 0
    m_FinalGatherFiltering: 1
    m_FinalGatherRayCount: 256
    m_ReflectionCompression: 2
    m_MixedBakeMode: 1
    m_BakeBackend: 0
    m_PVRSampling: 1
    m_PVRDirectSampleCount: 32
    m_PVRSampleCount: 500
    m_PVRBounces: 2
    m_PVRFilterTypeDirect: 0
    m_PVRFilterTypeIndirect: 0
    m_PVRFilterTypeAO: 0
    m_PVRFilteringMode: 1
    m_PVRCulling: 1
    m_PVRFilteringGaussRadiusDirect: 1
    m_PVRFilteringGaussRadiusIndirect: 5
    m_PVRFilteringGaussRadiusAO: 2
    m_PVRFilteringAtrousPositionSigmaDirect: 0.5
    m_PVRFilteringAtrousPositionSigmaIndirect: 2
    m_PVRFilteringAtrousPositionSigmaAO: 1
    m_ShowResolutionOverlay: 1
  m_LightingDataAsset: {fileID: 0}
  m_UseShadowmask: 1
--- !u!196 &4
NavMeshSettings:
  serializedVersion: 2
  m_ObjectHideFlags: 0
  m_BuildSettings:
    serializedVersion: 2
    agentTypeID: 0
    agentRadius: 0.5
    agentHeight: 2
    agentSlope: 45
    agentClimb: 0.4
    ledgeDropHeight: 0
    maxJumpAcrossDistance: 0
    minRegionArea: 2
    manualCellSize: 0
    cellSize: 0.16666667
    manualTileSize: 0
    tileSize: 256
    accuratePlacement: 0
    debug:
      m_Flags: 0
  m_NavMeshData: {fileID: 0}
--- !u!1 &39838292
GameObject:
  m_ObjectHideFlags: 0
  m_PrefabParentObject: {fileID: 0}
  m_PrefabInternal: {fileID: 0}
  serializedVersion: 5
  m_Component:
  - component: {fileID: 39838293}
  - component: {fileID: 39838296}
  - component: {fileID: 39838295}
  - component: {fileID: 39838294}
  m_Layer: 5
  m_Name: 1
  m_TagString: Untagged
  m_Icon: {fileID: 0}
  m_NavMeshLayer: 0
  m_StaticEditorFlags: 0
  m_IsActive: 1
--- !u!224 &39838293
RectTransform:
  m_ObjectHideFlags: 0
  m_PrefabParentObject: {fileID: 0}
  m_PrefabInternal: {fileID: 0}
  m_GameObject: {fileID: 39838292}
  m_LocalRotation: {x: 0, y: 0, z: 0, w: 1}
  m_LocalPosition: {x: 0, y: 0, z: 0}
  m_LocalScale: {x: 1, y: 1, z: 1}
  m_Children:
  - {fileID: 780055727}
  m_Father: {fileID: 858551798}
  m_RootOrder: 1
  m_LocalEulerAnglesHint: {x: 0, y: 0, z: 0}
  m_AnchorMin: {x: 1, y: 1}
  m_AnchorMax: {x: 1, y: 1}
  m_AnchoredPosition: {x: 0, y: 0}
  m_SizeDelta: {x: 250, y: 50}
  m_Pivot: {x: 1, y: 1}
--- !u!114 &39838294
MonoBehaviour:
  m_ObjectHideFlags: 0
  m_PrefabParentObject: {fileID: 0}
  m_PrefabInternal: {fileID: 0}
  m_GameObject: {fileID: 39838292}
  m_Enabled: 1
  m_EditorHideFlags: 0
  m_Script: {fileID: 1392445389, guid: f70555f144d8491a825f0804e09c671c, type: 3}
  m_Name: 
  m_EditorClassIdentifier: 
  m_Navigation:
    m_Mode: 3
    m_SelectOnUp: {fileID: 0}
    m_SelectOnDown: {fileID: 0}
    m_SelectOnLeft: {fileID: 0}
    m_SelectOnRight: {fileID: 0}
  m_Transition: 1
  m_Colors:
    m_NormalColor: {r: 1, g: 1, b: 1, a: 1}
    m_HighlightedColor: {r: 0.9607843, g: 0.9607843, b: 0.9607843, a: 1}
    m_PressedColor: {r: 0.78431374, g: 0.78431374, b: 0.78431374, a: 1}
    m_DisabledColor: {r: 0.78431374, g: 0.78431374, b: 0.78431374, a: 0.5019608}
    m_ColorMultiplier: 1
    m_FadeDuration: 0.1
  m_SpriteState:
    m_HighlightedSprite: {fileID: 0}
    m_PressedSprite: {fileID: 0}
    m_DisabledSprite: {fileID: 0}
  m_AnimationTriggers:
    m_NormalTrigger: Normal
    m_HighlightedTrigger: Highlighted
    m_PressedTrigger: Pressed
    m_DisabledTrigger: Disabled
  m_Interactable: 1
  m_TargetGraphic: {fileID: 39838295}
  m_OnClick:
    m_PersistentCalls:
      m_Calls:
      - m_Target: {fileID: 926542986}
        m_MethodName: ClickNumber1
        m_Mode: 1
        m_Arguments:
          m_ObjectArgument: {fileID: 0}
          m_ObjectArgumentAssemblyTypeName: UnityEngine.Object, UnityEngine
          m_IntArgument: 0
          m_FloatArgument: 0
          m_StringArgument: 
          m_BoolArgument: 0
        m_CallState: 2
    m_TypeName: UnityEngine.UI.Button+ButtonClickedEvent, UnityEngine.UI, Version=1.0.0.0,
      Culture=neutral, PublicKeyToken=null
--- !u!114 &39838295
MonoBehaviour:
  m_ObjectHideFlags: 0
  m_PrefabParentObject: {fileID: 0}
  m_PrefabInternal: {fileID: 0}
  m_GameObject: {fileID: 39838292}
  m_Enabled: 1
  m_EditorHideFlags: 0
  m_Script: {fileID: -765806418, guid: f70555f144d8491a825f0804e09c671c, type: 3}
  m_Name: 
  m_EditorClassIdentifier: 
  m_Material: {fileID: 0}
  m_Color: {r: 1, g: 1, b: 1, a: 1}
  m_RaycastTarget: 1
  m_OnCullStateChanged:
    m_PersistentCalls:
      m_Calls: []
    m_TypeName: UnityEngine.UI.MaskableGraphic+CullStateChangedEvent, UnityEngine.UI,
      Version=1.0.0.0, Culture=neutral, PublicKeyToken=null
  m_Sprite: {fileID: 10905, guid: 0000000000000000f000000000000000, type: 0}
  m_Type: 1
  m_PreserveAspect: 0
  m_FillCenter: 1
  m_FillMethod: 4
  m_FillAmount: 1
  m_FillClockwise: 1
  m_FillOrigin: 0
--- !u!222 &39838296
CanvasRenderer:
  m_ObjectHideFlags: 0
  m_PrefabParentObject: {fileID: 0}
  m_PrefabInternal: {fileID: 0}
  m_GameObject: {fileID: 39838292}
--- !u!1 &52001735
GameObject:
  m_ObjectHideFlags: 0
  m_PrefabParentObject: {fileID: 0}
  m_PrefabInternal: {fileID: 0}
  serializedVersion: 5
  m_Component:
  - component: {fileID: 52001736}
  - component: {fileID: 52001738}
  - component: {fileID: 52001737}
  m_Layer: 5
  m_Name: Text
  m_TagString: Untagged
  m_Icon: {fileID: 0}
  m_NavMeshLayer: 0
  m_StaticEditorFlags: 0
  m_IsActive: 1
--- !u!224 &52001736
RectTransform:
  m_ObjectHideFlags: 0
  m_PrefabParentObject: {fileID: 0}
  m_PrefabInternal: {fileID: 0}
  m_GameObject: {fileID: 52001735}
  m_LocalRotation: {x: 0, y: 0, z: 0, w: 1}
  m_LocalPosition: {x: 0, y: 0, z: 0}
  m_LocalScale: {x: 1, y: 1, z: 1}
  m_Children: []
  m_Father: {fileID: 823050835}
  m_RootOrder: 0
  m_LocalEulerAnglesHint: {x: 0, y: 0, z: 0}
  m_AnchorMin: {x: 0, y: 0}
  m_AnchorMax: {x: 1, y: 1}
  m_AnchoredPosition: {x: 0, y: 0}
  m_SizeDelta: {x: 0, y: 0}
  m_Pivot: {x: 0.5, y: 0.5}
--- !u!114 &52001737
MonoBehaviour:
  m_ObjectHideFlags: 0
  m_PrefabParentObject: {fileID: 0}
  m_PrefabInternal: {fileID: 0}
  m_GameObject: {fileID: 52001735}
  m_Enabled: 1
  m_EditorHideFlags: 0
  m_Script: {fileID: 708705254, guid: f70555f144d8491a825f0804e09c671c, type: 3}
  m_Name: 
  m_EditorClassIdentifier: 
  m_Material: {fileID: 0}
  m_Color: {r: 0.19607843, g: 0.19607843, b: 0.19607843, a: 1}
  m_RaycastTarget: 1
  m_OnCullStateChanged:
    m_PersistentCalls:
      m_Calls: []
    m_TypeName: UnityEngine.UI.MaskableGraphic+CullStateChangedEvent, UnityEngine.UI,
      Version=1.0.0.0, Culture=neutral, PublicKeyToken=null
  m_FontData:
    m_Font: {fileID: 10102, guid: 0000000000000000e000000000000000, type: 0}
    m_FontSize: 14
    m_FontStyle: 0
    m_BestFit: 0
    m_MinSize: 10
    m_MaxSize: 40
    m_Alignment: 4
    m_AlignByGeometry: 0
    m_RichText: 1
    m_HorizontalOverflow: 0
    m_VerticalOverflow: 0
    m_LineSpacing: 1
  m_Text: 2
--- !u!222 &52001738
CanvasRenderer:
  m_ObjectHideFlags: 0
  m_PrefabParentObject: {fileID: 0}
  m_PrefabInternal: {fileID: 0}
  m_GameObject: {fileID: 52001735}
--- !u!1 &322703820
GameObject:
  m_ObjectHideFlags: 0
  m_PrefabParentObject: {fileID: 1658448978235664, guid: b7acfa1e7e117164e87344cb23071a1a,
    type: 2}
  m_PrefabInternal: {fileID: 1721783735}
  serializedVersion: 5
  m_Component:
  - component: {fileID: 322703821}
  - component: {fileID: 322703824}
  - component: {fileID: 322703823}
  - component: {fileID: 322703822}
  m_Layer: 0
  m_Name: 3DCube
  m_TagString: Untagged
  m_Icon: {fileID: 0}
  m_NavMeshLayer: 0
  m_StaticEditorFlags: 0
  m_IsActive: 1
--- !u!4 &322703821
Transform:
  m_ObjectHideFlags: 0
  m_PrefabParentObject: {fileID: 4113800991732702, guid: b7acfa1e7e117164e87344cb23071a1a,
    type: 2}
  m_PrefabInternal: {fileID: 1721783735}
  m_GameObject: {fileID: 322703820}
  m_LocalRotation: {x: 0.50000006, y: 0.50000006, z: -0.5, w: 0.5}
  m_LocalPosition: {x: 0, y: 0, z: 0}
  m_LocalScale: {x: 0.05, y: 0.15, z: 0.15}
  m_Children:
  - {fileID: 1703053025}
  - {fileID: 1223524665}
  m_Father: {fileID: 1457812813}
  m_RootOrder: 0
  m_LocalEulerAnglesHint: {x: 90.00001, y: 0, z: -90}
--- !u!114 &322703822
MonoBehaviour:
  m_ObjectHideFlags: 0
  m_PrefabParentObject: {fileID: 114956640614607208, guid: b7acfa1e7e117164e87344cb23071a1a,
    type: 2}
  m_PrefabInternal: {fileID: 1721783735}
  m_GameObject: {fileID: 322703820}
  m_Enabled: 1
  m_EditorHideFlags: 0
  m_Script: {fileID: 11500000, guid: 3034b45033fe31e4bb56eb1a0df1a9bf, type: 3}
  m_Name: 
  m_EditorClassIdentifier: 
  minimumScale: 0.01
  maximumScale: 1
  scaleSpeed: 0.001
--- !u!114 &322703823
MonoBehaviour:
  m_ObjectHideFlags: 0
  m_PrefabParentObject: {fileID: 114408188228132310, guid: b7acfa1e7e117164e87344cb23071a1a,
    type: 2}
  m_PrefabInternal: {fileID: 1721783735}
  m_GameObject: {fileID: 322703820}
  m_Enabled: 1
  m_EditorHideFlags: 0
  m_Script: {fileID: 11500000, guid: 524a598c5a33e1a428608a089edf9ccc, type: 3}
  m_Name: 
  m_EditorClassIdentifier: 
  rotationX: 0
  rotationY: 0
  rotationZ: 1
--- !u!95 &322703824
Animator:
  serializedVersion: 3
  m_ObjectHideFlags: 0
  m_PrefabParentObject: {fileID: 95589848608485612, guid: b7acfa1e7e117164e87344cb23071a1a,
    type: 2}
  m_PrefabInternal: {fileID: 1721783735}
  m_GameObject: {fileID: 322703820}
  m_Enabled: 1
  m_Avatar: {fileID: 9000000, guid: fe9e19b02bc1dab459723bcbde770e54, type: 3}
  m_Controller: {fileID: 0}
  m_CullingMode: 0
  m_UpdateMode: 0
  m_ApplyRootMotion: 0
  m_LinearVelocityBlending: 0
  m_WarningMessage: 
  m_HasTransformHierarchy: 1
  m_AllowConstantClipSamplingOptimization: 1
--- !u!1 &428007107
GameObject:
  m_ObjectHideFlags: 0
  m_PrefabParentObject: {fileID: 1928146084448314, guid: b7acfa1e7e117164e87344cb23071a1a,
    type: 2}
  m_PrefabInternal: {fileID: 761222823}
  serializedVersion: 5
  m_Component:
  - component: {fileID: 428007108}
  m_Layer: 0
  m_Name: skp_camera_Last_Saved_SketchUp_View
  m_TagString: Untagged
  m_Icon: {fileID: 0}
  m_NavMeshLayer: 0
  m_StaticEditorFlags: 0
  m_IsActive: 1
--- !u!4 &428007108
Transform:
  m_ObjectHideFlags: 0
  m_PrefabParentObject: {fileID: 4105047288108764, guid: b7acfa1e7e117164e87344cb23071a1a,
    type: 2}
  m_PrefabInternal: {fileID: 761222823}
  m_GameObject: {fileID: 428007107}
  m_LocalRotation: {x: -0.5544931, y: 0.4387908, z: -0.16376334, w: 0.68788195}
  m_LocalPosition: {x: 3.6061177, y: -4.512273, z: -2.710574}
  m_LocalScale: {x: 0.99999994, y: 1, z: 0.99999994}
  m_Children: []
  m_Father: {fileID: 1201023952}
  m_RootOrder: 1
  m_LocalEulerAnglesHint: {x: 0, y: 0, z: 0}
--- !u!1 &452469817
GameObject:
  m_ObjectHideFlags: 0
  m_PrefabParentObject: {fileID: 1658448978235664, guid: b7acfa1e7e117164e87344cb23071a1a,
    type: 2}
  m_PrefabInternal: {fileID: 1878805041}
  serializedVersion: 5
  m_Component:
  - component: {fileID: 452469818}
  - component: {fileID: 452469821}
  - component: {fileID: 452469820}
  - component: {fileID: 452469819}
  m_Layer: 0
  m_Name: 3DCube
  m_TagString: Untagged
  m_Icon: {fileID: 0}
  m_NavMeshLayer: 0
  m_StaticEditorFlags: 0
  m_IsActive: 1
--- !u!4 &452469818
Transform:
  m_ObjectHideFlags: 0
  m_PrefabParentObject: {fileID: 4113800991732702, guid: b7acfa1e7e117164e87344cb23071a1a,
    type: 2}
  m_PrefabInternal: {fileID: 1878805041}
  m_GameObject: {fileID: 452469817}
  m_LocalRotation: {x: 0.50000006, y: 0.50000006, z: -0.5, w: 0.5}
  m_LocalPosition: {x: 0, y: 0, z: 0}
  m_LocalScale: {x: 0.15, y: 0.05, z: 0.15}
  m_Children:
  - {fileID: 608872456}
  - {fileID: 1178118182}
  m_Father: {fileID: 1083209815}
  m_RootOrder: 0
  m_LocalEulerAnglesHint: {x: 90.00001, y: 0, z: -90}
--- !u!114 &452469819
MonoBehaviour:
  m_ObjectHideFlags: 0
  m_PrefabParentObject: {fileID: 114956640614607208, guid: b7acfa1e7e117164e87344cb23071a1a,
    type: 2}
  m_PrefabInternal: {fileID: 1878805041}
  m_GameObject: {fileID: 452469817}
  m_Enabled: 1
  m_EditorHideFlags: 0
  m_Script: {fileID: 11500000, guid: 3034b45033fe31e4bb56eb1a0df1a9bf, type: 3}
  m_Name: 
  m_EditorClassIdentifier: 
  minimumScale: 0.01
  maximumScale: 1
  scaleSpeed: 0.001
--- !u!114 &452469820
MonoBehaviour:
  m_ObjectHideFlags: 0
  m_PrefabParentObject: {fileID: 114408188228132310, guid: b7acfa1e7e117164e87344cb23071a1a,
    type: 2}
  m_PrefabInternal: {fileID: 1878805041}
  m_GameObject: {fileID: 452469817}
  m_Enabled: 1
  m_EditorHideFlags: 0
  m_Script: {fileID: 11500000, guid: 524a598c5a33e1a428608a089edf9ccc, type: 3}
  m_Name: 
  m_EditorClassIdentifier: 
  rotationX: 0
  rotationY: 0
  rotationZ: 1
--- !u!95 &452469821
Animator:
  serializedVersion: 3
  m_ObjectHideFlags: 0
  m_PrefabParentObject: {fileID: 95589848608485612, guid: b7acfa1e7e117164e87344cb23071a1a,
    type: 2}
  m_PrefabInternal: {fileID: 1878805041}
  m_GameObject: {fileID: 452469817}
  m_Enabled: 1
  m_Avatar: {fileID: 9000000, guid: fe9e19b02bc1dab459723bcbde770e54, type: 3}
  m_Controller: {fileID: 0}
  m_CullingMode: 0
  m_UpdateMode: 0
  m_ApplyRootMotion: 0
  m_LinearVelocityBlending: 0
  m_WarningMessage: 
  m_HasTransformHierarchy: 1
  m_AllowConstantClipSamplingOptimization: 1
--- !u!1 &479468936
GameObject:
  m_ObjectHideFlags: 0
  m_PrefabParentObject: {fileID: 1821778034951864, guid: b7acfa1e7e117164e87344cb23071a1a,
    type: 2}
  m_PrefabInternal: {fileID: 761222823}
  serializedVersion: 5
  m_Component:
  - component: {fileID: 479468937}
  - component: {fileID: 479468939}
  - component: {fileID: 479468938}
  m_Layer: 0
  m_Name: group_0
  m_TagString: Untagged
  m_Icon: {fileID: 0}
  m_NavMeshLayer: 0
  m_StaticEditorFlags: 0
  m_IsActive: 1
--- !u!4 &479468937
Transform:
  m_ObjectHideFlags: 0
  m_PrefabParentObject: {fileID: 4516430976466204, guid: b7acfa1e7e117164e87344cb23071a1a,
    type: 2}
  m_PrefabInternal: {fileID: 761222823}
  m_GameObject: {fileID: 479468936}
  m_LocalRotation: {x: 0, y: 0, z: 0.7071068, w: 0.7071068}
  m_LocalPosition: {x: 0.82755125, y: 0.7432325, z: -0.1331102}
  m_LocalScale: {x: 1, y: 1, z: 1}
  m_Children:
  - {fileID: 1844415139}
  m_Father: {fileID: 1201023952}
  m_RootOrder: 0
  m_LocalEulerAnglesHint: {x: 0, y: 0, z: 0}
--- !u!23 &479468938
MeshRenderer:
  m_ObjectHideFlags: 0
  m_PrefabParentObject: {fileID: 23593423208719926, guid: b7acfa1e7e117164e87344cb23071a1a,
    type: 2}
  m_PrefabInternal: {fileID: 761222823}
  m_GameObject: {fileID: 479468936}
  m_Enabled: 1
  m_CastShadows: 1
  m_ReceiveShadows: 1
  m_DynamicOccludee: 1
  m_MotionVectors: 1
  m_LightProbeUsage: 1
  m_ReflectionProbeUsage: 1
  m_Materials:
  - {fileID: 2100000, guid: 44a60d36184c7814c938717a94cb5783, type: 2}
  m_StaticBatchInfo:
    firstSubMesh: 0
    subMeshCount: 0
  m_StaticBatchRoot: {fileID: 0}
  m_ProbeAnchor: {fileID: 0}
  m_LightProbeVolumeOverride: {fileID: 0}
  m_ScaleInLightmap: 1
  m_PreserveUVs: 0
  m_IgnoreNormalsForChartDetection: 0
  m_ImportantGI: 0
  m_StitchLightmapSeams: 0
  m_SelectedEditorRenderState: 3
  m_MinimumChartSize: 4
  m_AutoUVMaxDistance: 0.5
  m_AutoUVMaxAngle: 89
  m_LightmapParameters: {fileID: 0}
  m_SortingLayerID: 0
  m_SortingLayer: 0
  m_SortingOrder: 0
--- !u!33 &479468939
MeshFilter:
  m_ObjectHideFlags: 0
  m_PrefabParentObject: {fileID: 33002596678543174, guid: b7acfa1e7e117164e87344cb23071a1a,
    type: 2}
  m_PrefabInternal: {fileID: 761222823}
  m_GameObject: {fileID: 479468936}
  m_Mesh: {fileID: 4300000, guid: fe9e19b02bc1dab459723bcbde770e54, type: 3}
--- !u!1001 &599821359
Prefab:
  m_ObjectHideFlags: 0
  serializedVersion: 2
  m_Modification:
    m_TransformParent: {fileID: 0}
    m_Modifications:
    - target: {fileID: 4000010652187150, guid: c11a1b8316f425e469028acee630d862, type: 2}
      propertyPath: m_LocalPosition.x
      value: 0
      objectReference: {fileID: 0}
    - target: {fileID: 4000010652187150, guid: c11a1b8316f425e469028acee630d862, type: 2}
      propertyPath: m_LocalPosition.y
      value: 2.5
      objectReference: {fileID: 0}
    - target: {fileID: 4000010652187150, guid: c11a1b8316f425e469028acee630d862, type: 2}
      propertyPath: m_LocalPosition.z
      value: 0
      objectReference: {fileID: 0}
    - target: {fileID: 4000010652187150, guid: c11a1b8316f425e469028acee630d862, type: 2}
      propertyPath: m_LocalRotation.x
      value: 0.7071068
      objectReference: {fileID: 0}
    - target: {fileID: 4000010652187150, guid: c11a1b8316f425e469028acee630d862, type: 2}
      propertyPath: m_LocalRotation.y
      value: 0
      objectReference: {fileID: 0}
    - target: {fileID: 4000010652187150, guid: c11a1b8316f425e469028acee630d862, type: 2}
      propertyPath: m_LocalRotation.z
      value: 0
      objectReference: {fileID: 0}
    - target: {fileID: 4000010652187150, guid: c11a1b8316f425e469028acee630d862, type: 2}
      propertyPath: m_LocalRotation.w
      value: 0.7071068
      objectReference: {fileID: 0}
    - target: {fileID: 4000010652187150, guid: c11a1b8316f425e469028acee630d862, type: 2}
      propertyPath: m_RootOrder
      value: 0
      objectReference: {fileID: 0}
    - target: {fileID: 114000010340955834, guid: c11a1b8316f425e469028acee630d862,
        type: 2}
      propertyPath: worldCenterMode
      value: 0
      objectReference: {fileID: 0}
    m_RemovedComponents: []
  m_ParentPrefab: {fileID: 100100000, guid: c11a1b8316f425e469028acee630d862, type: 2}
  m_RootGameObject: {fileID: 930920146}
  m_IsPrefabParent: 0
--- !u!1 &608872455
GameObject:
  m_ObjectHideFlags: 0
  m_PrefabParentObject: {fileID: 1821778034951864, guid: b7acfa1e7e117164e87344cb23071a1a,
    type: 2}
  m_PrefabInternal: {fileID: 1878805041}
  serializedVersion: 5
  m_Component:
  - component: {fileID: 608872456}
  - component: {fileID: 608872458}
  - component: {fileID: 608872457}
  m_Layer: 0
  m_Name: group_0
  m_TagString: Untagged
  m_Icon: {fileID: 0}
  m_NavMeshLayer: 0
  m_StaticEditorFlags: 0
  m_IsActive: 1
--- !u!4 &608872456
Transform:
  m_ObjectHideFlags: 0
  m_PrefabParentObject: {fileID: 4516430976466204, guid: b7acfa1e7e117164e87344cb23071a1a,
    type: 2}
  m_PrefabInternal: {fileID: 1878805041}
  m_GameObject: {fileID: 608872455}
  m_LocalRotation: {x: 0, y: 0, z: 0.7071068, w: 0.7071068}
  m_LocalPosition: {x: 0.82755125, y: 0.7432325, z: -0.1331102}
  m_LocalScale: {x: 1, y: 1, z: 1}
  m_Children:
  - {fileID: 967423520}
  m_Father: {fileID: 452469818}
  m_RootOrder: 0
  m_LocalEulerAnglesHint: {x: 0, y: 0, z: 0}
--- !u!23 &608872457
MeshRenderer:
  m_ObjectHideFlags: 0
  m_PrefabParentObject: {fileID: 23593423208719926, guid: b7acfa1e7e117164e87344cb23071a1a,
    type: 2}
  m_PrefabInternal: {fileID: 1878805041}
  m_GameObject: {fileID: 608872455}
  m_Enabled: 1
  m_CastShadows: 1
  m_ReceiveShadows: 1
  m_DynamicOccludee: 1
  m_MotionVectors: 1
  m_LightProbeUsage: 1
  m_ReflectionProbeUsage: 1
  m_Materials:
  - {fileID: 2100000, guid: 44a60d36184c7814c938717a94cb5783, type: 2}
  m_StaticBatchInfo:
    firstSubMesh: 0
    subMeshCount: 0
  m_StaticBatchRoot: {fileID: 0}
  m_ProbeAnchor: {fileID: 0}
  m_LightProbeVolumeOverride: {fileID: 0}
  m_ScaleInLightmap: 1
  m_PreserveUVs: 0
  m_IgnoreNormalsForChartDetection: 0
  m_ImportantGI: 0
  m_StitchLightmapSeams: 0
  m_SelectedEditorRenderState: 3
  m_MinimumChartSize: 4
  m_AutoUVMaxDistance: 0.5
  m_AutoUVMaxAngle: 89
  m_LightmapParameters: {fileID: 0}
  m_SortingLayerID: 0
  m_SortingLayer: 0
  m_SortingOrder: 0
--- !u!33 &608872458
MeshFilter:
  m_ObjectHideFlags: 0
  m_PrefabParentObject: {fileID: 33002596678543174, guid: b7acfa1e7e117164e87344cb23071a1a,
    type: 2}
  m_PrefabInternal: {fileID: 1878805041}
  m_GameObject: {fileID: 608872455}
  m_Mesh: {fileID: 4300000, guid: fe9e19b02bc1dab459723bcbde770e54, type: 3}
--- !u!1 &637476486
GameObject:
  m_ObjectHideFlags: 0
  m_PrefabParentObject: {fileID: 0}
  m_PrefabInternal: {fileID: 0}
  serializedVersion: 5
  m_Component:
  - component: {fileID: 637476487}
  - component: {fileID: 637476490}
  - component: {fileID: 637476489}
  - component: {fileID: 637476488}
  m_Layer: 5
  m_Name: Back
  m_TagString: Untagged
  m_Icon: {fileID: 0}
  m_NavMeshLayer: 0
  m_StaticEditorFlags: 0
  m_IsActive: 1
--- !u!224 &637476487
RectTransform:
  m_ObjectHideFlags: 0
  m_PrefabParentObject: {fileID: 0}
  m_PrefabInternal: {fileID: 0}
  m_GameObject: {fileID: 637476486}
  m_LocalRotation: {x: -0, y: -0, z: -0, w: 1}
  m_LocalPosition: {x: 0, y: 0, z: 0}
  m_LocalScale: {x: 1.3333299, y: 1.3333299, z: 1.3333299}
  m_Children:
  - {fileID: 746220483}
  m_Father: {fileID: 858551798}
  m_RootOrder: 4
  m_LocalEulerAnglesHint: {x: 0, y: 0, z: 0}
  m_AnchorMin: {x: 0, y: 1}
  m_AnchorMax: {x: 0, y: 1}
  m_AnchoredPosition: {x: 6.666626, y: -6.666626}
  m_SizeDelta: {x: 25, y: 15}
  m_Pivot: {x: 0, y: 1}
--- !u!114 &637476488
MonoBehaviour:
  m_ObjectHideFlags: 0
  m_PrefabParentObject: {fileID: 0}
  m_PrefabInternal: {fileID: 0}
  m_GameObject: {fileID: 637476486}
  m_Enabled: 1
  m_EditorHideFlags: 0
  m_Script: {fileID: 1392445389, guid: f70555f144d8491a825f0804e09c671c, type: 3}
  m_Name: 
  m_EditorClassIdentifier: 
  m_Navigation:
    m_Mode: 3
    m_SelectOnUp: {fileID: 0}
    m_SelectOnDown: {fileID: 0}
    m_SelectOnLeft: {fileID: 0}
    m_SelectOnRight: {fileID: 0}
  m_Transition: 1
  m_Colors:
    m_NormalColor: {r: 1, g: 1, b: 1, a: 1}
    m_HighlightedColor: {r: 0.9607843, g: 0.9607843, b: 0.9607843, a: 1}
    m_PressedColor: {r: 0.78431374, g: 0.78431374, b: 0.78431374, a: 1}
    m_DisabledColor: {r: 0.78431374, g: 0.78431374, b: 0.78431374, a: 0.5019608}
    m_ColorMultiplier: 1
    m_FadeDuration: 0.1
  m_SpriteState:
    m_HighlightedSprite: {fileID: 0}
    m_PressedSprite: {fileID: 0}
    m_DisabledSprite: {fileID: 0}
  m_AnimationTriggers:
    m_NormalTrigger: Normal
    m_HighlightedTrigger: Highlighted
    m_PressedTrigger: Pressed
    m_DisabledTrigger: Disabled
  m_Interactable: 1
  m_TargetGraphic: {fileID: 637476489}
  m_OnClick:
    m_PersistentCalls:
      m_Calls:
      - m_Target: {fileID: 926542986}
        m_MethodName: OnClickBackButton
        m_Mode: 1
        m_Arguments:
          m_ObjectArgument: {fileID: 0}
          m_ObjectArgumentAssemblyTypeName: UnityEngine.Object, UnityEngine
          m_IntArgument: 0
          m_FloatArgument: 0
          m_StringArgument: 
          m_BoolArgument: 0
        m_CallState: 2
    m_TypeName: UnityEngine.UI.Button+ButtonClickedEvent, UnityEngine.UI, Version=1.0.0.0,
      Culture=neutral, PublicKeyToken=null
--- !u!114 &637476489
MonoBehaviour:
  m_ObjectHideFlags: 0
  m_PrefabParentObject: {fileID: 0}
  m_PrefabInternal: {fileID: 0}
  m_GameObject: {fileID: 637476486}
  m_Enabled: 1
  m_EditorHideFlags: 0
  m_Script: {fileID: -765806418, guid: f70555f144d8491a825f0804e09c671c, type: 3}
  m_Name: 
  m_EditorClassIdentifier: 
  m_Material: {fileID: 0}
  m_Color: {r: 1, g: 1, b: 1, a: 1}
  m_RaycastTarget: 1
  m_OnCullStateChanged:
    m_PersistentCalls:
      m_Calls: []
    m_TypeName: UnityEngine.UI.MaskableGraphic+CullStateChangedEvent, UnityEngine.UI,
      Version=1.0.0.0, Culture=neutral, PublicKeyToken=null
  m_Sprite: {fileID: 10905, guid: 0000000000000000f000000000000000, type: 0}
  m_Type: 1
  m_PreserveAspect: 0
  m_FillCenter: 1
  m_FillMethod: 4
  m_FillAmount: 1
  m_FillClockwise: 1
  m_FillOrigin: 0
--- !u!222 &637476490
CanvasRenderer:
  m_ObjectHideFlags: 0
  m_PrefabParentObject: {fileID: 0}
  m_PrefabInternal: {fileID: 0}
  m_GameObject: {fileID: 637476486}
--- !u!1 &746220482
GameObject:
  m_ObjectHideFlags: 0
  m_PrefabParentObject: {fileID: 0}
  m_PrefabInternal: {fileID: 0}
  serializedVersion: 5
  m_Component:
  - component: {fileID: 746220483}
  - component: {fileID: 746220485}
  - component: {fileID: 746220484}
  m_Layer: 5
  m_Name: Text
  m_TagString: Untagged
  m_Icon: {fileID: 0}
  m_NavMeshLayer: 0
  m_StaticEditorFlags: 0
  m_IsActive: 1
--- !u!224 &746220483
RectTransform:
  m_ObjectHideFlags: 0
  m_PrefabParentObject: {fileID: 0}
  m_PrefabInternal: {fileID: 0}
  m_GameObject: {fileID: 746220482}
  m_LocalRotation: {x: 0, y: 0, z: 0, w: 1}
  m_LocalPosition: {x: 0, y: 0, z: 0}
  m_LocalScale: {x: 1, y: 1, z: 1}
  m_Children: []
  m_Father: {fileID: 637476487}
  m_RootOrder: 0
  m_LocalEulerAnglesHint: {x: 0, y: 0, z: 0}
  m_AnchorMin: {x: 0, y: 0}
  m_AnchorMax: {x: 1, y: 1}
  m_AnchoredPosition: {x: 0, y: 0}
  m_SizeDelta: {x: 0, y: 0}
  m_Pivot: {x: 0.5, y: 0.5}
--- !u!114 &746220484
MonoBehaviour:
  m_ObjectHideFlags: 0
  m_PrefabParentObject: {fileID: 0}
  m_PrefabInternal: {fileID: 0}
  m_GameObject: {fileID: 746220482}
  m_Enabled: 1
  m_EditorHideFlags: 0
  m_Script: {fileID: 708705254, guid: f70555f144d8491a825f0804e09c671c, type: 3}
  m_Name: 
  m_EditorClassIdentifier: 
  m_Material: {fileID: 0}
  m_Color: {r: 0.19607843, g: 0.19607843, b: 0.19607843, a: 1}
  m_RaycastTarget: 1
  m_OnCullStateChanged:
    m_PersistentCalls:
      m_Calls: []
    m_TypeName: UnityEngine.UI.MaskableGraphic+CullStateChangedEvent, UnityEngine.UI,
      Version=1.0.0.0, Culture=neutral, PublicKeyToken=null
  m_FontData:
    m_Font: {fileID: 10102, guid: 0000000000000000e000000000000000, type: 0}
    m_FontSize: 6
    m_FontStyle: 0
    m_BestFit: 0
    m_MinSize: 1
    m_MaxSize: 40
    m_Alignment: 4
    m_AlignByGeometry: 0
    m_RichText: 1
    m_HorizontalOverflow: 0
    m_VerticalOverflow: 0
    m_LineSpacing: 1
  m_Text: BACK
--- !u!222 &746220485
CanvasRenderer:
  m_ObjectHideFlags: 0
  m_PrefabParentObject: {fileID: 0}
  m_PrefabInternal: {fileID: 0}
  m_GameObject: {fileID: 746220482}
--- !u!1001 &761222823
Prefab:
  m_ObjectHideFlags: 0
  serializedVersion: 2
  m_Modification:
    m_TransformParent: {fileID: 1795176230}
    m_Modifications:
    - target: {fileID: 4113800991732702, guid: b7acfa1e7e117164e87344cb23071a1a, type: 2}
      propertyPath: m_LocalPosition.x
      value: 0
      objectReference: {fileID: 0}
    - target: {fileID: 4113800991732702, guid: b7acfa1e7e117164e87344cb23071a1a, type: 2}
      propertyPath: m_LocalPosition.y
      value: 0
      objectReference: {fileID: 0}
    - target: {fileID: 4113800991732702, guid: b7acfa1e7e117164e87344cb23071a1a, type: 2}
      propertyPath: m_LocalPosition.z
      value: 0
      objectReference: {fileID: 0}
    - target: {fileID: 4113800991732702, guid: b7acfa1e7e117164e87344cb23071a1a, type: 2}
      propertyPath: m_LocalRotation.x
      value: 0.50000006
      objectReference: {fileID: 0}
    - target: {fileID: 4113800991732702, guid: b7acfa1e7e117164e87344cb23071a1a, type: 2}
      propertyPath: m_LocalRotation.y
      value: 0.50000006
      objectReference: {fileID: 0}
    - target: {fileID: 4113800991732702, guid: b7acfa1e7e117164e87344cb23071a1a, type: 2}
      propertyPath: m_LocalRotation.z
      value: -0.5
      objectReference: {fileID: 0}
    - target: {fileID: 4113800991732702, guid: b7acfa1e7e117164e87344cb23071a1a, type: 2}
      propertyPath: m_LocalRotation.w
      value: 0.5
      objectReference: {fileID: 0}
    - target: {fileID: 4113800991732702, guid: b7acfa1e7e117164e87344cb23071a1a, type: 2}
      propertyPath: m_RootOrder
      value: 0
      objectReference: {fileID: 0}
    - target: {fileID: 4113800991732702, guid: b7acfa1e7e117164e87344cb23071a1a, type: 2}
      propertyPath: m_LocalScale.z
      value: 0.05
      objectReference: {fileID: 0}
    - target: {fileID: 1658448978235664, guid: b7acfa1e7e117164e87344cb23071a1a, type: 2}
      propertyPath: m_Name
      value: 3DCube
      objectReference: {fileID: 0}
    m_RemovedComponents: []
  m_ParentPrefab: {fileID: 100100000, guid: b7acfa1e7e117164e87344cb23071a1a, type: 2}
  m_RootGameObject: {fileID: 1201023951}
  m_IsPrefabParent: 0
--- !u!1 &780055726
GameObject:
  m_ObjectHideFlags: 0
  m_PrefabParentObject: {fileID: 0}
  m_PrefabInternal: {fileID: 0}
  serializedVersion: 5
  m_Component:
  - component: {fileID: 780055727}
  - component: {fileID: 780055729}
  - component: {fileID: 780055728}
  m_Layer: 5
  m_Name: Text
  m_TagString: Untagged
  m_Icon: {fileID: 0}
  m_NavMeshLayer: 0
  m_StaticEditorFlags: 0
  m_IsActive: 1
--- !u!224 &780055727
RectTransform:
  m_ObjectHideFlags: 0
  m_PrefabParentObject: {fileID: 0}
  m_PrefabInternal: {fileID: 0}
  m_GameObject: {fileID: 780055726}
  m_LocalRotation: {x: 0, y: 0, z: 0, w: 1}
  m_LocalPosition: {x: 0, y: 0, z: 0}
  m_LocalScale: {x: 1, y: 1, z: 1}
  m_Children: []
  m_Father: {fileID: 39838293}
  m_RootOrder: 0
  m_LocalEulerAnglesHint: {x: 0, y: 0, z: 0}
  m_AnchorMin: {x: 0, y: 0}
  m_AnchorMax: {x: 1, y: 1}
  m_AnchoredPosition: {x: 0, y: 0}
  m_SizeDelta: {x: 0, y: 0}
  m_Pivot: {x: 0.5, y: 0.5}
--- !u!114 &780055728
MonoBehaviour:
  m_ObjectHideFlags: 0
  m_PrefabParentObject: {fileID: 0}
  m_PrefabInternal: {fileID: 0}
  m_GameObject: {fileID: 780055726}
  m_Enabled: 1
  m_EditorHideFlags: 0
  m_Script: {fileID: 708705254, guid: f70555f144d8491a825f0804e09c671c, type: 3}
  m_Name: 
  m_EditorClassIdentifier: 
  m_Material: {fileID: 0}
  m_Color: {r: 0.19607843, g: 0.19607843, b: 0.19607843, a: 1}
  m_RaycastTarget: 1
  m_OnCullStateChanged:
    m_PersistentCalls:
      m_Calls: []
    m_TypeName: UnityEngine.UI.MaskableGraphic+CullStateChangedEvent, UnityEngine.UI,
      Version=1.0.0.0, Culture=neutral, PublicKeyToken=null
  m_FontData:
    m_Font: {fileID: 10102, guid: 0000000000000000e000000000000000, type: 0}
    m_FontSize: 14
    m_FontStyle: 0
    m_BestFit: 0
    m_MinSize: 10
    m_MaxSize: 40
    m_Alignment: 4
    m_AlignByGeometry: 0
    m_RichText: 1
    m_HorizontalOverflow: 0
    m_VerticalOverflow: 0
    m_LineSpacing: 1
  m_Text: 1
--- !u!222 &780055729
CanvasRenderer:
  m_ObjectHideFlags: 0
  m_PrefabParentObject: {fileID: 0}
  m_PrefabInternal: {fileID: 0}
  m_GameObject: {fileID: 780055726}
--- !u!1 &823050834
GameObject:
  m_ObjectHideFlags: 0
  m_PrefabParentObject: {fileID: 0}
  m_PrefabInternal: {fileID: 0}
  serializedVersion: 5
  m_Component:
  - component: {fileID: 823050835}
  - component: {fileID: 823050838}
  - component: {fileID: 823050837}
  - component: {fileID: 823050836}
  m_Layer: 5
  m_Name: 2
  m_TagString: Untagged
  m_Icon: {fileID: 0}
  m_NavMeshLayer: 0
  m_StaticEditorFlags: 0
  m_IsActive: 1
--- !u!224 &823050835
RectTransform:
  m_ObjectHideFlags: 0
  m_PrefabParentObject: {fileID: 0}
  m_PrefabInternal: {fileID: 0}
  m_GameObject: {fileID: 823050834}
  m_LocalRotation: {x: -0, y: -0, z: -0, w: 1}
  m_LocalPosition: {x: 0, y: 0, z: 0}
  m_LocalScale: {x: 0.99999887, y: 0.99999887, z: 0.99999887}
  m_Children:
  - {fileID: 52001736}
  m_Father: {fileID: 858551798}
  m_RootOrder: 2
  m_LocalEulerAnglesHint: {x: 0, y: 0, z: 0}
  m_AnchorMin: {x: 1, y: 1}
  m_AnchorMax: {x: 1, y: 1}
  m_AnchoredPosition: {x: 0, y: -50}
  m_SizeDelta: {x: 250, y: 50}
  m_Pivot: {x: 1, y: 1}
--- !u!114 &823050836
MonoBehaviour:
  m_ObjectHideFlags: 0
  m_PrefabParentObject: {fileID: 0}
  m_PrefabInternal: {fileID: 0}
  m_GameObject: {fileID: 823050834}
  m_Enabled: 1
  m_EditorHideFlags: 0
  m_Script: {fileID: 1392445389, guid: f70555f144d8491a825f0804e09c671c, type: 3}
  m_Name: 
  m_EditorClassIdentifier: 
  m_Navigation:
    m_Mode: 3
    m_SelectOnUp: {fileID: 0}
    m_SelectOnDown: {fileID: 0}
    m_SelectOnLeft: {fileID: 0}
    m_SelectOnRight: {fileID: 0}
  m_Transition: 1
  m_Colors:
    m_NormalColor: {r: 1, g: 1, b: 1, a: 1}
    m_HighlightedColor: {r: 0.9607843, g: 0.9607843, b: 0.9607843, a: 1}
    m_PressedColor: {r: 0.78431374, g: 0.78431374, b: 0.78431374, a: 1}
    m_DisabledColor: {r: 0.78431374, g: 0.78431374, b: 0.78431374, a: 0.5019608}
    m_ColorMultiplier: 1
    m_FadeDuration: 0.1
  m_SpriteState:
    m_HighlightedSprite: {fileID: 0}
    m_PressedSprite: {fileID: 0}
    m_DisabledSprite: {fileID: 0}
  m_AnimationTriggers:
    m_NormalTrigger: Normal
    m_HighlightedTrigger: Highlighted
    m_PressedTrigger: Pressed
    m_DisabledTrigger: Disabled
  m_Interactable: 1
  m_TargetGraphic: {fileID: 823050837}
  m_OnClick:
    m_PersistentCalls:
      m_Calls:
      - m_Target: {fileID: 926542986}
        m_MethodName: ClickNumber2
        m_Mode: 1
        m_Arguments:
          m_ObjectArgument: {fileID: 0}
          m_ObjectArgumentAssemblyTypeName: UnityEngine.Object, UnityEngine
          m_IntArgument: 0
          m_FloatArgument: 0
          m_StringArgument: 
          m_BoolArgument: 0
        m_CallState: 2
    m_TypeName: UnityEngine.UI.Button+ButtonClickedEvent, UnityEngine.UI, Version=1.0.0.0,
      Culture=neutral, PublicKeyToken=null
--- !u!114 &823050837
MonoBehaviour:
  m_ObjectHideFlags: 0
  m_PrefabParentObject: {fileID: 0}
  m_PrefabInternal: {fileID: 0}
  m_GameObject: {fileID: 823050834}
  m_Enabled: 1
  m_EditorHideFlags: 0
  m_Script: {fileID: -765806418, guid: f70555f144d8491a825f0804e09c671c, type: 3}
  m_Name: 
  m_EditorClassIdentifier: 
  m_Material: {fileID: 0}
  m_Color: {r: 1, g: 1, b: 1, a: 1}
  m_RaycastTarget: 1
  m_OnCullStateChanged:
    m_PersistentCalls:
      m_Calls: []
    m_TypeName: UnityEngine.UI.MaskableGraphic+CullStateChangedEvent, UnityEngine.UI,
      Version=1.0.0.0, Culture=neutral, PublicKeyToken=null
  m_Sprite: {fileID: 10905, guid: 0000000000000000f000000000000000, type: 0}
  m_Type: 1
  m_PreserveAspect: 0
  m_FillCenter: 1
  m_FillMethod: 4
  m_FillAmount: 1
  m_FillClockwise: 1
  m_FillOrigin: 0
--- !u!222 &823050838
CanvasRenderer:
  m_ObjectHideFlags: 0
  m_PrefabParentObject: {fileID: 0}
  m_PrefabInternal: {fileID: 0}
  m_GameObject: {fileID: 823050834}
--- !u!1 &858551794
GameObject:
  m_ObjectHideFlags: 0
  m_PrefabParentObject: {fileID: 0}
  m_PrefabInternal: {fileID: 0}
  serializedVersion: 5
  m_Component:
  - component: {fileID: 858551798}
  - component: {fileID: 858551797}
  - component: {fileID: 858551796}
  - component: {fileID: 858551795}
  m_Layer: 5
  m_Name: Canvas
  m_TagString: Untagged
  m_Icon: {fileID: 0}
  m_NavMeshLayer: 0
  m_StaticEditorFlags: 0
  m_IsActive: 1
--- !u!114 &858551795
MonoBehaviour:
  m_ObjectHideFlags: 0
  m_PrefabParentObject: {fileID: 0}
  m_PrefabInternal: {fileID: 0}
  m_GameObject: {fileID: 858551794}
  m_Enabled: 1
  m_EditorHideFlags: 0
  m_Script: {fileID: 1301386320, guid: f5f67c52d1564df4a8936ccd202a3bd8, type: 3}
  m_Name: 
  m_EditorClassIdentifier: 
  m_IgnoreReversedGraphics: 1
  m_BlockingObjects: 0
  m_BlockingMask:
    serializedVersion: 2
    m_Bits: 4294967295
--- !u!114 &858551796
MonoBehaviour:
  m_ObjectHideFlags: 0
  m_PrefabParentObject: {fileID: 0}
  m_PrefabInternal: {fileID: 0}
  m_GameObject: {fileID: 858551794}
  m_Enabled: 1
  m_EditorHideFlags: 0
  m_Script: {fileID: 1980459831, guid: f5f67c52d1564df4a8936ccd202a3bd8, type: 3}
  m_Name: 
  m_EditorClassIdentifier: 
  m_UiScaleMode: 1
  m_ReferencePixelsPerUnit: 100
  m_ScaleFactor: 1
  m_ReferenceResolution: {x: 1280, y: 720}
  m_ScreenMatchMode: 0
  m_MatchWidthOrHeight: 1
  m_PhysicalUnit: 3
  m_FallbackScreenDPI: 96
  m_DefaultSpriteDPI: 96
  m_DynamicPixelsPerUnit: 1
--- !u!223 &858551797
Canvas:
  m_ObjectHideFlags: 0
  m_PrefabParentObject: {fileID: 0}
  m_PrefabInternal: {fileID: 0}
  m_GameObject: {fileID: 858551794}
  m_Enabled: 1
  serializedVersion: 3
  m_RenderMode: 0
  m_Camera: {fileID: 0}
  m_PlaneDistance: 100
  m_PixelPerfect: 0
  m_ReceivesEvents: 1
  m_OverrideSorting: 0
  m_OverridePixelPerfect: 0
  m_SortingBucketNormalizedSize: 0
  m_AdditionalShaderChannelsFlag: 25
  m_SortingLayerID: 0
  m_SortingOrder: 0
  m_TargetDisplay: 0
--- !u!224 &858551798
RectTransform:
  m_ObjectHideFlags: 0
  m_PrefabParentObject: {fileID: 0}
  m_PrefabInternal: {fileID: 0}
  m_GameObject: {fileID: 858551794}
  m_LocalRotation: {x: 0, y: 0, z: 0, w: 1}
  m_LocalPosition: {x: 0, y: 0, z: 0}
  m_LocalScale: {x: 0, y: 0, z: 0}
  m_Children:
  - {fileID: 1810198119}
  - {fileID: 39838293}
  - {fileID: 823050835}
  - {fileID: 2084181756}
  - {fileID: 637476487}
  m_Father: {fileID: 0}
  m_RootOrder: 2
  m_LocalEulerAnglesHint: {x: 0, y: 0, z: 0}
  m_AnchorMin: {x: 0, y: 0}
  m_AnchorMax: {x: 0, y: 0}
  m_AnchoredPosition: {x: 0, y: 0}
  m_SizeDelta: {x: 0, y: 0}
  m_Pivot: {x: 0, y: 0}
--- !u!1 &865439554
GameObject:
  m_ObjectHideFlags: 0
  m_PrefabParentObject: {fileID: 0}
  m_PrefabInternal: {fileID: 0}
  serializedVersion: 5
  m_Component:
  - component: {fileID: 865439555}
  - component: {fileID: 865439557}
  - component: {fileID: 865439556}
  m_Layer: 5
  m_Name: Text
  m_TagString: Untagged
  m_Icon: {fileID: 0}
  m_NavMeshLayer: 0
  m_StaticEditorFlags: 0
  m_IsActive: 1
--- !u!224 &865439555
RectTransform:
  m_ObjectHideFlags: 0
  m_PrefabParentObject: {fileID: 0}
  m_PrefabInternal: {fileID: 0}
  m_GameObject: {fileID: 865439554}
  m_LocalRotation: {x: 0, y: 0, z: 0, w: 1}
  m_LocalPosition: {x: 0, y: 0, z: 0}
  m_LocalScale: {x: 1, y: 1, z: 1}
  m_Children: []
  m_Father: {fileID: 2084181756}
  m_RootOrder: 0
  m_LocalEulerAnglesHint: {x: 0, y: 0, z: 0}
  m_AnchorMin: {x: 0, y: 0}
  m_AnchorMax: {x: 1, y: 1}
  m_AnchoredPosition: {x: 0, y: 0}
  m_SizeDelta: {x: 0, y: 0}
  m_Pivot: {x: 0.5, y: 0.5}
--- !u!114 &865439556
MonoBehaviour:
  m_ObjectHideFlags: 0
  m_PrefabParentObject: {fileID: 0}
  m_PrefabInternal: {fileID: 0}
  m_GameObject: {fileID: 865439554}
  m_Enabled: 1
  m_EditorHideFlags: 0
  m_Script: {fileID: 708705254, guid: f70555f144d8491a825f0804e09c671c, type: 3}
  m_Name: 
  m_EditorClassIdentifier: 
  m_Material: {fileID: 0}
  m_Color: {r: 0.19607843, g: 0.19607843, b: 0.19607843, a: 1}
  m_RaycastTarget: 1
  m_OnCullStateChanged:
    m_PersistentCalls:
      m_Calls: []
    m_TypeName: UnityEngine.UI.MaskableGraphic+CullStateChangedEvent, UnityEngine.UI,
      Version=1.0.0.0, Culture=neutral, PublicKeyToken=null
  m_FontData:
    m_Font: {fileID: 10102, guid: 0000000000000000e000000000000000, type: 0}
    m_FontSize: 14
    m_FontStyle: 0
    m_BestFit: 0
    m_MinSize: 10
    m_MaxSize: 40
    m_Alignment: 4
    m_AlignByGeometry: 0
    m_RichText: 1
    m_HorizontalOverflow: 0
    m_VerticalOverflow: 0
    m_LineSpacing: 1
  m_Text: 3
--- !u!222 &865439557
CanvasRenderer:
  m_ObjectHideFlags: 0
  m_PrefabParentObject: {fileID: 0}
  m_PrefabInternal: {fileID: 0}
  m_GameObject: {fileID: 865439554}
--- !u!1 &926542985
GameObject:
  m_ObjectHideFlags: 0
  m_PrefabParentObject: {fileID: 0}
  m_PrefabInternal: {fileID: 0}
  serializedVersion: 5
  m_Component:
  - component: {fileID: 926542987}
  - component: {fileID: 926542986}
  m_Layer: 0
  m_Name: SceneManager
  m_TagString: Untagged
  m_Icon: {fileID: 0}
  m_NavMeshLayer: 0
  m_StaticEditorFlags: 0
  m_IsActive: 1
--- !u!114 &926542986
MonoBehaviour:
  m_ObjectHideFlags: 0
  m_PrefabParentObject: {fileID: 0}
  m_PrefabInternal: {fileID: 0}
  m_GameObject: {fileID: 926542985}
  m_Enabled: 1
  m_EditorHideFlags: 0
  m_Script: {fileID: 11500000, guid: c422bfa1978d93b43ad27da7ba52fb39, type: 3}
  m_Name: 
  m_EditorClassIdentifier: 
  eventSystem: {fileID: 1030799949}
  startBtnText: {fileID: 2021142639}
  cube: {fileID: 1658448978235664, guid: b7acfa1e7e117164e87344cb23071a1a, type: 2}
--- !u!4 &926542987
Transform:
  m_ObjectHideFlags: 0
  m_PrefabParentObject: {fileID: 0}
  m_PrefabInternal: {fileID: 0}
  m_GameObject: {fileID: 926542985}
  m_LocalRotation: {x: 0, y: 0, z: 0, w: 1}
  m_LocalPosition: {x: 0, y: 0, z: 0}
  m_LocalScale: {x: 1, y: 1, z: 1}
  m_Children: []
  m_Father: {fileID: 0}
  m_RootOrder: 4
  m_LocalEulerAnglesHint: {x: 0, y: 0, z: 0}
--- !u!1 &930920146
GameObject:
  m_ObjectHideFlags: 0
  m_PrefabParentObject: {fileID: 1000010562872518, guid: c11a1b8316f425e469028acee630d862,
    type: 2}
  m_PrefabInternal: {fileID: 599821359}
  serializedVersion: 5
  m_Component:
  - component: {fileID: 930920153}
  - component: {fileID: 930920152}
  - component: {fileID: 930920151}
  - component: {fileID: 930920150}
  - component: {fileID: 930920149}
  - component: {fileID: 930920148}
  - component: {fileID: 930920147}
  m_Layer: 0
  m_Name: ARCamera
  m_TagString: MainCamera
  m_Icon: {fileID: 0}
  m_NavMeshLayer: 0
  m_StaticEditorFlags: 0
  m_IsActive: 1
--- !u!114 &930920147
MonoBehaviour:
  m_ObjectHideFlags: 0
  m_PrefabParentObject: {fileID: 114423355959775278, guid: c11a1b8316f425e469028acee630d862,
    type: 2}
  m_PrefabInternal: {fileID: 599821359}
  m_GameObject: {fileID: 930920146}
  m_Enabled: 1
  m_EditorHideFlags: 0
  m_Script: {fileID: 11500000, guid: 50052c1c6023ab547bb261475eb4adf1, type: 3}
  m_Name: 
  m_EditorClassIdentifier: 
--- !u!114 &930920148
MonoBehaviour:
  m_ObjectHideFlags: 0
  m_PrefabParentObject: {fileID: 114000010340955834, guid: c11a1b8316f425e469028acee630d862,
    type: 2}
  m_PrefabInternal: {fileID: 599821359}
  m_GameObject: {fileID: 930920146}
  m_Enabled: 1
  m_EditorHideFlags: 0
  m_Script: {fileID: 11500000, guid: 12707c4687010654c8967b632f0ecde4, type: 3}
  m_Name: 
  m_EditorClassIdentifier: 
  worldCenterMode: 0
--- !u!81 &930920149
AudioListener:
  m_ObjectHideFlags: 0
  m_PrefabParentObject: {fileID: 81000012307344688, guid: c11a1b8316f425e469028acee630d862,
    type: 2}
  m_PrefabInternal: {fileID: 599821359}
  m_GameObject: {fileID: 930920146}
  m_Enabled: 1
--- !u!124 &930920150
Behaviour:
  m_ObjectHideFlags: 0
  m_PrefabParentObject: {fileID: 124000010088712984, guid: c11a1b8316f425e469028acee630d862,
    type: 2}
  m_PrefabInternal: {fileID: 599821359}
  m_GameObject: {fileID: 930920146}
  m_Enabled: 1
--- !u!92 &930920151
Behaviour:
  m_ObjectHideFlags: 0
  m_PrefabParentObject: {fileID: 92000011838228644, guid: c11a1b8316f425e469028acee630d862,
    type: 2}
  m_PrefabInternal: {fileID: 599821359}
  m_GameObject: {fileID: 930920146}
  m_Enabled: 1
--- !u!20 &930920152
Camera:
  m_ObjectHideFlags: 0
  m_PrefabParentObject: {fileID: 20000010899958234, guid: c11a1b8316f425e469028acee630d862,
    type: 2}
  m_PrefabInternal: {fileID: 599821359}
  m_GameObject: {fileID: 930920146}
  m_Enabled: 1
  serializedVersion: 2
  m_ClearFlags: 2
  m_BackGroundColor: {r: 0, g: 0, b: 0, a: 1}
  m_NormalizedViewPortRect:
    serializedVersion: 2
    x: 0
    y: 0
    width: 1
    height: 1
  near clip plane: 0.01
  far clip plane: 5000
  field of view: 60
  orthographic: 0
  orthographic size: 5
  m_Depth: -1
  m_CullingMask:
    serializedVersion: 2
    m_Bits: 4294967295
  m_RenderingPath: -1
  m_TargetTexture: {fileID: 0}
  m_TargetDisplay: 0
  m_TargetEye: 3
  m_HDR: 0
  m_AllowMSAA: 1
  m_AllowDynamicResolution: 0
  m_ForceIntoRT: 0
  m_OcclusionCulling: 1
  m_StereoConvergence: 10
  m_StereoSeparation: 0.022
--- !u!4 &930920153
Transform:
  m_ObjectHideFlags: 0
  m_PrefabParentObject: {fileID: 4000010652187150, guid: c11a1b8316f425e469028acee630d862,
    type: 2}
  m_PrefabInternal: {fileID: 599821359}
  m_GameObject: {fileID: 930920146}
  m_LocalRotation: {x: 0.7071068, y: 0, z: 0, w: 0.7071068}
  m_LocalPosition: {x: 0, y: 2.5, z: 0}
  m_LocalScale: {x: 1, y: 1, z: 1}
  m_Children:
  - {fileID: 1528198769}
  m_Father: {fileID: 0}
  m_RootOrder: 0
  m_LocalEulerAnglesHint: {x: 90, y: 0, z: 0}
--- !u!1 &967423519
GameObject:
  m_ObjectHideFlags: 0
  m_PrefabParentObject: {fileID: 1604378274216210, guid: b7acfa1e7e117164e87344cb23071a1a,
    type: 2}
  m_PrefabInternal: {fileID: 1878805041}
  serializedVersion: 5
  m_Component:
  - component: {fileID: 967423520}
  - component: {fileID: 967423522}
  - component: {fileID: 967423521}
  m_Layer: 0
  m_Name: ID17
  m_TagString: Untagged
  m_Icon: {fileID: 0}
  m_NavMeshLayer: 0
  m_StaticEditorFlags: 0
  m_IsActive: 1
--- !u!4 &967423520
Transform:
  m_ObjectHideFlags: 0
  m_PrefabParentObject: {fileID: 4216550191616708, guid: b7acfa1e7e117164e87344cb23071a1a,
    type: 2}
  m_PrefabInternal: {fileID: 1878805041}
  m_GameObject: {fileID: 967423519}
  m_LocalRotation: {x: 0, y: -0, z: -0, w: 1}
  m_LocalPosition: {x: -0, y: 0, z: 0}
  m_LocalScale: {x: 1, y: 1, z: 1}
  m_Children: []
  m_Father: {fileID: 608872456}
  m_RootOrder: 0
  m_LocalEulerAnglesHint: {x: 0, y: 0, z: 0}
--- !u!23 &967423521
MeshRenderer:
  m_ObjectHideFlags: 0
  m_PrefabParentObject: {fileID: 23482113409393116, guid: b7acfa1e7e117164e87344cb23071a1a,
    type: 2}
  m_PrefabInternal: {fileID: 1878805041}
  m_GameObject: {fileID: 967423519}
  m_Enabled: 1
  m_CastShadows: 1
  m_ReceiveShadows: 1
  m_DynamicOccludee: 1
  m_MotionVectors: 1
  m_LightProbeUsage: 1
  m_ReflectionProbeUsage: 1
  m_Materials:
  - {fileID: 2100000, guid: b5176c3954b7be44c97581aa2157617d, type: 2}
  m_StaticBatchInfo:
    firstSubMesh: 0
    subMeshCount: 0
  m_StaticBatchRoot: {fileID: 0}
  m_ProbeAnchor: {fileID: 0}
  m_LightProbeVolumeOverride: {fileID: 0}
  m_ScaleInLightmap: 1
  m_PreserveUVs: 0
  m_IgnoreNormalsForChartDetection: 0
  m_ImportantGI: 0
  m_StitchLightmapSeams: 0
  m_SelectedEditorRenderState: 3
  m_MinimumChartSize: 4
  m_AutoUVMaxDistance: 0.5
  m_AutoUVMaxAngle: 89
  m_LightmapParameters: {fileID: 0}
  m_SortingLayerID: 0
  m_SortingLayer: 0
  m_SortingOrder: 0
--- !u!33 &967423522
MeshFilter:
  m_ObjectHideFlags: 0
  m_PrefabParentObject: {fileID: 33935427338843882, guid: b7acfa1e7e117164e87344cb23071a1a,
    type: 2}
  m_PrefabInternal: {fileID: 1878805041}
  m_GameObject: {fileID: 967423519}
  m_Mesh: {fileID: 4300002, guid: fe9e19b02bc1dab459723bcbde770e54, type: 3}
--- !u!1 &1030799947
GameObject:
  m_ObjectHideFlags: 0
  m_PrefabParentObject: {fileID: 0}
  m_PrefabInternal: {fileID: 0}
  serializedVersion: 5
  m_Component:
  - component: {fileID: 1030799950}
  - component: {fileID: 1030799949}
  - component: {fileID: 1030799948}
  m_Layer: 0
  m_Name: EventSystem
  m_TagString: Untagged
  m_Icon: {fileID: 0}
  m_NavMeshLayer: 0
  m_StaticEditorFlags: 0
  m_IsActive: 1
--- !u!114 &1030799948
MonoBehaviour:
  m_ObjectHideFlags: 0
  m_PrefabParentObject: {fileID: 0}
  m_PrefabInternal: {fileID: 0}
  m_GameObject: {fileID: 1030799947}
  m_Enabled: 1
  m_EditorHideFlags: 0
  m_Script: {fileID: 1077351063, guid: f5f67c52d1564df4a8936ccd202a3bd8, type: 3}
  m_Name: 
  m_EditorClassIdentifier: 
  m_HorizontalAxis: Horizontal
  m_VerticalAxis: Vertical
  m_SubmitButton: Submit
  m_CancelButton: Cancel
  m_InputActionsPerSecond: 10
  m_RepeatDelay: 0.5
  m_ForceModuleActive: 0
--- !u!114 &1030799949
MonoBehaviour:
  m_ObjectHideFlags: 0
  m_PrefabParentObject: {fileID: 0}
  m_PrefabInternal: {fileID: 0}
  m_GameObject: {fileID: 1030799947}
  m_Enabled: 1
  m_EditorHideFlags: 0
  m_Script: {fileID: -619905303, guid: f5f67c52d1564df4a8936ccd202a3bd8, type: 3}
  m_Name: 
  m_EditorClassIdentifier: 
  m_FirstSelected: {fileID: 1810198118}
  m_sendNavigationEvents: 1
  m_DragThreshold: 5
--- !u!4 &1030799950
Transform:
  m_ObjectHideFlags: 0
  m_PrefabParentObject: {fileID: 0}
  m_PrefabInternal: {fileID: 0}
  m_GameObject: {fileID: 1030799947}
  m_LocalRotation: {x: 0, y: 0, z: 0, w: 1}
  m_LocalPosition: {x: 0, y: 0, z: 0}
  m_LocalScale: {x: 1, y: 1, z: 1}
  m_Children: []
  m_Father: {fileID: 0}
  m_RootOrder: 3
  m_LocalEulerAnglesHint: {x: 0, y: 0, z: 0}
--- !u!1001 &1083209813
Prefab:
  m_ObjectHideFlags: 0
  serializedVersion: 2
  m_Modification:
    m_TransformParent: {fileID: 0}
    m_Modifications:
    - target: {fileID: 4000013069966630, guid: c695ffb68574cd148b85e64f0913c99a, type: 2}
      propertyPath: m_LocalPosition.x
      value: 0
      objectReference: {fileID: 0}
    - target: {fileID: 4000013069966630, guid: c695ffb68574cd148b85e64f0913c99a, type: 2}
      propertyPath: m_LocalPosition.y
      value: 0
      objectReference: {fileID: 0}
    - target: {fileID: 4000013069966630, guid: c695ffb68574cd148b85e64f0913c99a, type: 2}
      propertyPath: m_LocalPosition.z
      value: 0
      objectReference: {fileID: 0}
    - target: {fileID: 4000013069966630, guid: c695ffb68574cd148b85e64f0913c99a, type: 2}
      propertyPath: m_LocalRotation.x
      value: 0
      objectReference: {fileID: 0}
    - target: {fileID: 4000013069966630, guid: c695ffb68574cd148b85e64f0913c99a, type: 2}
      propertyPath: m_LocalRotation.y
      value: 0
      objectReference: {fileID: 0}
    - target: {fileID: 4000013069966630, guid: c695ffb68574cd148b85e64f0913c99a, type: 2}
      propertyPath: m_LocalRotation.z
      value: 0
      objectReference: {fileID: 0}
    - target: {fileID: 4000013069966630, guid: c695ffb68574cd148b85e64f0913c99a, type: 2}
      propertyPath: m_LocalRotation.w
      value: 1
      objectReference: {fileID: 0}
    - target: {fileID: 4000013069966630, guid: c695ffb68574cd148b85e64f0913c99a, type: 2}
      propertyPath: m_RootOrder
      value: 7
      objectReference: {fileID: 0}
    - target: {fileID: 1000010791948172, guid: c695ffb68574cd148b85e64f0913c99a, type: 2}
      propertyPath: m_Name
      value: InstantTrackable (2)
      objectReference: {fileID: 0}
    m_RemovedComponents: []
  m_ParentPrefab: {fileID: 100100000, guid: c695ffb68574cd148b85e64f0913c99a, type: 2}
  m_RootGameObject: {fileID: 1083209814}
  m_IsPrefabParent: 0
--- !u!1 &1083209814
GameObject:
  m_ObjectHideFlags: 0
  m_PrefabParentObject: {fileID: 1000010791948172, guid: c695ffb68574cd148b85e64f0913c99a,
    type: 2}
  m_PrefabInternal: {fileID: 1083209813}
  serializedVersion: 5
  m_Component:
  - component: {fileID: 1083209815}
  - component: {fileID: 1083209818}
  - component: {fileID: 1083209816}
  - component: {fileID: 1083209817}
  m_Layer: 0
  m_Name: InstantTrackable (2)
  m_TagString: Untagged
  m_Icon: {fileID: 0}
  m_NavMeshLayer: 0
  m_StaticEditorFlags: 0
  m_IsActive: 1
--- !u!4 &1083209815
Transform:
  m_ObjectHideFlags: 0
  m_PrefabParentObject: {fileID: 4000013069966630, guid: c695ffb68574cd148b85e64f0913c99a,
    type: 2}
  m_PrefabInternal: {fileID: 1083209813}
  m_GameObject: {fileID: 1083209814}
  m_LocalRotation: {x: 0, y: 0, z: 0, w: 1}
  m_LocalPosition: {x: 0, y: 0, z: 0}
  m_LocalScale: {x: 1, y: 1, z: 1}
  m_Children:
  - {fileID: 452469818}
  m_Father: {fileID: 0}
  m_RootOrder: 7
  m_LocalEulerAnglesHint: {x: 0, y: 0, z: 0}
--- !u!114 &1083209816
MonoBehaviour:
  m_ObjectHideFlags: 0
  m_PrefabParentObject: {fileID: 0}
  m_PrefabInternal: {fileID: 0}
  m_GameObject: {fileID: 1083209814}
  m_Enabled: 1
  m_EditorHideFlags: 0
  m_Script: {fileID: 11500000, guid: 524a598c5a33e1a428608a089edf9ccc, type: 3}
  m_Name: 
  m_EditorClassIdentifier: 
  rotationX: 0
  rotationY: 0
  rotationZ: 0
--- !u!114 &1083209817
MonoBehaviour:
  m_ObjectHideFlags: 0
  m_PrefabParentObject: {fileID: 0}
  m_PrefabInternal: {fileID: 0}
  m_GameObject: {fileID: 1083209814}
  m_Enabled: 1
  m_EditorHideFlags: 0
  m_Script: {fileID: 11500000, guid: 3034b45033fe31e4bb56eb1a0df1a9bf, type: 3}
  m_Name: 
  m_EditorClassIdentifier: 
  minimumScale: 0.01
  maximumScale: 1
  scaleSpeed: 0.001
--- !u!114 &1083209818
MonoBehaviour:
  m_ObjectHideFlags: 0
  m_PrefabParentObject: {fileID: 114000011765794578, guid: c695ffb68574cd148b85e64f0913c99a,
    type: 2}
  m_PrefabInternal: {fileID: 1083209813}
  m_GameObject: {fileID: 1083209814}
  m_Enabled: 1
  m_EditorHideFlags: 0
  m_Script: {fileID: 11500000, guid: 84e300345bd19074ca86da274b3e2eba, type: 3}
  m_Name: 
  m_EditorClassIdentifier: 
  storageType: 0
  trackerDataFileObject: {fileID: 0}
  trackerDataFileName: 
  trackableId: 
  trackableName: 
--- !u!1 &1178118181
GameObject:
  m_ObjectHideFlags: 0
  m_PrefabParentObject: {fileID: 1928146084448314, guid: b7acfa1e7e117164e87344cb23071a1a,
    type: 2}
  m_PrefabInternal: {fileID: 1878805041}
  serializedVersion: 5
  m_Component:
  - component: {fileID: 1178118182}
  m_Layer: 0
  m_Name: skp_camera_Last_Saved_SketchUp_View
  m_TagString: Untagged
  m_Icon: {fileID: 0}
  m_NavMeshLayer: 0
  m_StaticEditorFlags: 0
  m_IsActive: 1
--- !u!4 &1178118182
Transform:
  m_ObjectHideFlags: 0
  m_PrefabParentObject: {fileID: 4105047288108764, guid: b7acfa1e7e117164e87344cb23071a1a,
    type: 2}
  m_PrefabInternal: {fileID: 1878805041}
  m_GameObject: {fileID: 1178118181}
  m_LocalRotation: {x: -0.5544931, y: 0.4387908, z: -0.16376334, w: 0.68788195}
  m_LocalPosition: {x: 3.6061177, y: -4.512273, z: -2.710574}
  m_LocalScale: {x: 0.99999994, y: 1, z: 0.99999994}
  m_Children: []
  m_Father: {fileID: 452469818}
  m_RootOrder: 1
  m_LocalEulerAnglesHint: {x: 0, y: 0, z: 0}
--- !u!1 &1201023951
GameObject:
  m_ObjectHideFlags: 0
  m_PrefabParentObject: {fileID: 1658448978235664, guid: b7acfa1e7e117164e87344cb23071a1a,
    type: 2}
  m_PrefabInternal: {fileID: 761222823}
  serializedVersion: 5
  m_Component:
  - component: {fileID: 1201023952}
  - component: {fileID: 1201023955}
  - component: {fileID: 1201023954}
  - component: {fileID: 1201023953}
  m_Layer: 0
  m_Name: 3DCube
  m_TagString: Untagged
  m_Icon: {fileID: 0}
  m_NavMeshLayer: 0
  m_StaticEditorFlags: 0
  m_IsActive: 1
--- !u!4 &1201023952
Transform:
  m_ObjectHideFlags: 0
  m_PrefabParentObject: {fileID: 4113800991732702, guid: b7acfa1e7e117164e87344cb23071a1a,
    type: 2}
  m_PrefabInternal: {fileID: 761222823}
  m_GameObject: {fileID: 1201023951}
  m_LocalRotation: {x: 0.50000006, y: 0.50000006, z: -0.5, w: 0.5}
  m_LocalPosition: {x: 0, y: 0, z: 0}
  m_LocalScale: {x: 0.15, y: 0.15, z: 0.05}
  m_Children:
  - {fileID: 479468937}
  - {fileID: 428007108}
  m_Father: {fileID: 1795176230}
  m_RootOrder: 0
  m_LocalEulerAnglesHint: {x: 90.00001, y: 0, z: -90}
--- !u!114 &1201023953
MonoBehaviour:
  m_ObjectHideFlags: 0
  m_PrefabParentObject: {fileID: 114956640614607208, guid: b7acfa1e7e117164e87344cb23071a1a,
    type: 2}
  m_PrefabInternal: {fileID: 761222823}
  m_GameObject: {fileID: 1201023951}
  m_Enabled: 1
  m_EditorHideFlags: 0
  m_Script: {fileID: 11500000, guid: 3034b45033fe31e4bb56eb1a0df1a9bf, type: 3}
  m_Name: 
  m_EditorClassIdentifier: 
  minimumScale: 0.01
  maximumScale: 1
  scaleSpeed: 0.001
--- !u!114 &1201023954
MonoBehaviour:
  m_ObjectHideFlags: 0
  m_PrefabParentObject: {fileID: 114408188228132310, guid: b7acfa1e7e117164e87344cb23071a1a,
    type: 2}
  m_PrefabInternal: {fileID: 761222823}
  m_GameObject: {fileID: 1201023951}
  m_Enabled: 1
  m_EditorHideFlags: 0
  m_Script: {fileID: 11500000, guid: 524a598c5a33e1a428608a089edf9ccc, type: 3}
  m_Name: 
  m_EditorClassIdentifier: 
  rotationX: 0
  rotationY: 0
  rotationZ: 1
--- !u!95 &1201023955
Animator:
  serializedVersion: 3
  m_ObjectHideFlags: 0
  m_PrefabParentObject: {fileID: 95589848608485612, guid: b7acfa1e7e117164e87344cb23071a1a,
    type: 2}
  m_PrefabInternal: {fileID: 761222823}
  m_GameObject: {fileID: 1201023951}
  m_Enabled: 1
  m_Avatar: {fileID: 9000000, guid: fe9e19b02bc1dab459723bcbde770e54, type: 3}
  m_Controller: {fileID: 0}
  m_CullingMode: 0
  m_UpdateMode: 0
  m_ApplyRootMotion: 0
  m_LinearVelocityBlending: 0
  m_WarningMessage: 
  m_HasTransformHierarchy: 1
  m_AllowConstantClipSamplingOptimization: 1
--- !u!1 &1223524664
GameObject:
  m_ObjectHideFlags: 0
  m_PrefabParentObject: {fileID: 1928146084448314, guid: b7acfa1e7e117164e87344cb23071a1a,
    type: 2}
  m_PrefabInternal: {fileID: 1721783735}
  serializedVersion: 5
  m_Component:
  - component: {fileID: 1223524665}
  m_Layer: 0
  m_Name: skp_camera_Last_Saved_SketchUp_View
  m_TagString: Untagged
  m_Icon: {fileID: 0}
  m_NavMeshLayer: 0
  m_StaticEditorFlags: 0
  m_IsActive: 1
--- !u!4 &1223524665
Transform:
  m_ObjectHideFlags: 0
  m_PrefabParentObject: {fileID: 4105047288108764, guid: b7acfa1e7e117164e87344cb23071a1a,
    type: 2}
  m_PrefabInternal: {fileID: 1721783735}
  m_GameObject: {fileID: 1223524664}
  m_LocalRotation: {x: -0.5544931, y: 0.4387908, z: -0.16376334, w: 0.68788195}
  m_LocalPosition: {x: 3.6061177, y: -4.512273, z: -2.710574}
  m_LocalScale: {x: 0.99999994, y: 1, z: 0.99999994}
  m_Children: []
  m_Father: {fileID: 322703821}
  m_RootOrder: 1
  m_LocalEulerAnglesHint: {x: 0, y: 0, z: 0}
--- !u!1 &1457812809
GameObject:
  m_ObjectHideFlags: 0
  m_PrefabParentObject: {fileID: 1000010791948172, guid: c695ffb68574cd148b85e64f0913c99a,
    type: 2}
  m_PrefabInternal: {fileID: 1686417378}
  serializedVersion: 5
  m_Component:
  - component: {fileID: 1457812813}
  - component: {fileID: 1457812812}
  - component: {fileID: 1457812810}
  - component: {fileID: 1457812811}
  m_Layer: 0
  m_Name: InstantTrackable
  m_TagString: Untagged
  m_Icon: {fileID: 0}
  m_NavMeshLayer: 0
  m_StaticEditorFlags: 0
  m_IsActive: 1
--- !u!114 &1457812810
MonoBehaviour:
  m_ObjectHideFlags: 0
  m_PrefabParentObject: {fileID: 0}
  m_PrefabInternal: {fileID: 0}
  m_GameObject: {fileID: 1457812809}
  m_Enabled: 1
  m_EditorHideFlags: 0
  m_Script: {fileID: 11500000, guid: 3034b45033fe31e4bb56eb1a0df1a9bf, type: 3}
  m_Name: 
  m_EditorClassIdentifier: 
  minimumScale: 0.01
  maximumScale: 1
  scaleSpeed: 0.001
--- !u!114 &1457812811
MonoBehaviour:
  m_ObjectHideFlags: 0
  m_PrefabParentObject: {fileID: 0}
  m_PrefabInternal: {fileID: 0}
  m_GameObject: {fileID: 1457812809}
  m_Enabled: 1
  m_EditorHideFlags: 0
  m_Script: {fileID: 11500000, guid: 524a598c5a33e1a428608a089edf9ccc, type: 3}
  m_Name: 
  m_EditorClassIdentifier: 
  rotationX: 0
  rotationY: 0
  rotationZ: 0
--- !u!114 &1457812812
MonoBehaviour:
  m_ObjectHideFlags: 0
  m_PrefabParentObject: {fileID: 114000011765794578, guid: c695ffb68574cd148b85e64f0913c99a,
    type: 2}
  m_PrefabInternal: {fileID: 1686417378}
  m_GameObject: {fileID: 1457812809}
  m_Enabled: 1
  m_EditorHideFlags: 0
  m_Script: {fileID: 11500000, guid: 84e300345bd19074ca86da274b3e2eba, type: 3}
  m_Name: 
  m_EditorClassIdentifier: 
  storageType: 0
  trackerDataFileObject: {fileID: 0}
  trackerDataFileName: 
  trackableId: 
  trackableName: 
--- !u!4 &1457812813
Transform:
  m_ObjectHideFlags: 0
  m_PrefabParentObject: {fileID: 4000013069966630, guid: c695ffb68574cd148b85e64f0913c99a,
    type: 2}
  m_PrefabInternal: {fileID: 1686417378}
  m_GameObject: {fileID: 1457812809}
  m_LocalRotation: {x: 0, y: 0, z: 0, w: 1}
  m_LocalPosition: {x: 0, y: 0, z: 0}
  m_LocalScale: {x: 1, y: 1, z: 1}
  m_Children:
  - {fileID: 322703821}
  m_Father: {fileID: 0}
  m_RootOrder: 5
  m_LocalEulerAnglesHint: {x: 0, y: 0, z: 0}
--- !u!1 &1497806877
GameObject:
  m_ObjectHideFlags: 0
  m_PrefabParentObject: {fileID: 1604378274216210, guid: b7acfa1e7e117164e87344cb23071a1a,
    type: 2}
  m_PrefabInternal: {fileID: 1721783735}
  serializedVersion: 5
  m_Component:
  - component: {fileID: 1497806878}
  - component: {fileID: 1497806880}
  - component: {fileID: 1497806879}
  m_Layer: 0
  m_Name: ID17
  m_TagString: Untagged
  m_Icon: {fileID: 0}
  m_NavMeshLayer: 0
  m_StaticEditorFlags: 0
  m_IsActive: 1
--- !u!4 &1497806878
Transform:
  m_ObjectHideFlags: 0
  m_PrefabParentObject: {fileID: 4216550191616708, guid: b7acfa1e7e117164e87344cb23071a1a,
    type: 2}
  m_PrefabInternal: {fileID: 1721783735}
  m_GameObject: {fileID: 1497806877}
  m_LocalRotation: {x: 0, y: -0, z: -0, w: 1}
  m_LocalPosition: {x: -0, y: 0, z: 0}
  m_LocalScale: {x: 1, y: 1, z: 1}
  m_Children: []
  m_Father: {fileID: 1703053025}
  m_RootOrder: 0
  m_LocalEulerAnglesHint: {x: 0, y: 0, z: 0}
--- !u!23 &1497806879
MeshRenderer:
  m_ObjectHideFlags: 0
  m_PrefabParentObject: {fileID: 23482113409393116, guid: b7acfa1e7e117164e87344cb23071a1a,
    type: 2}
  m_PrefabInternal: {fileID: 1721783735}
  m_GameObject: {fileID: 1497806877}
  m_Enabled: 1
  m_CastShadows: 1
  m_ReceiveShadows: 1
  m_DynamicOccludee: 1
  m_MotionVectors: 1
  m_LightProbeUsage: 1
  m_ReflectionProbeUsage: 1
  m_Materials:
  - {fileID: 2100000, guid: b5176c3954b7be44c97581aa2157617d, type: 2}
  m_StaticBatchInfo:
    firstSubMesh: 0
    subMeshCount: 0
  m_StaticBatchRoot: {fileID: 0}
  m_ProbeAnchor: {fileID: 0}
  m_LightProbeVolumeOverride: {fileID: 0}
  m_ScaleInLightmap: 1
  m_PreserveUVs: 0
  m_IgnoreNormalsForChartDetection: 0
  m_ImportantGI: 0
  m_StitchLightmapSeams: 0
  m_SelectedEditorRenderState: 3
  m_MinimumChartSize: 4
  m_AutoUVMaxDistance: 0.5
  m_AutoUVMaxAngle: 89
  m_LightmapParameters: {fileID: 0}
  m_SortingLayerID: 0
  m_SortingLayer: 0
  m_SortingOrder: 0
--- !u!33 &1497806880
MeshFilter:
  m_ObjectHideFlags: 0
  m_PrefabParentObject: {fileID: 33935427338843882, guid: b7acfa1e7e117164e87344cb23071a1a,
    type: 2}
  m_PrefabInternal: {fileID: 1721783735}
  m_GameObject: {fileID: 1497806877}
  m_Mesh: {fileID: 4300002, guid: fe9e19b02bc1dab459723bcbde770e54, type: 3}
--- !u!1 &1528198768
GameObject:
  m_ObjectHideFlags: 0
  m_PrefabParentObject: {fileID: 1000010897860484, guid: c11a1b8316f425e469028acee630d862,
    type: 2}
  m_PrefabInternal: {fileID: 599821359}
  serializedVersion: 5
  m_Component:
  - component: {fileID: 1528198769}
  - component: {fileID: 1528198773}
  - component: {fileID: 1528198772}
  - component: {fileID: 1528198771}
  - component: {fileID: 1528198770}
  m_Layer: 0
  m_Name: CameraBackground
  m_TagString: Untagged
  m_Icon: {fileID: 0}
  m_NavMeshLayer: 0
  m_StaticEditorFlags: 0
  m_IsActive: 1
--- !u!4 &1528198769
Transform:
  m_ObjectHideFlags: 0
  m_PrefabParentObject: {fileID: 4000011186377928, guid: c11a1b8316f425e469028acee630d862,
    type: 2}
  m_PrefabInternal: {fileID: 599821359}
  m_GameObject: {fileID: 1528198768}
  m_LocalRotation: {x: -0, y: -0, z: -0, w: 1}
  m_LocalPosition: {x: 0, y: 0, z: 0}
  m_LocalScale: {x: 0, y: 0, z: 0}
  m_Children: []
  m_Father: {fileID: 930920153}
  m_RootOrder: 0
  m_LocalEulerAnglesHint: {x: 0, y: 0, z: 0}
--- !u!114 &1528198770
MonoBehaviour:
  m_ObjectHideFlags: 0
  m_PrefabParentObject: {fileID: 114000011000598766, guid: c11a1b8316f425e469028acee630d862,
    type: 2}
  m_PrefabInternal: {fileID: 599821359}
  m_GameObject: {fileID: 1528198768}
  m_Enabled: 1
  m_EditorHideFlags: 0
  m_Script: {fileID: 11500000, guid: 768ab361c7e85e04b9387781694767d4, type: 3}
  m_Name: 
  m_EditorClassIdentifier: 
  RGBBackgroundShader: {fileID: 4800000, guid: 75bd15d0d6ae4e0478ae4cff6972384e, type: 3}
  YuvBackgroundShader: {fileID: 4800000, guid: e02274309126848c690064f25d4cf844, type: 3}
  AndroidYuvBackgroundShader: {fileID: 4800000, guid: e33d39913d1684483a67e9d9680cd2c5,
    type: 3}
  NonR8YuvBackgroundShader: {fileID: 4800000, guid: dd17bf5b81ac746e193ca172e7a71172,
    type: 3}
  NonR8AAAYuvBackgroundShader: {fileID: 4800000, guid: 79f9216064ddf463fa804667f94863d2,
    type: 3}
  pauseColor:
    serializedVersion: 2
    rgba: 4291611852
--- !u!23 &1528198771
MeshRenderer:
  m_ObjectHideFlags: 0
  m_PrefabParentObject: {fileID: 23000013076051372, guid: c11a1b8316f425e469028acee630d862,
    type: 2}
  m_PrefabInternal: {fileID: 599821359}
  m_GameObject: {fileID: 1528198768}
  m_Enabled: 1
  m_CastShadows: 1
  m_ReceiveShadows: 1
  m_DynamicOccludee: 1
  m_MotionVectors: 1
  m_LightProbeUsage: 1
  m_ReflectionProbeUsage: 1
  m_Materials:
  - {fileID: 2100000, guid: c1ad277982e4b0d43b77604130bdf22f, type: 2}
  m_StaticBatchInfo:
    firstSubMesh: 0
    subMeshCount: 0
  m_StaticBatchRoot: {fileID: 0}
  m_ProbeAnchor: {fileID: 0}
  m_LightProbeVolumeOverride: {fileID: 0}
  m_ScaleInLightmap: 1
  m_PreserveUVs: 1
  m_IgnoreNormalsForChartDetection: 0
  m_ImportantGI: 0
  m_StitchLightmapSeams: 0
  m_SelectedEditorRenderState: 3
  m_MinimumChartSize: 4
  m_AutoUVMaxDistance: 0.5
  m_AutoUVMaxAngle: 89
  m_LightmapParameters: {fileID: 0}
  m_SortingLayerID: 0
  m_SortingLayer: 0
  m_SortingOrder: 0
--- !u!64 &1528198772
MeshCollider:
  m_ObjectHideFlags: 0
  m_PrefabParentObject: {fileID: 64000013029301144, guid: c11a1b8316f425e469028acee630d862,
    type: 2}
  m_PrefabInternal: {fileID: 599821359}
  m_GameObject: {fileID: 1528198768}
  m_Material: {fileID: 0}
  m_IsTrigger: 0
  m_Enabled: 1
  serializedVersion: 3
  m_Convex: 0
  m_CookingOptions: 14
  m_SkinWidth: 0.01
  m_Mesh: {fileID: 10210, guid: 0000000000000000e000000000000000, type: 0}
--- !u!33 &1528198773
MeshFilter:
  m_ObjectHideFlags: 0
  m_PrefabParentObject: {fileID: 33000013049434070, guid: c11a1b8316f425e469028acee630d862,
    type: 2}
  m_PrefabInternal: {fileID: 599821359}
  m_GameObject: {fileID: 1528198768}
  m_Mesh: {fileID: 10210, guid: 0000000000000000e000000000000000, type: 0}
--- !u!1001 &1686417378
Prefab:
  m_ObjectHideFlags: 0
  serializedVersion: 2
  m_Modification:
    m_TransformParent: {fileID: 0}
    m_Modifications:
    - target: {fileID: 4000013069966630, guid: c695ffb68574cd148b85e64f0913c99a, type: 2}
      propertyPath: m_LocalPosition.x
      value: 0
      objectReference: {fileID: 0}
    - target: {fileID: 4000013069966630, guid: c695ffb68574cd148b85e64f0913c99a, type: 2}
      propertyPath: m_LocalPosition.y
      value: 0
      objectReference: {fileID: 0}
    - target: {fileID: 4000013069966630, guid: c695ffb68574cd148b85e64f0913c99a, type: 2}
      propertyPath: m_LocalPosition.z
      value: 0
      objectReference: {fileID: 0}
    - target: {fileID: 4000013069966630, guid: c695ffb68574cd148b85e64f0913c99a, type: 2}
      propertyPath: m_LocalRotation.x
      value: 0
      objectReference: {fileID: 0}
    - target: {fileID: 4000013069966630, guid: c695ffb68574cd148b85e64f0913c99a, type: 2}
      propertyPath: m_LocalRotation.y
      value: 0
      objectReference: {fileID: 0}
    - target: {fileID: 4000013069966630, guid: c695ffb68574cd148b85e64f0913c99a, type: 2}
      propertyPath: m_LocalRotation.z
      value: 0
      objectReference: {fileID: 0}
    - target: {fileID: 4000013069966630, guid: c695ffb68574cd148b85e64f0913c99a, type: 2}
      propertyPath: m_LocalRotation.w
      value: 1
      objectReference: {fileID: 0}
    - target: {fileID: 4000013069966630, guid: c695ffb68574cd148b85e64f0913c99a, type: 2}
      propertyPath: m_RootOrder
      value: 5
      objectReference: {fileID: 0}
    m_RemovedComponents: []
  m_ParentPrefab: {fileID: 100100000, guid: c695ffb68574cd148b85e64f0913c99a, type: 2}
  m_RootGameObject: {fileID: 1457812809}
  m_IsPrefabParent: 0
--- !u!1 &1703053024
GameObject:
  m_ObjectHideFlags: 0
  m_PrefabParentObject: {fileID: 1821778034951864, guid: b7acfa1e7e117164e87344cb23071a1a,
    type: 2}
  m_PrefabInternal: {fileID: 1721783735}
  serializedVersion: 5
  m_Component:
  - component: {fileID: 1703053025}
  - component: {fileID: 1703053027}
  - component: {fileID: 1703053026}
  m_Layer: 0
  m_Name: group_0
  m_TagString: Untagged
  m_Icon: {fileID: 0}
  m_NavMeshLayer: 0
  m_StaticEditorFlags: 0
  m_IsActive: 1
--- !u!4 &1703053025
Transform:
  m_ObjectHideFlags: 0
  m_PrefabParentObject: {fileID: 4516430976466204, guid: b7acfa1e7e117164e87344cb23071a1a,
    type: 2}
  m_PrefabInternal: {fileID: 1721783735}
  m_GameObject: {fileID: 1703053024}
  m_LocalRotation: {x: 0, y: 0, z: 0.7071068, w: 0.7071068}
  m_LocalPosition: {x: 0.82755125, y: 0.7432325, z: -0.1331102}
  m_LocalScale: {x: 1, y: 1, z: 1}
  m_Children:
  - {fileID: 1497806878}
  m_Father: {fileID: 322703821}
  m_RootOrder: 0
  m_LocalEulerAnglesHint: {x: 0, y: 0, z: 0}
--- !u!23 &1703053026
MeshRenderer:
  m_ObjectHideFlags: 0
  m_PrefabParentObject: {fileID: 23593423208719926, guid: b7acfa1e7e117164e87344cb23071a1a,
    type: 2}
  m_PrefabInternal: {fileID: 1721783735}
  m_GameObject: {fileID: 1703053024}
  m_Enabled: 1
  m_CastShadows: 1
  m_ReceiveShadows: 1
  m_DynamicOccludee: 1
  m_MotionVectors: 1
  m_LightProbeUsage: 1
  m_ReflectionProbeUsage: 1
  m_Materials:
  - {fileID: 2100000, guid: 44a60d36184c7814c938717a94cb5783, type: 2}
  m_StaticBatchInfo:
    firstSubMesh: 0
    subMeshCount: 0
  m_StaticBatchRoot: {fileID: 0}
  m_ProbeAnchor: {fileID: 0}
  m_LightProbeVolumeOverride: {fileID: 0}
  m_ScaleInLightmap: 1
  m_PreserveUVs: 0
  m_IgnoreNormalsForChartDetection: 0
  m_ImportantGI: 0
  m_StitchLightmapSeams: 0
  m_SelectedEditorRenderState: 3
  m_MinimumChartSize: 4
  m_AutoUVMaxDistance: 0.5
  m_AutoUVMaxAngle: 89
  m_LightmapParameters: {fileID: 0}
  m_SortingLayerID: 0
  m_SortingLayer: 0
  m_SortingOrder: 0
--- !u!33 &1703053027
MeshFilter:
  m_ObjectHideFlags: 0
  m_PrefabParentObject: {fileID: 33002596678543174, guid: b7acfa1e7e117164e87344cb23071a1a,
    type: 2}
  m_PrefabInternal: {fileID: 1721783735}
  m_GameObject: {fileID: 1703053024}
  m_Mesh: {fileID: 4300000, guid: fe9e19b02bc1dab459723bcbde770e54, type: 3}
--- !u!1001 &1721783735
Prefab:
  m_ObjectHideFlags: 0
  serializedVersion: 2
  m_Modification:
    m_TransformParent: {fileID: 1457812813}
    m_Modifications:
    - target: {fileID: 4113800991732702, guid: b7acfa1e7e117164e87344cb23071a1a, type: 2}
      propertyPath: m_LocalPosition.x
      value: 0
      objectReference: {fileID: 0}
    - target: {fileID: 4113800991732702, guid: b7acfa1e7e117164e87344cb23071a1a, type: 2}
      propertyPath: m_LocalPosition.y
      value: 0
      objectReference: {fileID: 0}
    - target: {fileID: 4113800991732702, guid: b7acfa1e7e117164e87344cb23071a1a, type: 2}
      propertyPath: m_LocalPosition.z
      value: 0
      objectReference: {fileID: 0}
    - target: {fileID: 4113800991732702, guid: b7acfa1e7e117164e87344cb23071a1a, type: 2}
      propertyPath: m_LocalRotation.x
      value: 0.50000006
      objectReference: {fileID: 0}
    - target: {fileID: 4113800991732702, guid: b7acfa1e7e117164e87344cb23071a1a, type: 2}
      propertyPath: m_LocalRotation.y
      value: 0.50000006
      objectReference: {fileID: 0}
    - target: {fileID: 4113800991732702, guid: b7acfa1e7e117164e87344cb23071a1a, type: 2}
      propertyPath: m_LocalRotation.z
      value: -0.5
      objectReference: {fileID: 0}
    - target: {fileID: 4113800991732702, guid: b7acfa1e7e117164e87344cb23071a1a, type: 2}
      propertyPath: m_LocalRotation.w
      value: 0.5
      objectReference: {fileID: 0}
    - target: {fileID: 4113800991732702, guid: b7acfa1e7e117164e87344cb23071a1a, type: 2}
      propertyPath: m_RootOrder
      value: 0
      objectReference: {fileID: 0}
    - target: {fileID: 4113800991732702, guid: b7acfa1e7e117164e87344cb23071a1a, type: 2}
      propertyPath: m_LocalScale.x
      value: 0.05
      objectReference: {fileID: 0}
    - target: {fileID: 1658448978235664, guid: b7acfa1e7e117164e87344cb23071a1a, type: 2}
      propertyPath: m_Name
      value: 3DCube
      objectReference: {fileID: 0}
    m_RemovedComponents: []
  m_ParentPrefab: {fileID: 100100000, guid: b7acfa1e7e117164e87344cb23071a1a, type: 2}
  m_RootGameObject: {fileID: 322703820}
  m_IsPrefabParent: 0
--- !u!1001 &1795176228
Prefab:
  m_ObjectHideFlags: 0
  serializedVersion: 2
  m_Modification:
    m_TransformParent: {fileID: 0}
    m_Modifications:
    - target: {fileID: 4000013069966630, guid: c695ffb68574cd148b85e64f0913c99a, type: 2}
      propertyPath: m_LocalPosition.x
      value: 0
      objectReference: {fileID: 0}
    - target: {fileID: 4000013069966630, guid: c695ffb68574cd148b85e64f0913c99a, type: 2}
      propertyPath: m_LocalPosition.y
      value: 0
      objectReference: {fileID: 0}
    - target: {fileID: 4000013069966630, guid: c695ffb68574cd148b85e64f0913c99a, type: 2}
      propertyPath: m_LocalPosition.z
      value: 0
      objectReference: {fileID: 0}
    - target: {fileID: 4000013069966630, guid: c695ffb68574cd148b85e64f0913c99a, type: 2}
      propertyPath: m_LocalRotation.x
      value: 0
      objectReference: {fileID: 0}
    - target: {fileID: 4000013069966630, guid: c695ffb68574cd148b85e64f0913c99a, type: 2}
      propertyPath: m_LocalRotation.y
      value: 0
      objectReference: {fileID: 0}
    - target: {fileID: 4000013069966630, guid: c695ffb68574cd148b85e64f0913c99a, type: 2}
      propertyPath: m_LocalRotation.z
      value: 0
      objectReference: {fileID: 0}
    - target: {fileID: 4000013069966630, guid: c695ffb68574cd148b85e64f0913c99a, type: 2}
      propertyPath: m_LocalRotation.w
      value: 1
      objectReference: {fileID: 0}
    - target: {fileID: 4000013069966630, guid: c695ffb68574cd148b85e64f0913c99a, type: 2}
      propertyPath: m_RootOrder
      value: 6
      objectReference: {fileID: 0}
    - target: {fileID: 1000010791948172, guid: c695ffb68574cd148b85e64f0913c99a, type: 2}
      propertyPath: m_Name
      value: InstantTrackable (1)
      objectReference: {fileID: 0}
    m_RemovedComponents: []
  m_ParentPrefab: {fileID: 100100000, guid: c695ffb68574cd148b85e64f0913c99a, type: 2}
  m_RootGameObject: {fileID: 1795176229}
  m_IsPrefabParent: 0
--- !u!1 &1795176229
GameObject:
  m_ObjectHideFlags: 0
  m_PrefabParentObject: {fileID: 1000010791948172, guid: c695ffb68574cd148b85e64f0913c99a,
    type: 2}
  m_PrefabInternal: {fileID: 1795176228}
  serializedVersion: 5
  m_Component:
  - component: {fileID: 1795176230}
  - component: {fileID: 1795176233}
  - component: {fileID: 1795176231}
  - component: {fileID: 1795176232}
  m_Layer: 0
  m_Name: InstantTrackable (1)
  m_TagString: Untagged
  m_Icon: {fileID: 0}
  m_NavMeshLayer: 0
  m_StaticEditorFlags: 0
  m_IsActive: 1
--- !u!4 &1795176230
Transform:
  m_ObjectHideFlags: 0
  m_PrefabParentObject: {fileID: 4000013069966630, guid: c695ffb68574cd148b85e64f0913c99a,
    type: 2}
  m_PrefabInternal: {fileID: 1795176228}
  m_GameObject: {fileID: 1795176229}
  m_LocalRotation: {x: 0, y: 0, z: 0, w: 1}
  m_LocalPosition: {x: 0, y: 0, z: 0}
  m_LocalScale: {x: 1, y: 1, z: 1}
  m_Children:
  - {fileID: 1201023952}
  m_Father: {fileID: 0}
  m_RootOrder: 6
  m_LocalEulerAnglesHint: {x: 0, y: 0, z: 0}
--- !u!114 &1795176231
MonoBehaviour:
  m_ObjectHideFlags: 0
  m_PrefabParentObject: {fileID: 0}
  m_PrefabInternal: {fileID: 0}
  m_GameObject: {fileID: 1795176229}
  m_Enabled: 1
  m_EditorHideFlags: 0
  m_Script: {fileID: 11500000, guid: 524a598c5a33e1a428608a089edf9ccc, type: 3}
  m_Name: 
  m_EditorClassIdentifier: 
  rotationX: 0
  rotationY: 0
  rotationZ: 0
--- !u!114 &1795176232
MonoBehaviour:
  m_ObjectHideFlags: 0
  m_PrefabParentObject: {fileID: 0}
  m_PrefabInternal: {fileID: 0}
  m_GameObject: {fileID: 1795176229}
  m_Enabled: 1
  m_EditorHideFlags: 0
  m_Script: {fileID: 11500000, guid: 3034b45033fe31e4bb56eb1a0df1a9bf, type: 3}
  m_Name: 
  m_EditorClassIdentifier: 
  minimumScale: 0.01
  maximumScale: 1
  scaleSpeed: 0.001
--- !u!114 &1795176233
MonoBehaviour:
  m_ObjectHideFlags: 0
  m_PrefabParentObject: {fileID: 114000011765794578, guid: c695ffb68574cd148b85e64f0913c99a,
    type: 2}
  m_PrefabInternal: {fileID: 1795176228}
  m_GameObject: {fileID: 1795176229}
  m_Enabled: 1
  m_EditorHideFlags: 0
  m_Script: {fileID: 11500000, guid: 84e300345bd19074ca86da274b3e2eba, type: 3}
  m_Name: 
  m_EditorClassIdentifier: 
  storageType: 0
  trackerDataFileObject: {fileID: 0}
  trackerDataFileName: 
  trackableId: 
  trackableName: 
--- !u!1 &1810198118
GameObject:
  m_ObjectHideFlags: 0
  m_PrefabParentObject: {fileID: 0}
  m_PrefabInternal: {fileID: 0}
  serializedVersion: 5
  m_Component:
  - component: {fileID: 1810198119}
  - component: {fileID: 1810198122}
  - component: {fileID: 1810198121}
  - component: {fileID: 1810198120}
  m_Layer: 5
  m_Name: Start
  m_TagString: Untagged
  m_Icon: {fileID: 0}
  m_NavMeshLayer: 0
  m_StaticEditorFlags: 0
  m_IsActive: 1
--- !u!224 &1810198119
RectTransform:
  m_ObjectHideFlags: 0
  m_PrefabParentObject: {fileID: 0}
  m_PrefabInternal: {fileID: 0}
  m_GameObject: {fileID: 1810198118}
  m_LocalRotation: {x: 0, y: 0, z: 0, w: 1}
  m_LocalPosition: {x: 0, y: 0, z: 0}
  m_LocalScale: {x: 1, y: 1, z: 1}
  m_Children:
  - {fileID: 2021142638}
  m_Father: {fileID: 858551798}
  m_RootOrder: 0
  m_LocalEulerAnglesHint: {x: 0, y: 0, z: 0}
  m_AnchorMin: {x: 0.5, y: 0}
  m_AnchorMax: {x: 0.5, y: 0}
  m_AnchoredPosition: {x: 0, y: 20}
  m_SizeDelta: {x: 250, y: 50}
  m_Pivot: {x: 0.5, y: 0}
--- !u!114 &1810198120
MonoBehaviour:
  m_ObjectHideFlags: 0
  m_PrefabParentObject: {fileID: 0}
  m_PrefabInternal: {fileID: 0}
  m_GameObject: {fileID: 1810198118}
  m_Enabled: 1
  m_EditorHideFlags: 0
  m_Script: {fileID: 1392445389, guid: f70555f144d8491a825f0804e09c671c, type: 3}
  m_Name: 
  m_EditorClassIdentifier: 
  m_Navigation:
    m_Mode: 3
    m_SelectOnUp: {fileID: 0}
    m_SelectOnDown: {fileID: 0}
    m_SelectOnLeft: {fileID: 0}
    m_SelectOnRight: {fileID: 0}
  m_Transition: 1
  m_Colors:
    m_NormalColor: {r: 1, g: 1, b: 1, a: 1}
    m_HighlightedColor: {r: 0.9607843, g: 0.9607843, b: 0.9607843, a: 1}
    m_PressedColor: {r: 0.78431374, g: 0.78431374, b: 0.78431374, a: 1}
    m_DisabledColor: {r: 0.78431374, g: 0.78431374, b: 0.78431374, a: 0.5019608}
    m_ColorMultiplier: 1
    m_FadeDuration: 0.1
  m_SpriteState:
    m_HighlightedSprite: {fileID: 0}
    m_PressedSprite: {fileID: 0}
    m_DisabledSprite: {fileID: 0}
  m_AnimationTriggers:
    m_NormalTrigger: Normal
    m_HighlightedTrigger: Highlighted
    m_PressedTrigger: Pressed
    m_DisabledTrigger: Disabled
  m_Interactable: 1
  m_TargetGraphic: {fileID: 1810198121}
  m_OnClick:
    m_PersistentCalls:
      m_Calls:
      - m_Target: {fileID: 926542986}
        m_MethodName: OnClickStart
        m_Mode: 1
        m_Arguments:
          m_ObjectArgument: {fileID: 0}
          m_ObjectArgumentAssemblyTypeName: UnityEngine.Object, UnityEngine
          m_IntArgument: 0
          m_FloatArgument: 0
          m_StringArgument: 
          m_BoolArgument: 0
        m_CallState: 2
    m_TypeName: UnityEngine.UI.Button+ButtonClickedEvent, UnityEngine.UI, Version=1.0.0.0,
      Culture=neutral, PublicKeyToken=null
--- !u!114 &1810198121
MonoBehaviour:
  m_ObjectHideFlags: 0
  m_PrefabParentObject: {fileID: 0}
  m_PrefabInternal: {fileID: 0}
  m_GameObject: {fileID: 1810198118}
  m_Enabled: 1
  m_EditorHideFlags: 0
  m_Script: {fileID: -765806418, guid: f70555f144d8491a825f0804e09c671c, type: 3}
  m_Name: 
  m_EditorClassIdentifier: 
  m_Material: {fileID: 0}
  m_Color: {r: 1, g: 1, b: 1, a: 1}
  m_RaycastTarget: 1
  m_OnCullStateChanged:
    m_PersistentCalls:
      m_Calls: []
    m_TypeName: UnityEngine.UI.MaskableGraphic+CullStateChangedEvent, UnityEngine.UI,
      Version=1.0.0.0, Culture=neutral, PublicKeyToken=null
  m_Sprite: {fileID: 10905, guid: 0000000000000000f000000000000000, type: 0}
  m_Type: 1
  m_PreserveAspect: 0
  m_FillCenter: 1
  m_FillMethod: 4
  m_FillAmount: 1
  m_FillClockwise: 1
  m_FillOrigin: 0
--- !u!222 &1810198122
CanvasRenderer:
  m_ObjectHideFlags: 0
  m_PrefabParentObject: {fileID: 0}
  m_PrefabInternal: {fileID: 0}
  m_GameObject: {fileID: 1810198118}
--- !u!1 &1844415138
GameObject:
  m_ObjectHideFlags: 0
  m_PrefabParentObject: {fileID: 1604378274216210, guid: b7acfa1e7e117164e87344cb23071a1a,
    type: 2}
  m_PrefabInternal: {fileID: 761222823}
  serializedVersion: 5
  m_Component:
  - component: {fileID: 1844415139}
  - component: {fileID: 1844415141}
  - component: {fileID: 1844415140}
  m_Layer: 0
  m_Name: ID17
  m_TagString: Untagged
  m_Icon: {fileID: 0}
  m_NavMeshLayer: 0
  m_StaticEditorFlags: 0
  m_IsActive: 1
--- !u!4 &1844415139
Transform:
  m_ObjectHideFlags: 0
  m_PrefabParentObject: {fileID: 4216550191616708, guid: b7acfa1e7e117164e87344cb23071a1a,
    type: 2}
  m_PrefabInternal: {fileID: 761222823}
  m_GameObject: {fileID: 1844415138}
  m_LocalRotation: {x: 0, y: -0, z: -0, w: 1}
  m_LocalPosition: {x: -0, y: 0, z: 0}
  m_LocalScale: {x: 1, y: 1, z: 1}
  m_Children: []
  m_Father: {fileID: 479468937}
  m_RootOrder: 0
  m_LocalEulerAnglesHint: {x: 0, y: 0, z: 0}
--- !u!23 &1844415140
MeshRenderer:
  m_ObjectHideFlags: 0
  m_PrefabParentObject: {fileID: 23482113409393116, guid: b7acfa1e7e117164e87344cb23071a1a,
    type: 2}
  m_PrefabInternal: {fileID: 761222823}
  m_GameObject: {fileID: 1844415138}
  m_Enabled: 1
  m_CastShadows: 1
  m_ReceiveShadows: 1
  m_DynamicOccludee: 1
  m_MotionVectors: 1
  m_LightProbeUsage: 1
  m_ReflectionProbeUsage: 1
  m_Materials:
  - {fileID: 2100000, guid: b5176c3954b7be44c97581aa2157617d, type: 2}
  m_StaticBatchInfo:
    firstSubMesh: 0
    subMeshCount: 0
  m_StaticBatchRoot: {fileID: 0}
  m_ProbeAnchor: {fileID: 0}
  m_LightProbeVolumeOverride: {fileID: 0}
  m_ScaleInLightmap: 1
  m_PreserveUVs: 0
  m_IgnoreNormalsForChartDetection: 0
  m_ImportantGI: 0
  m_StitchLightmapSeams: 0
  m_SelectedEditorRenderState: 3
  m_MinimumChartSize: 4
  m_AutoUVMaxDistance: 0.5
  m_AutoUVMaxAngle: 89
  m_LightmapParameters: {fileID: 0}
  m_SortingLayerID: 0
  m_SortingLayer: 0
  m_SortingOrder: 0
--- !u!33 &1844415141
MeshFilter:
  m_ObjectHideFlags: 0
  m_PrefabParentObject: {fileID: 33935427338843882, guid: b7acfa1e7e117164e87344cb23071a1a,
    type: 2}
  m_PrefabInternal: {fileID: 761222823}
  m_GameObject: {fileID: 1844415138}
  m_Mesh: {fileID: 4300002, guid: fe9e19b02bc1dab459723bcbde770e54, type: 3}
--- !u!1001 &1878805041
Prefab:
  m_ObjectHideFlags: 0
  serializedVersion: 2
  m_Modification:
    m_TransformParent: {fileID: 1083209815}
    m_Modifications:
    - target: {fileID: 4113800991732702, guid: b7acfa1e7e117164e87344cb23071a1a, type: 2}
      propertyPath: m_LocalPosition.x
      value: 0
      objectReference: {fileID: 0}
    - target: {fileID: 4113800991732702, guid: b7acfa1e7e117164e87344cb23071a1a, type: 2}
      propertyPath: m_LocalPosition.y
      value: 0
      objectReference: {fileID: 0}
    - target: {fileID: 4113800991732702, guid: b7acfa1e7e117164e87344cb23071a1a, type: 2}
      propertyPath: m_LocalPosition.z
      value: 0
      objectReference: {fileID: 0}
    - target: {fileID: 4113800991732702, guid: b7acfa1e7e117164e87344cb23071a1a, type: 2}
      propertyPath: m_LocalRotation.x
      value: 0.50000006
      objectReference: {fileID: 0}
    - target: {fileID: 4113800991732702, guid: b7acfa1e7e117164e87344cb23071a1a, type: 2}
      propertyPath: m_LocalRotation.y
      value: 0.50000006
      objectReference: {fileID: 0}
    - target: {fileID: 4113800991732702, guid: b7acfa1e7e117164e87344cb23071a1a, type: 2}
      propertyPath: m_LocalRotation.z
      value: -0.5
      objectReference: {fileID: 0}
    - target: {fileID: 4113800991732702, guid: b7acfa1e7e117164e87344cb23071a1a, type: 2}
      propertyPath: m_LocalRotation.w
      value: 0.5
      objectReference: {fileID: 0}
    - target: {fileID: 4113800991732702, guid: b7acfa1e7e117164e87344cb23071a1a, type: 2}
      propertyPath: m_RootOrder
      value: 0
      objectReference: {fileID: 0}
    - target: {fileID: 4113800991732702, guid: b7acfa1e7e117164e87344cb23071a1a, type: 2}
      propertyPath: m_LocalScale.y
      value: 0.05
      objectReference: {fileID: 0}
    - target: {fileID: 1658448978235664, guid: b7acfa1e7e117164e87344cb23071a1a, type: 2}
      propertyPath: m_Name
      value: 3DCube
      objectReference: {fileID: 0}
    m_RemovedComponents: []
  m_ParentPrefab: {fileID: 100100000, guid: b7acfa1e7e117164e87344cb23071a1a, type: 2}
  m_RootGameObject: {fileID: 452469817}
  m_IsPrefabParent: 0
--- !u!1 &2021142637
GameObject:
  m_ObjectHideFlags: 0
  m_PrefabParentObject: {fileID: 0}
  m_PrefabInternal: {fileID: 0}
  serializedVersion: 5
  m_Component:
  - component: {fileID: 2021142638}
  - component: {fileID: 2021142640}
  - component: {fileID: 2021142639}
  m_Layer: 5
  m_Name: Text
  m_TagString: Untagged
  m_Icon: {fileID: 0}
  m_NavMeshLayer: 0
  m_StaticEditorFlags: 0
  m_IsActive: 1
--- !u!224 &2021142638
RectTransform:
  m_ObjectHideFlags: 0
  m_PrefabParentObject: {fileID: 0}
  m_PrefabInternal: {fileID: 0}
  m_GameObject: {fileID: 2021142637}
  m_LocalRotation: {x: 0, y: 0, z: 0, w: 1}
  m_LocalPosition: {x: 0, y: 0, z: 0}
  m_LocalScale: {x: 1, y: 1, z: 1}
  m_Children: []
  m_Father: {fileID: 1810198119}
  m_RootOrder: 0
  m_LocalEulerAnglesHint: {x: 0, y: 0, z: 0}
  m_AnchorMin: {x: 0, y: 0}
  m_AnchorMax: {x: 1, y: 1}
  m_AnchoredPosition: {x: 0, y: 0}
  m_SizeDelta: {x: 0, y: 0}
  m_Pivot: {x: 0.5, y: 0.5}
--- !u!114 &2021142639
MonoBehaviour:
  m_ObjectHideFlags: 0
  m_PrefabParentObject: {fileID: 0}
  m_PrefabInternal: {fileID: 0}
  m_GameObject: {fileID: 2021142637}
  m_Enabled: 1
  m_EditorHideFlags: 0
  m_Script: {fileID: 708705254, guid: f70555f144d8491a825f0804e09c671c, type: 3}
  m_Name: 
  m_EditorClassIdentifier: 
  m_Material: {fileID: 0}
  m_Color: {r: 0.19607843, g: 0.19607843, b: 0.19607843, a: 1}
  m_RaycastTarget: 1
  m_OnCullStateChanged:
    m_PersistentCalls:
      m_Calls: []
    m_TypeName: UnityEngine.UI.MaskableGraphic+CullStateChangedEvent, UnityEngine.UI,
      Version=1.0.0.0, Culture=neutral, PublicKeyToken=null
  m_FontData:
    m_Font: {fileID: 10102, guid: 0000000000000000e000000000000000, type: 0}
    m_FontSize: 30
    m_FontStyle: 1
    m_BestFit: 0
    m_MinSize: 0
    m_MaxSize: 40
    m_Alignment: 4
    m_AlignByGeometry: 0
    m_RichText: 1
    m_HorizontalOverflow: 0
    m_VerticalOverflow: 0
    m_LineSpacing: 1
  m_Text: Start Tracking
--- !u!222 &2021142640
CanvasRenderer:
  m_ObjectHideFlags: 0
  m_PrefabParentObject: {fileID: 0}
  m_PrefabInternal: {fileID: 0}
  m_GameObject: {fileID: 2021142637}
--- !u!1 &2084181755
GameObject:
  m_ObjectHideFlags: 0
  m_PrefabParentObject: {fileID: 0}
  m_PrefabInternal: {fileID: 0}
  serializedVersion: 5
  m_Component:
  - component: {fileID: 2084181756}
  - component: {fileID: 2084181759}
  - component: {fileID: 2084181758}
  - component: {fileID: 2084181757}
  m_Layer: 5
  m_Name: 3
  m_TagString: Untagged
  m_Icon: {fileID: 0}
  m_NavMeshLayer: 0
  m_StaticEditorFlags: 0
  m_IsActive: 1
--- !u!224 &2084181756
RectTransform:
  m_ObjectHideFlags: 0
  m_PrefabParentObject: {fileID: 0}
  m_PrefabInternal: {fileID: 0}
  m_GameObject: {fileID: 2084181755}
  m_LocalRotation: {x: -0, y: -0, z: -0, w: 1}
  m_LocalPosition: {x: 0, y: 0, z: 0}
  m_LocalScale: {x: 0.99999887, y: 0.99999887, z: 0.99999887}
  m_Children:
  - {fileID: 865439555}
  m_Father: {fileID: 858551798}
  m_RootOrder: 3
  m_LocalEulerAnglesHint: {x: 0, y: 0, z: 0}
  m_AnchorMin: {x: 1, y: 1}
  m_AnchorMax: {x: 1, y: 1}
  m_AnchoredPosition: {x: 0, y: -100}
  m_SizeDelta: {x: 250, y: 50}
  m_Pivot: {x: 1, y: 1}
--- !u!114 &2084181757
MonoBehaviour:
  m_ObjectHideFlags: 0
  m_PrefabParentObject: {fileID: 0}
  m_PrefabInternal: {fileID: 0}
  m_GameObject: {fileID: 2084181755}
  m_Enabled: 1
  m_EditorHideFlags: 0
  m_Script: {fileID: 1392445389, guid: f70555f144d8491a825f0804e09c671c, type: 3}
  m_Name: 
  m_EditorClassIdentifier: 
  m_Navigation:
    m_Mode: 3
    m_SelectOnUp: {fileID: 0}
    m_SelectOnDown: {fileID: 0}
    m_SelectOnLeft: {fileID: 0}
    m_SelectOnRight: {fileID: 0}
  m_Transition: 1
  m_Colors:
    m_NormalColor: {r: 1, g: 1, b: 1, a: 1}
    m_HighlightedColor: {r: 0.9607843, g: 0.9607843, b: 0.9607843, a: 1}
    m_PressedColor: {r: 0.78431374, g: 0.78431374, b: 0.78431374, a: 1}
    m_DisabledColor: {r: 0.78431374, g: 0.78431374, b: 0.78431374, a: 0.5019608}
    m_ColorMultiplier: 1
    m_FadeDuration: 0.1
  m_SpriteState:
    m_HighlightedSprite: {fileID: 0}
    m_PressedSprite: {fileID: 0}
    m_DisabledSprite: {fileID: 0}
  m_AnimationTriggers:
    m_NormalTrigger: Normal
    m_HighlightedTrigger: Highlighted
    m_PressedTrigger: Pressed
    m_DisabledTrigger: Disabled
  m_Interactable: 1
  m_TargetGraphic: {fileID: 2084181758}
  m_OnClick:
    m_PersistentCalls:
      m_Calls:
      - m_Target: {fileID: 926542986}
        m_MethodName: ClickNumber3
        m_Mode: 1
        m_Arguments:
          m_ObjectArgument: {fileID: 0}
          m_ObjectArgumentAssemblyTypeName: UnityEngine.Object, UnityEngine
          m_IntArgument: 0
          m_FloatArgument: 0
          m_StringArgument: 
          m_BoolArgument: 0
        m_CallState: 2
    m_TypeName: UnityEngine.UI.Button+ButtonClickedEvent, UnityEngine.UI, Version=1.0.0.0,
      Culture=neutral, PublicKeyToken=null
--- !u!114 &2084181758
MonoBehaviour:
  m_ObjectHideFlags: 0
  m_PrefabParentObject: {fileID: 0}
  m_PrefabInternal: {fileID: 0}
  m_GameObject: {fileID: 2084181755}
  m_Enabled: 1
  m_EditorHideFlags: 0
  m_Script: {fileID: -765806418, guid: f70555f144d8491a825f0804e09c671c, type: 3}
  m_Name: 
  m_EditorClassIdentifier: 
  m_Material: {fileID: 0}
  m_Color: {r: 1, g: 1, b: 1, a: 1}
  m_RaycastTarget: 1
  m_OnCullStateChanged:
    m_PersistentCalls:
      m_Calls: []
    m_TypeName: UnityEngine.UI.MaskableGraphic+CullStateChangedEvent, UnityEngine.UI,
      Version=1.0.0.0, Culture=neutral, PublicKeyToken=null
  m_Sprite: {fileID: 10905, guid: 0000000000000000f000000000000000, type: 0}
  m_Type: 1
  m_PreserveAspect: 0
  m_FillCenter: 1
  m_FillMethod: 4
  m_FillAmount: 1
  m_FillClockwise: 1
  m_FillOrigin: 0
--- !u!222 &2084181759
CanvasRenderer:
  m_ObjectHideFlags: 0
  m_PrefabParentObject: {fileID: 0}
  m_PrefabInternal: {fileID: 0}
  m_GameObject: {fileID: 2084181755}
--- !u!1 &2098412916
GameObject:
  m_ObjectHideFlags: 0
  m_PrefabParentObject: {fileID: 0}
  m_PrefabInternal: {fileID: 0}
  serializedVersion: 5
  m_Component:
  - component: {fileID: 2098412918}
  - component: {fileID: 2098412917}
  m_Layer: 0
  m_Name: Directional light
  m_TagString: Untagged
  m_Icon: {fileID: 0}
  m_NavMeshLayer: 0
  m_StaticEditorFlags: 0
  m_IsActive: 1
--- !u!108 &2098412917
Light:
  m_ObjectHideFlags: 0
  m_PrefabParentObject: {fileID: 0}
  m_PrefabInternal: {fileID: 0}
  m_GameObject: {fileID: 2098412916}
  m_Enabled: 1
  serializedVersion: 8
  m_Type: 1
  m_Color: {r: 1, g: 1, b: 1, a: 1}
  m_Intensity: 1
  m_Range: 10
  m_SpotAngle: 30
  m_CookieSize: 10
  m_Shadows:
    m_Type: 0
    m_Resolution: -1
    m_CustomResolution: -1
    m_Strength: 1
    m_Bias: 0.05
    m_NormalBias: 0.4
    m_NearPlane: 0.2
  m_Cookie: {fileID: 0}
  m_DrawHalo: 0
  m_Flare: {fileID: 0}
  m_RenderMode: 0
  m_CullingMask:
    serializedVersion: 2
    m_Bits: 4294967295
  m_Lightmapping: 4
  m_AreaSize: {x: 1, y: 1}
  m_BounceIntensity: 1
  m_ColorTemperature: 6570
  m_UseColorTemperature: 0
  m_ShadowRadius: 0
  m_ShadowAngle: 0
--- !u!4 &2098412918
Transform:
  m_ObjectHideFlags: 0
  m_PrefabParentObject: {fileID: 0}
  m_PrefabInternal: {fileID: 0}
  m_GameObject: {fileID: 2098412916}
  m_LocalRotation: {x: 0.40821788, y: -0.23456968, z: 0.10938163, w: 0.8754261}
  m_LocalPosition: {x: 0, y: 0, z: 0}
  m_LocalScale: {x: 1, y: 1, z: 1}
  m_Children: []
  m_Father: {fileID: 0}
  m_RootOrder: 1
  m_LocalEulerAnglesHint: {x: 50, y: -30, z: 0}
