%YAML 1.1
%TAG !u! tag:unity3d.com,2011:
--- !u!29 &1
OcclusionCullingSettings:
  m_ObjectHideFlags: 0
  serializedVersion: 2
  m_OcclusionBakeSettings:
    smallestOccluder: 5
    smallestHole: 0.25
    backfaceThreshold: 100
  m_SceneGUID: 00000000000000000000000000000000
  m_OcclusionCullingData: {fileID: 0}
--- !u!104 &2
RenderSettings:
  m_ObjectHideFlags: 0
  serializedVersion: 8
  m_Fog: 0
  m_FogColor: {r: 0.5, g: 0.5, b: 0.5, a: 1}
  m_FogMode: 3
  m_FogDensity: 0.01
  m_LinearFogStart: 0
  m_LinearFogEnd: 300
  m_AmbientSkyColor: {r: 0.212, g: 0.227, b: 0.259, a: 1}
  m_AmbientEquatorColor: {r: 0.114, g: 0.125, b: 0.133, a: 1}
  m_AmbientGroundColor: {r: 0.047, g: 0.043, b: 0.035, a: 1}
  m_AmbientIntensity: 1
  m_AmbientMode: 0
  m_SubtractiveShadowColor: {r: 0.42, g: 0.478, b: 0.627, a: 1}
  m_SkyboxMaterial: {fileID: 10304, guid: 0000000000000000f000000000000000, type: 0}
  m_HaloStrength: 0.5
  m_FlareStrength: 1
  m_FlareFadeSpeed: 3
  m_HaloTexture: {fileID: 0}
  m_SpotCookie: {fileID: 10001, guid: 0000000000000000e000000000000000, type: 0}
  m_DefaultReflectionMode: 0
  m_DefaultReflectionResolution: 128
  m_ReflectionBounces: 1
  m_ReflectionIntensity: 1
  m_CustomReflection: {fileID: 0}
  m_Sun: {fileID: 0}
  m_IndirectSpecularColor: {r: 0.37311953, g: 0.38074014, b: 0.3587274, a: 1}
--- !u!157 &3
LightmapSettings:
  m_ObjectHideFlags: 0
  serializedVersion: 11
  m_GIWorkflowMode: 0
  m_GISettings:
    serializedVersion: 2
    m_BounceScale: 1
    m_IndirectOutputScale: 1
    m_AlbedoBoost: 1
    m_TemporalCoherenceThreshold: 1
    m_EnvironmentLightingMode: 0
    m_EnableBakedLightmaps: 1
    m_EnableRealtimeLightmaps: 1
  m_LightmapEditorSettings:
    serializedVersion: 9
    m_Resolution: 2
    m_BakeResolution: 40
    m_TextureWidth: 1024
    m_TextureHeight: 1024
    m_AO: 0
    m_AOMaxDistance: 1
    m_CompAOExponent: 1
    m_CompAOExponentDirect: 0
    m_Padding: 2
    m_LightmapParameters: {fileID: 0}
    m_LightmapsBakeMode: 1
    m_TextureCompression: 1
    m_FinalGather: 0
    m_FinalGatherFiltering: 1
    m_FinalGatherRayCount: 256
    m_ReflectionCompression: 2
    m_MixedBakeMode: 2
    m_BakeBackend: 0
    m_PVRSampling: 1
    m_PVRDirectSampleCount: 32
    m_PVRSampleCount: 500
    m_PVRBounces: 2
    m_PVRFilterTypeDirect: 0
    m_PVRFilterTypeIndirect: 0
    m_PVRFilterTypeAO: 0
    m_PVRFilteringMode: 1
    m_PVRCulling: 1
    m_PVRFilteringGaussRadiusDirect: 1
    m_PVRFilteringGaussRadiusIndirect: 5
    m_PVRFilteringGaussRadiusAO: 2
    m_PVRFilteringAtrousPositionSigmaDirect: 0.5
    m_PVRFilteringAtrousPositionSigmaIndirect: 2
    m_PVRFilteringAtrousPositionSigmaAO: 1
    m_ShowResolutionOverlay: 1
  m_LightingDataAsset: {fileID: 0}
  m_UseShadowmask: 1
--- !u!196 &4
NavMeshSettings:
  serializedVersion: 2
  m_ObjectHideFlags: 0
  m_BuildSettings:
    serializedVersion: 2
    agentTypeID: 0
    agentRadius: 0.5
    agentHeight: 2
    agentSlope: 45
    agentClimb: 0.4
    ledgeDropHeight: 0
    maxJumpAcrossDistance: 0
    minRegionArea: 2
    manualCellSize: 0
    cellSize: 0.16666667
    manualTileSize: 0
    tileSize: 256
    accuratePlacement: 0
    debug:
      m_Flags: 0
  m_NavMeshData: {fileID: 0}
--- !u!1001 &2094489505
Prefab:
  m_ObjectHideFlags: 0
  serializedVersion: 2
  m_Modification:
    m_TransformParent: {fileID: 0}
    m_Modifications:
    - target: {fileID: 4893185491886414, guid: 0e6fa76322a932d40914675e27e5af5c, type: 2}
      propertyPath: m_LocalPosition.x
      value: 0.055000003
      objectReference: {fileID: 0}
    - target: {fileID: 4893185491886414, guid: 0e6fa76322a932d40914675e27e5af5c, type: 2}
      propertyPath: m_LocalPosition.y
      value: 0.07350419
      objectReference: {fileID: 0}
    - target: {fileID: 4893185491886414, guid: 0e6fa76322a932d40914675e27e5af5c, type: 2}
      propertyPath: m_LocalPosition.z
      value: 33.9889
      objectReference: {fileID: 0}
    - target: {fileID: 4893185491886414, guid: 0e6fa76322a932d40914675e27e5af5c, type: 2}
      propertyPath: m_LocalRotation.x
      value: 0
      objectReference: {fileID: 0}
    - target: {fileID: 4893185491886414, guid: 0e6fa76322a932d40914675e27e5af5c, type: 2}
      propertyPath: m_LocalRotation.y
      value: 0
      objectReference: {fileID: 0}
    - target: {fileID: 4893185491886414, guid: 0e6fa76322a932d40914675e27e5af5c, type: 2}
      propertyPath: m_LocalRotation.z
      value: 0
      objectReference: {fileID: 0}
    - target: {fileID: 4893185491886414, guid: 0e6fa76322a932d40914675e27e5af5c, type: 2}
      propertyPath: m_LocalRotation.w
      value: 1
      objectReference: {fileID: 0}
    - target: {fileID: 4893185491886414, guid: 0e6fa76322a932d40914675e27e5af5c, type: 2}
      propertyPath: m_RootOrder
      value: 0
      objectReference: {fileID: 0}
    - target: {fileID: 4649488494020758, guid: 0e6fa76322a932d40914675e27e5af5c, type: 2}
      propertyPath: m_LocalRotation.x
      value: -0.16332239
      objectReference: {fileID: 0}
    - target: {fileID: 4649488494020758, guid: 0e6fa76322a932d40914675e27e5af5c, type: 2}
      propertyPath: m_LocalRotation.y
      value: 0.35945383
      objectReference: {fileID: 0}
    - target: {fileID: 4649488494020758, guid: 0e6fa76322a932d40914675e27e5af5c, type: 2}
      propertyPath: m_LocalRotation.z
      value: -0.06309245
      objectReference: {fileID: 0}
    - target: {fileID: 4649488494020758, guid: 0e6fa76322a932d40914675e27e5af5c, type: 2}
      propertyPath: m_LocalRotation.w
      value: 0.9165905
      objectReference: {fileID: 0}
    - target: {fileID: 4673468431389138, guid: 0e6fa76322a932d40914675e27e5af5c, type: 2}
      propertyPath: m_LocalRotation.x
      value: 0.017691553
      objectReference: {fileID: 0}
    - target: {fileID: 4673468431389138, guid: 0e6fa76322a932d40914675e27e5af5c, type: 2}
      propertyPath: m_LocalRotation.y
      value: -0.97474104
      objectReference: {fileID: 0}
    - target: {fileID: 4673468431389138, guid: 0e6fa76322a932d40914675e27e5af5c, type: 2}
      propertyPath: m_LocalRotation.z
      value: -0.10108754
      objectReference: {fileID: 0}
    - target: {fileID: 4673468431389138, guid: 0e6fa76322a932d40914675e27e5af5c, type: 2}
      propertyPath: m_LocalRotation.w
      value: -0.19836411
      objectReference: {fileID: 0}
    - target: {fileID: 4671841664263682, guid: 0e6fa76322a932d40914675e27e5af5c, type: 2}
      propertyPath: m_LocalRotation.x
      value: -0.051747758
      objectReference: {fileID: 0}
    - target: {fileID: 4671841664263682, guid: 0e6fa76322a932d40914675e27e5af5c, type: 2}
      propertyPath: m_LocalRotation.y
      value: -0.016719073
      objectReference: {fileID: 0}
    - target: {fileID: 4671841664263682, guid: 0e6fa76322a932d40914675e27e5af5c, type: 2}
      propertyPath: m_LocalRotation.z
      value: 0.052549373
      objectReference: {fileID: 0}
    - target: {fileID: 4671841664263682, guid: 0e6fa76322a932d40914675e27e5af5c, type: 2}
      propertyPath: m_LocalRotation.w
      value: -0.99713653
      objectReference: {fileID: 0}
    - target: {fileID: 4093322844249242, guid: 0e6fa76322a932d40914675e27e5af5c, type: 2}
      propertyPath: m_LocalRotation.x
      value: -0.054435983
      objectReference: {fileID: 0}
    - target: {fileID: 4093322844249242, guid: 0e6fa76322a932d40914675e27e5af5c, type: 2}
      propertyPath: m_LocalRotation.y
      value: 0.26449895
      objectReference: {fileID: 0}
    - target: {fileID: 4093322844249242, guid: 0e6fa76322a932d40914675e27e5af5c, type: 2}
      propertyPath: m_LocalRotation.z
      value: -0.05884661
      objectReference: {fileID: 0}
    - target: {fileID: 4093322844249242, guid: 0e6fa76322a932d40914675e27e5af5c, type: 2}
      propertyPath: m_LocalRotation.w
      value: 0.9610485
      objectReference: {fileID: 0}
    - target: {fileID: 4594438012218946, guid: 0e6fa76322a932d40914675e27e5af5c, type: 2}
      propertyPath: m_LocalRotation.x
      value: -0.054435983
      objectReference: {fileID: 0}
    - target: {fileID: 4594438012218946, guid: 0e6fa76322a932d40914675e27e5af5c, type: 2}
      propertyPath: m_LocalRotation.y
      value: 0.26449895
      objectReference: {fileID: 0}
    - target: {fileID: 4594438012218946, guid: 0e6fa76322a932d40914675e27e5af5c, type: 2}
      propertyPath: m_LocalRotation.z
      value: -0.05884661
      objectReference: {fileID: 0}
    - target: {fileID: 4594438012218946, guid: 0e6fa76322a932d40914675e27e5af5c, type: 2}
      propertyPath: m_LocalRotation.w
      value: 0.9610485
      objectReference: {fileID: 0}
    - target: {fileID: 4968273424702482, guid: 0e6fa76322a932d40914675e27e5af5c, type: 2}
      propertyPath: m_LocalRotation.x
      value: 0.02820199
      objectReference: {fileID: 0}
    - target: {fileID: 4968273424702482, guid: 0e6fa76322a932d40914675e27e5af5c, type: 2}
      propertyPath: m_LocalRotation.y
      value: -0.90062785
      objectReference: {fileID: 0}
    - target: {fileID: 4968273424702482, guid: 0e6fa76322a932d40914675e27e5af5c, type: 2}
      propertyPath: m_LocalRotation.z
      value: 0.032649167
      objectReference: {fileID: 0}
    - target: {fileID: 4968273424702482, guid: 0e6fa76322a932d40914675e27e5af5c, type: 2}
      propertyPath: m_LocalRotation.w
      value: 0.43244424
      objectReference: {fileID: 0}
    - target: {fileID: 4887592260460138, guid: 0e6fa76322a932d40914675e27e5af5c, type: 2}
      propertyPath: m_LocalRotation.x
      value: -0.054435983
      objectReference: {fileID: 0}
    - target: {fileID: 4887592260460138, guid: 0e6fa76322a932d40914675e27e5af5c, type: 2}
      propertyPath: m_LocalRotation.y
      value: 0.26449895
      objectReference: {fileID: 0}
    - target: {fileID: 4887592260460138, guid: 0e6fa76322a932d40914675e27e5af5c, type: 2}
      propertyPath: m_LocalRotation.z
      value: -0.05884661
      objectReference: {fileID: 0}
    - target: {fileID: 4887592260460138, guid: 0e6fa76322a932d40914675e27e5af5c, type: 2}
      propertyPath: m_LocalRotation.w
      value: 0.9610485
      objectReference: {fileID: 0}
    - target: {fileID: 4126032551783154, guid: 0e6fa76322a932d40914675e27e5af5c, type: 2}
      propertyPath: m_LocalRotation.x
      value: -0.03846991
      objectReference: {fileID: 0}
    - target: {fileID: 4126032551783154, guid: 0e6fa76322a932d40914675e27e5af5c, type: 2}
      propertyPath: m_LocalRotation.y
      value: 0.53719354
      objectReference: {fileID: 0}
    - target: {fileID: 4126032551783154, guid: 0e6fa76322a932d40914675e27e5af5c, type: 2}
      propertyPath: m_LocalRotation.z
      value: -0.058977775
      objectReference: {fileID: 0}
    - target: {fileID: 4126032551783154, guid: 0e6fa76322a932d40914675e27e5af5c, type: 2}
      propertyPath: m_LocalRotation.w
      value: 0.84051466
      objectReference: {fileID: 0}
    - target: {fileID: 4063656727304476, guid: 0e6fa76322a932d40914675e27e5af5c, type: 2}
      propertyPath: m_LocalRotation.x
      value: 0.010373384
      objectReference: {fileID: 0}
    - target: {fileID: 4063656727304476, guid: 0e6fa76322a932d40914675e27e5af5c, type: 2}
      propertyPath: m_LocalRotation.y
      value: -0.52842414
      objectReference: {fileID: 0}
    - target: {fileID: 4063656727304476, guid: 0e6fa76322a932d40914675e27e5af5c, type: 2}
      propertyPath: m_LocalRotation.z
      value: -0.09599408
      objectReference: {fileID: 0}
    - target: {fileID: 4063656727304476, guid: 0e6fa76322a932d40914675e27e5af5c, type: 2}
      propertyPath: m_LocalRotation.w
      value: 0.8434723
      objectReference: {fileID: 0}
    - target: {fileID: 4123840880518274, guid: 0e6fa76322a932d40914675e27e5af5c, type: 2}
      propertyPath: m_LocalRotation.x
      value: 0.010373384
      objectReference: {fileID: 0}
    - target: {fileID: 4123840880518274, guid: 0e6fa76322a932d40914675e27e5af5c, type: 2}
      propertyPath: m_LocalRotation.y
      value: -0.52842414
      objectReference: {fileID: 0}
    - target: {fileID: 4123840880518274, guid: 0e6fa76322a932d40914675e27e5af5c, type: 2}
      propertyPath: m_LocalRotation.z
      value: -0.09599408
      objectReference: {fileID: 0}
    - target: {fileID: 4123840880518274, guid: 0e6fa76322a932d40914675e27e5af5c, type: 2}
      propertyPath: m_LocalRotation.w
      value: 0.8434723
      objectReference: {fileID: 0}
    - target: {fileID: 4164233172933780, guid: 0e6fa76322a932d40914675e27e5af5c, type: 2}
      propertyPath: m_LocalRotation.x
      value: -0.04243957
      objectReference: {fileID: 0}
    - target: {fileID: 4164233172933780, guid: 0e6fa76322a932d40914675e27e5af5c, type: 2}
      propertyPath: m_LocalRotation.y
      value: 0.3811911
      objectReference: {fileID: 0}
    - target: {fileID: 4164233172933780, guid: 0e6fa76322a932d40914675e27e5af5c, type: 2}
      propertyPath: m_LocalRotation.z
      value: -0.082844734
      objectReference: {fileID: 0}
    - target: {fileID: 4164233172933780, guid: 0e6fa76322a932d40914675e27e5af5c, type: 2}
      propertyPath: m_LocalRotation.w
      value: 0.9197984
      objectReference: {fileID: 0}
    - target: {fileID: 4859459262623196, guid: 0e6fa76322a932d40914675e27e5af5c, type: 2}
      propertyPath: m_LocalRotation.x
      value: 0.010373384
      objectReference: {fileID: 0}
    - target: {fileID: 4859459262623196, guid: 0e6fa76322a932d40914675e27e5af5c, type: 2}
      propertyPath: m_LocalRotation.y
      value: -0.52842414
      objectReference: {fileID: 0}
    - target: {fileID: 4859459262623196, guid: 0e6fa76322a932d40914675e27e5af5c, type: 2}
      propertyPath: m_LocalRotation.z
      value: -0.09599408
      objectReference: {fileID: 0}
    - target: {fileID: 4859459262623196, guid: 0e6fa76322a932d40914675e27e5af5c, type: 2}
      propertyPath: m_LocalRotation.w
      value: 0.8434723
      objectReference: {fileID: 0}
    - target: {fileID: 4014212217377158, guid: 0e6fa76322a932d40914675e27e5af5c, type: 2}
      propertyPath: m_LocalRotation.x
      value: 0.02820199
      objectReference: {fileID: 0}
    - target: {fileID: 4014212217377158, guid: 0e6fa76322a932d40914675e27e5af5c, type: 2}
      propertyPath: m_LocalRotation.y
      value: -0.90062785
      objectReference: {fileID: 0}
    - target: {fileID: 4014212217377158, guid: 0e6fa76322a932d40914675e27e5af5c, type: 2}
      propertyPath: m_LocalRotation.z
      value: 0.032649167
      objectReference: {fileID: 0}
    - target: {fileID: 4014212217377158, guid: 0e6fa76322a932d40914675e27e5af5c, type: 2}
      propertyPath: m_LocalRotation.w
      value: 0.43244424
      objectReference: {fileID: 0}
    - target: {fileID: 4656815293620384, guid: 0e6fa76322a932d40914675e27e5af5c, type: 2}
      propertyPath: m_LocalRotation.x
      value: -0.029520517
      objectReference: {fileID: 0}
    - target: {fileID: 4656815293620384, guid: 0e6fa76322a932d40914675e27e5af5c, type: 2}
      propertyPath: m_LocalRotation.y
      value: -0.52427256
      objectReference: {fileID: 0}
    - target: {fileID: 4656815293620384, guid: 0e6fa76322a932d40914675e27e5af5c, type: 2}
      propertyPath: m_LocalRotation.z
      value: 0.031462256
      objectReference: {fileID: 0}
    - target: {fileID: 4656815293620384, guid: 0e6fa76322a932d40914675e27e5af5c, type: 2}
      propertyPath: m_LocalRotation.w
      value: -0.85045695
      objectReference: {fileID: 0}
    m_RemovedComponents: []
  m_ParentPrefab: {fileID: 100100000, guid: 0e6fa76322a932d40914675e27e5af5c, type: 2}
  m_IsPrefabParent: 0
