%YAML 1.1
%TAG !u! tag:unity3d.com,2011:
--- !u!29 &1
OcclusionCullingSettings:
  m_ObjectHideFlags: 0
  serializedVersion: 2
  m_OcclusionBakeSettings:
    smallestOccluder: 5
    smallestHole: 0.25
    backfaceThreshold: 100
  m_SceneGUID: 00000000000000000000000000000000
  m_OcclusionCullingData: {fileID: 0}
--- !u!104 &2
RenderSettings:
  m_ObjectHideFlags: 0
  serializedVersion: 8
  m_Fog: 0
  m_FogColor: {r: 0.5, g: 0.5, b: 0.5, a: 1}
  m_FogMode: 3
  m_FogDensity: 0.01
  m_LinearFogStart: 0
  m_LinearFogEnd: 300
  m_AmbientSkyColor: {r: 0.212, g: 0.227, b: 0.259, a: 1}
  m_AmbientEquatorColor: {r: 0.114, g: 0.125, b: 0.133, a: 1}
  m_AmbientGroundColor: {r: 0.047, g: 0.043, b: 0.035, a: 1}
  m_AmbientIntensity: 1
  m_AmbientMode: 0
  m_SubtractiveShadowColor: {r: 0.42, g: 0.478, b: 0.627, a: 1}
  m_SkyboxMaterial: {fileID: 10304, guid: 0000000000000000f000000000000000, type: 0}
  m_HaloStrength: 0.5
  m_FlareStrength: 1
  m_FlareFadeSpeed: 3
  m_HaloTexture: {fileID: 0}
  m_SpotCookie: {fileID: 10001, guid: 0000000000000000e000000000000000, type: 0}
  m_DefaultReflectionMode: 0
  m_DefaultReflectionResolution: 128
  m_ReflectionBounces: 1
  m_ReflectionIntensity: 1
  m_CustomReflection: {fileID: 0}
  m_Sun: {fileID: 0}
  m_IndirectSpecularColor: {r: 0.37311953, g: 0.38074014, b: 0.3587274, a: 1}
--- !u!157 &3
LightmapSettings:
  m_ObjectHideFlags: 0
  serializedVersion: 11
  m_GIWorkflowMode: 0
  m_GISettings:
    serializedVersion: 2
    m_BounceScale: 1
    m_IndirectOutputScale: 1
    m_AlbedoBoost: 1
    m_TemporalCoherenceThreshold: 1
    m_EnvironmentLightingMode: 0
    m_EnableBakedLightmaps: 1
    m_EnableRealtimeLightmaps: 1
  m_LightmapEditorSettings:
    serializedVersion: 9
    m_Resolution: 2
    m_BakeResolution: 40
    m_TextureWidth: 1024
    m_TextureHeight: 1024
    m_AO: 0
    m_AOMaxDistance: 1
    m_CompAOExponent: 1
    m_CompAOExponentDirect: 0
    m_Padding: 2
    m_LightmapParameters: {fileID: 0}
    m_LightmapsBakeMode: 1
    m_TextureCompression: 1
    m_FinalGather: 0
    m_FinalGatherFiltering: 1
    m_FinalGatherRayCount: 256
    m_ReflectionCompression: 2
    m_MixedBakeMode: 2
    m_BakeBackend: 0
    m_PVRSampling: 1
    m_PVRDirectSampleCount: 32
    m_PVRSampleCount: 500
    m_PVRBounces: 2
    m_PVRFilterTypeDirect: 0
    m_PVRFilterTypeIndirect: 0
    m_PVRFilterTypeAO: 0
    m_PVRFilteringMode: 1
    m_PVRCulling: 1
    m_PVRFilteringGaussRadiusDirect: 1
    m_PVRFilteringGaussRadiusIndirect: 5
    m_PVRFilteringGaussRadiusAO: 2
    m_PVRFilteringAtrousPositionSigmaDirect: 0.5
    m_PVRFilteringAtrousPositionSigmaIndirect: 2
    m_PVRFilteringAtrousPositionSigmaAO: 1
    m_ShowResolutionOverlay: 1
  m_LightingDataAsset: {fileID: 0}
  m_UseShadowmask: 1
--- !u!196 &4
NavMeshSettings:
  serializedVersion: 2
  m_ObjectHideFlags: 0
  m_BuildSettings:
    serializedVersion: 2
    agentTypeID: 0
    agentRadius: 0.5
    agentHeight: 2
    agentSlope: 45
    agentClimb: 0.4
    ledgeDropHeight: 0
    maxJumpAcrossDistance: 0
    minRegionArea: 2
    manualCellSize: 0
    cellSize: 0.16666667
    manualTileSize: 0
    tileSize: 256
    accuratePlacement: 0
    debug:
      m_Flags: 0
  m_NavMeshData: {fileID: 0}
--- !u!1001 &297101045
Prefab:
  m_ObjectHideFlags: 0
  serializedVersion: 2
  m_Modification:
    m_TransformParent: {fileID: 0}
    m_Modifications:
    - target: {fileID: 4051619678822588, guid: c04940e57f4a3d846b889d90970118af, type: 2}
      propertyPath: m_LocalPosition.x
      value: 0
      objectReference: {fileID: 0}
    - target: {fileID: 4051619678822588, guid: c04940e57f4a3d846b889d90970118af, type: 2}
      propertyPath: m_LocalPosition.y
      value: 0
      objectReference: {fileID: 0}
    - target: {fileID: 4051619678822588, guid: c04940e57f4a3d846b889d90970118af, type: 2}
      propertyPath: m_LocalPosition.z
      value: 0
      objectReference: {fileID: 0}
    - target: {fileID: 4051619678822588, guid: c04940e57f4a3d846b889d90970118af, type: 2}
      propertyPath: m_LocalRotation.x
      value: 0
      objectReference: {fileID: 0}
    - target: {fileID: 4051619678822588, guid: c04940e57f4a3d846b889d90970118af, type: 2}
      propertyPath: m_LocalRotation.y
      value: 0
      objectReference: {fileID: 0}
    - target: {fileID: 4051619678822588, guid: c04940e57f4a3d846b889d90970118af, type: 2}
      propertyPath: m_LocalRotation.z
      value: 0
      objectReference: {fileID: 0}
    - target: {fileID: 4051619678822588, guid: c04940e57f4a3d846b889d90970118af, type: 2}
      propertyPath: m_LocalRotation.w
      value: 1
      objectReference: {fileID: 0}
    - target: {fileID: 4051619678822588, guid: c04940e57f4a3d846b889d90970118af, type: 2}
      propertyPath: m_RootOrder
      value: 0
      objectReference: {fileID: 0}
    - target: {fileID: 4525213389251686, guid: c04940e57f4a3d846b889d90970118af, type: 2}
      propertyPath: m_LocalRotation.x
      value: -0.90064013
      objectReference: {fileID: 0}
    - target: {fileID: 4525213389251686, guid: c04940e57f4a3d846b889d90970118af, type: 2}
      propertyPath: m_LocalRotation.y
      value: 0.044703323
      objectReference: {fileID: 0}
    - target: {fileID: 4525213389251686, guid: c04940e57f4a3d846b889d90970118af, type: 2}
      propertyPath: m_LocalRotation.z
      value: 0.43164805
      objectReference: {fileID: 0}
    - target: {fileID: 4525213389251686, guid: c04940e57f4a3d846b889d90970118af, type: 2}
      propertyPath: m_LocalRotation.w
      value: -0.023000807
      objectReference: {fileID: 0}
    - target: {fileID: 4911373108899966, guid: c04940e57f4a3d846b889d90970118af, type: 2}
      propertyPath: m_LocalRotation.x
      value: 0.363081
      objectReference: {fileID: 0}
    - target: {fileID: 4911373108899966, guid: c04940e57f4a3d846b889d90970118af, type: 2}
      propertyPath: m_LocalRotation.y
      value: -0.84159195
      objectReference: {fileID: 0}
    - target: {fileID: 4911373108899966, guid: c04940e57f4a3d846b889d90970118af, type: 2}
      propertyPath: m_LocalRotation.z
      value: -0.15148513
      objectReference: {fileID: 0}
    - target: {fileID: 4911373108899966, guid: c04940e57f4a3d846b889d90970118af, type: 2}
      propertyPath: m_LocalRotation.w
      value: 0.37006426
      objectReference: {fileID: 0}
    - target: {fileID: 4902336895839308, guid: c04940e57f4a3d846b889d90970118af, type: 2}
      propertyPath: m_LocalRotation.x
      value: -0.054133803
      objectReference: {fileID: 0}
    - target: {fileID: 4902336895839308, guid: c04940e57f4a3d846b889d90970118af, type: 2}
      propertyPath: m_LocalRotation.y
      value: 0.2595771
      objectReference: {fileID: 0}
    - target: {fileID: 4902336895839308, guid: c04940e57f4a3d846b889d90970118af, type: 2}
      propertyPath: m_LocalRotation.z
      value: -0.05912448
      objectReference: {fileID: 0}
    - target: {fileID: 4902336895839308, guid: c04940e57f4a3d846b889d90970118af, type: 2}
      propertyPath: m_LocalRotation.w
      value: 0.96238947
      objectReference: {fileID: 0}
    - target: {fileID: 4212721907944750, guid: c04940e57f4a3d846b889d90970118af, type: 2}
      propertyPath: m_LocalRotation.x
      value: 0.363081
      objectReference: {fileID: 0}
    - target: {fileID: 4212721907944750, guid: c04940e57f4a3d846b889d90970118af, type: 2}
      propertyPath: m_LocalRotation.y
      value: -0.84159195
      objectReference: {fileID: 0}
    - target: {fileID: 4212721907944750, guid: c04940e57f4a3d846b889d90970118af, type: 2}
      propertyPath: m_LocalRotation.z
      value: -0.15148513
      objectReference: {fileID: 0}
    - target: {fileID: 4212721907944750, guid: c04940e57f4a3d846b889d90970118af, type: 2}
      propertyPath: m_LocalRotation.w
      value: 0.37006426
      objectReference: {fileID: 0}
    - target: {fileID: 4322523897112212, guid: c04940e57f4a3d846b889d90970118af, type: 2}
      propertyPath: m_LocalRotation.x
      value: 0.027772872
      objectReference: {fileID: 0}
    - target: {fileID: 4322523897112212, guid: c04940e57f4a3d846b889d90970118af, type: 2}
      propertyPath: m_LocalRotation.y
      value: -0.40437964
      objectReference: {fileID: 0}
    - target: {fileID: 4322523897112212, guid: c04940e57f4a3d846b889d90970118af, type: 2}
      propertyPath: m_LocalRotation.z
      value: 0.14751098
      objectReference: {fileID: 0}
    - target: {fileID: 4322523897112212, guid: c04940e57f4a3d846b889d90970118af, type: 2}
      propertyPath: m_LocalRotation.w
      value: -0.90218973
      objectReference: {fileID: 0}
    - target: {fileID: 4350464648215728, guid: c04940e57f4a3d846b889d90970118af, type: 2}
      propertyPath: m_LocalRotation.x
      value: -0.91075003
      objectReference: {fileID: 0}
    - target: {fileID: 4350464648215728, guid: c04940e57f4a3d846b889d90970118af, type: 2}
      propertyPath: m_LocalRotation.y
      value: -0.103145555
      objectReference: {fileID: 0}
    - target: {fileID: 4350464648215728, guid: c04940e57f4a3d846b889d90970118af, type: 2}
      propertyPath: m_LocalRotation.z
      value: 0.39810315
      objectReference: {fileID: 0}
    - target: {fileID: 4350464648215728, guid: c04940e57f4a3d846b889d90970118af, type: 2}
      propertyPath: m_LocalRotation.w
      value: 0.03753823
      objectReference: {fileID: 0}
    - target: {fileID: 4276480525156462, guid: c04940e57f4a3d846b889d90970118af, type: 2}
      propertyPath: m_LocalRotation.x
      value: 0.15455881
      objectReference: {fileID: 0}
    - target: {fileID: 4276480525156462, guid: c04940e57f4a3d846b889d90970118af, type: 2}
      propertyPath: m_LocalRotation.y
      value: -0.3687911
      objectReference: {fileID: 0}
    - target: {fileID: 4276480525156462, guid: c04940e57f4a3d846b889d90970118af, type: 2}
      propertyPath: m_LocalRotation.z
      value: 0.33835837
      objectReference: {fileID: 0}
    - target: {fileID: 4276480525156462, guid: c04940e57f4a3d846b889d90970118af, type: 2}
      propertyPath: m_LocalRotation.w
      value: -0.8518324
      objectReference: {fileID: 0}
    - target: {fileID: 4716563859119236, guid: c04940e57f4a3d846b889d90970118af, type: 2}
      propertyPath: m_LocalRotation.x
      value: 0.06074909
      objectReference: {fileID: 0}
    - target: {fileID: 4716563859119236, guid: c04940e57f4a3d846b889d90970118af, type: 2}
      propertyPath: m_LocalRotation.y
      value: -0.3952276
      objectReference: {fileID: 0}
    - target: {fileID: 4716563859119236, guid: c04940e57f4a3d846b889d90970118af, type: 2}
      propertyPath: m_LocalRotation.z
      value: 0.12223077
      objectReference: {fileID: 0}
    - target: {fileID: 4716563859119236, guid: c04940e57f4a3d846b889d90970118af, type: 2}
      propertyPath: m_LocalRotation.w
      value: -0.9083856
      objectReference: {fileID: 0}
    - target: {fileID: 4784927469051488, guid: c04940e57f4a3d846b889d90970118af, type: 2}
      propertyPath: m_LocalRotation.x
      value: -0.015779996
      objectReference: {fileID: 0}
    - target: {fileID: 4784927469051488, guid: c04940e57f4a3d846b889d90970118af, type: 2}
      propertyPath: m_LocalRotation.y
      value: -0.3995576
      objectReference: {fileID: 0}
    - target: {fileID: 4784927469051488, guid: c04940e57f4a3d846b889d90970118af, type: 2}
      propertyPath: m_LocalRotation.z
      value: -0.053343095
      objectReference: {fileID: 0}
    - target: {fileID: 4784927469051488, guid: c04940e57f4a3d846b889d90970118af, type: 2}
      propertyPath: m_LocalRotation.w
      value: -0.91501874
      objectReference: {fileID: 0}
    - target: {fileID: 4355179276621024, guid: c04940e57f4a3d846b889d90970118af, type: 2}
      propertyPath: m_LocalRotation.x
      value: -0.28157142
      objectReference: {fileID: 0}
    - target: {fileID: 4355179276621024, guid: c04940e57f4a3d846b889d90970118af, type: 2}
      propertyPath: m_LocalRotation.y
      value: -0.28392392
      objectReference: {fileID: 0}
    - target: {fileID: 4355179276621024, guid: c04940e57f4a3d846b889d90970118af, type: 2}
      propertyPath: m_LocalRotation.z
      value: -0.65750635
      objectReference: {fileID: 0}
    - target: {fileID: 4355179276621024, guid: c04940e57f4a3d846b889d90970118af, type: 2}
      propertyPath: m_LocalRotation.w
      value: -0.6385845
      objectReference: {fileID: 0}
    - target: {fileID: 4174506452948910, guid: c04940e57f4a3d846b889d90970118af, type: 2}
      propertyPath: m_LocalRotation.x
      value: -0.91075003
      objectReference: {fileID: 0}
    - target: {fileID: 4174506452948910, guid: c04940e57f4a3d846b889d90970118af, type: 2}
      propertyPath: m_LocalRotation.y
      value: -0.103145555
      objectReference: {fileID: 0}
    - target: {fileID: 4174506452948910, guid: c04940e57f4a3d846b889d90970118af, type: 2}
      propertyPath: m_LocalRotation.z
      value: 0.39810315
      objectReference: {fileID: 0}
    - target: {fileID: 4174506452948910, guid: c04940e57f4a3d846b889d90970118af, type: 2}
      propertyPath: m_LocalRotation.w
      value: 0.03753823
      objectReference: {fileID: 0}
    - target: {fileID: 4337532118034996, guid: c04940e57f4a3d846b889d90970118af, type: 2}
      propertyPath: m_LocalRotation.x
      value: -0.85061026
      objectReference: {fileID: 0}
    - target: {fileID: 4337532118034996, guid: c04940e57f4a3d846b889d90970118af, type: 2}
      propertyPath: m_LocalRotation.y
      value: 0.3275876
      objectReference: {fileID: 0}
    - target: {fileID: 4337532118034996, guid: c04940e57f4a3d846b889d90970118af, type: 2}
      propertyPath: m_LocalRotation.z
      value: 0.39316946
      objectReference: {fileID: 0}
    - target: {fileID: 4337532118034996, guid: c04940e57f4a3d846b889d90970118af, type: 2}
      propertyPath: m_LocalRotation.w
      value: -0.12069151
      objectReference: {fileID: 0}
    - target: {fileID: 4675096082878712, guid: c04940e57f4a3d846b889d90970118af, type: 2}
      propertyPath: m_LocalRotation.x
      value: 0.77240545
      objectReference: {fileID: 0}
    - target: {fileID: 4675096082878712, guid: c04940e57f4a3d846b889d90970118af, type: 2}
      propertyPath: m_LocalRotation.y
      value: -0.48398477
      objectReference: {fileID: 0}
    - target: {fileID: 4675096082878712, guid: c04940e57f4a3d846b889d90970118af, type: 2}
      propertyPath: m_LocalRotation.z
      value: -0.3628888
      objectReference: {fileID: 0}
    - target: {fileID: 4675096082878712, guid: c04940e57f4a3d846b889d90970118af, type: 2}
      propertyPath: m_LocalRotation.w
      value: 0.19354689
      objectReference: {fileID: 0}
    - target: {fileID: 4988681845550570, guid: c04940e57f4a3d846b889d90970118af, type: 2}
      propertyPath: m_LocalRotation.x
      value: 0.005348083
      objectReference: {fileID: 0}
    - target: {fileID: 4988681845550570, guid: c04940e57f4a3d846b889d90970118af, type: 2}
      propertyPath: m_LocalRotation.y
      value: -0.37926996
      objectReference: {fileID: 0}
    - target: {fileID: 4988681845550570, guid: c04940e57f4a3d846b889d90970118af, type: 2}
      propertyPath: m_LocalRotation.z
      value: 0.09011476
      objectReference: {fileID: 0}
    - target: {fileID: 4988681845550570, guid: c04940e57f4a3d846b889d90970118af, type: 2}
      propertyPath: m_LocalRotation.w
      value: -0.9208719
      objectReference: {fileID: 0}
    - target: {fileID: 4801916631735180, guid: c04940e57f4a3d846b889d90970118af, type: 2}
      propertyPath: m_LocalRotation.x
      value: -0.38469276
      objectReference: {fileID: 0}
    - target: {fileID: 4801916631735180, guid: c04940e57f4a3d846b889d90970118af, type: 2}
      propertyPath: m_LocalRotation.y
      value: -0.10695963
      objectReference: {fileID: 0}
    - target: {fileID: 4801916631735180, guid: c04940e57f4a3d846b889d90970118af, type: 2}
      propertyPath: m_LocalRotation.z
      value: -0.91674984
      objectReference: {fileID: 0}
    - target: {fileID: 4801916631735180, guid: c04940e57f4a3d846b889d90970118af, type: 2}
      propertyPath: m_LocalRotation.w
      value: -0.011873326
      objectReference: {fileID: 0}
    - target: {fileID: 4502968837353438, guid: c04940e57f4a3d846b889d90970118af, type: 2}
      propertyPath: m_LocalRotation.x
      value: -0.85061026
      objectReference: {fileID: 0}
    - target: {fileID: 4502968837353438, guid: c04940e57f4a3d846b889d90970118af, type: 2}
      propertyPath: m_LocalRotation.y
      value: 0.3275876
      objectReference: {fileID: 0}
    - target: {fileID: 4502968837353438, guid: c04940e57f4a3d846b889d90970118af, type: 2}
      propertyPath: m_LocalRotation.z
      value: 0.39316946
      objectReference: {fileID: 0}
    - target: {fileID: 4502968837353438, guid: c04940e57f4a3d846b889d90970118af, type: 2}
      propertyPath: m_LocalRotation.w
      value: -0.12069151
      objectReference: {fileID: 0}
    - target: {fileID: 4591384494308022, guid: c04940e57f4a3d846b889d90970118af, type: 2}
      propertyPath: m_LocalRotation.x
      value: -0.40998152
      objectReference: {fileID: 0}
    - target: {fileID: 4591384494308022, guid: c04940e57f4a3d846b889d90970118af, type: 2}
      propertyPath: m_LocalRotation.y
      value: -0.10416589
      objectReference: {fileID: 0}
    - target: {fileID: 4591384494308022, guid: c04940e57f4a3d846b889d90970118af, type: 2}
      propertyPath: m_LocalRotation.z
      value: -0.90611947
      objectReference: {fileID: 0}
    - target: {fileID: 4591384494308022, guid: c04940e57f4a3d846b889d90970118af, type: 2}
      propertyPath: m_LocalRotation.w
      value: -0.0034840254
      objectReference: {fileID: 0}
    - target: {fileID: 4087598888734804, guid: c04940e57f4a3d846b889d90970118af, type: 2}
      propertyPath: m_LocalRotation.x
      value: -0.3406603
      objectReference: {fileID: 0}
    - target: {fileID: 4087598888734804, guid: c04940e57f4a3d846b889d90970118af, type: 2}
      propertyPath: m_LocalRotation.y
      value: -0.26657274
      objectReference: {fileID: 0}
    - target: {fileID: 4087598888734804, guid: c04940e57f4a3d846b889d90970118af, type: 2}
      propertyPath: m_LocalRotation.z
      value: -0.72454596
      objectReference: {fileID: 0}
    - target: {fileID: 4087598888734804, guid: c04940e57f4a3d846b889d90970118af, type: 2}
      propertyPath: m_LocalRotation.w
      value: -0.5365842
      objectReference: {fileID: 0}
    - target: {fileID: 4439686023068714, guid: c04940e57f4a3d846b889d90970118af, type: 2}
      propertyPath: m_LocalRotation.x
      value: -0.38469276
      objectReference: {fileID: 0}
    - target: {fileID: 4439686023068714, guid: c04940e57f4a3d846b889d90970118af, type: 2}
      propertyPath: m_LocalRotation.y
      value: -0.10695963
      objectReference: {fileID: 0}
    - target: {fileID: 4439686023068714, guid: c04940e57f4a3d846b889d90970118af, type: 2}
      propertyPath: m_LocalRotation.z
      value: -0.91674984
      objectReference: {fileID: 0}
    - target: {fileID: 4439686023068714, guid: c04940e57f4a3d846b889d90970118af, type: 2}
      propertyPath: m_LocalRotation.w
      value: -0.011873326
      objectReference: {fileID: 0}
    - target: {fileID: 4066178979791592, guid: c04940e57f4a3d846b889d90970118af, type: 2}
      propertyPath: m_LocalRotation.x
      value: -0.85061026
      objectReference: {fileID: 0}
    - target: {fileID: 4066178979791592, guid: c04940e57f4a3d846b889d90970118af, type: 2}
      propertyPath: m_LocalRotation.y
      value: 0.3275876
      objectReference: {fileID: 0}
    - target: {fileID: 4066178979791592, guid: c04940e57f4a3d846b889d90970118af, type: 2}
      propertyPath: m_LocalRotation.z
      value: 0.39316946
      objectReference: {fileID: 0}
    - target: {fileID: 4066178979791592, guid: c04940e57f4a3d846b889d90970118af, type: 2}
      propertyPath: m_LocalRotation.w
      value: -0.12069151
      objectReference: {fileID: 0}
    - target: {fileID: 4860516429772842, guid: c04940e57f4a3d846b889d90970118af, type: 2}
      propertyPath: m_LocalRotation.x
      value: -0.5385013
      objectReference: {fileID: 0}
    - target: {fileID: 4860516429772842, guid: c04940e57f4a3d846b889d90970118af, type: 2}
      propertyPath: m_LocalRotation.y
      value: -0.14870644
      objectReference: {fileID: 0}
    - target: {fileID: 4860516429772842, guid: c04940e57f4a3d846b889d90970118af, type: 2}
      propertyPath: m_LocalRotation.z
      value: -0.64373255
      objectReference: {fileID: 0}
    - target: {fileID: 4860516429772842, guid: c04940e57f4a3d846b889d90970118af, type: 2}
      propertyPath: m_LocalRotation.w
      value: 0.5229829
      objectReference: {fileID: 0}
    - target: {fileID: 4832659977784866, guid: c04940e57f4a3d846b889d90970118af, type: 2}
      propertyPath: m_LocalRotation.x
      value: -0.8518324
      objectReference: {fileID: 0}
    - target: {fileID: 4832659977784866, guid: c04940e57f4a3d846b889d90970118af, type: 2}
      propertyPath: m_LocalRotation.y
      value: 0.33835837
      objectReference: {fileID: 0}
    - target: {fileID: 4832659977784866, guid: c04940e57f4a3d846b889d90970118af, type: 2}
      propertyPath: m_LocalRotation.z
      value: 0.3687911
      objectReference: {fileID: 0}
    - target: {fileID: 4832659977784866, guid: c04940e57f4a3d846b889d90970118af, type: 2}
      propertyPath: m_LocalRotation.w
      value: -0.15455881
      objectReference: {fileID: 0}
    - target: {fileID: 4180133547451150, guid: c04940e57f4a3d846b889d90970118af, type: 2}
      propertyPath: m_LocalRotation.x
      value: 0.28392392
      objectReference: {fileID: 0}
    - target: {fileID: 4180133547451150, guid: c04940e57f4a3d846b889d90970118af, type: 2}
      propertyPath: m_LocalRotation.y
      value: -0.28157142
      objectReference: {fileID: 0}
    - target: {fileID: 4180133547451150, guid: c04940e57f4a3d846b889d90970118af, type: 2}
      propertyPath: m_LocalRotation.z
      value: 0.6385845
      objectReference: {fileID: 0}
    - target: {fileID: 4180133547451150, guid: c04940e57f4a3d846b889d90970118af, type: 2}
      propertyPath: m_LocalRotation.w
      value: -0.65750635
      objectReference: {fileID: 0}
    - target: {fileID: 4874448713656062, guid: c04940e57f4a3d846b889d90970118af, type: 2}
      propertyPath: m_LocalRotation.x
      value: 0.65750635
      objectReference: {fileID: 0}
    - target: {fileID: 4874448713656062, guid: c04940e57f4a3d846b889d90970118af, type: 2}
      propertyPath: m_LocalRotation.y
      value: -0.6385845
      objectReference: {fileID: 0}
    - target: {fileID: 4874448713656062, guid: c04940e57f4a3d846b889d90970118af, type: 2}
      propertyPath: m_LocalRotation.z
      value: -0.28157142
      objectReference: {fileID: 0}
    - target: {fileID: 4874448713656062, guid: c04940e57f4a3d846b889d90970118af, type: 2}
      propertyPath: m_LocalRotation.w
      value: 0.28392392
      objectReference: {fileID: 0}
    - target: {fileID: 4194555759317180, guid: c04940e57f4a3d846b889d90970118af, type: 2}
      propertyPath: m_LocalRotation.x
      value: -0.6385845
      objectReference: {fileID: 0}
    - target: {fileID: 4194555759317180, guid: c04940e57f4a3d846b889d90970118af, type: 2}
      propertyPath: m_LocalRotation.y
      value: -0.65750635
      objectReference: {fileID: 0}
    - target: {fileID: 4194555759317180, guid: c04940e57f4a3d846b889d90970118af, type: 2}
      propertyPath: m_LocalRotation.z
      value: 0.28392392
      objectReference: {fileID: 0}
    - target: {fileID: 4194555759317180, guid: c04940e57f4a3d846b889d90970118af, type: 2}
      propertyPath: m_LocalRotation.w
      value: 0.28157142
      objectReference: {fileID: 0}
    - target: {fileID: 4907132384029498, guid: c04940e57f4a3d846b889d90970118af, type: 2}
      propertyPath: m_LocalRotation.x
      value: -0.28157142
      objectReference: {fileID: 0}
    - target: {fileID: 4907132384029498, guid: c04940e57f4a3d846b889d90970118af, type: 2}
      propertyPath: m_LocalRotation.y
      value: -0.28392392
      objectReference: {fileID: 0}
    - target: {fileID: 4907132384029498, guid: c04940e57f4a3d846b889d90970118af, type: 2}
      propertyPath: m_LocalRotation.z
      value: -0.65750635
      objectReference: {fileID: 0}
    - target: {fileID: 4907132384029498, guid: c04940e57f4a3d846b889d90970118af, type: 2}
      propertyPath: m_LocalRotation.w
      value: -0.6385845
      objectReference: {fileID: 0}
    - target: {fileID: 4146343072474270, guid: c04940e57f4a3d846b889d90970118af, type: 2}
      propertyPath: m_LocalRotation.x
      value: -0.6088207
      objectReference: {fileID: 0}
    - target: {fileID: 4146343072474270, guid: c04940e57f4a3d846b889d90970118af, type: 2}
      propertyPath: m_LocalRotation.y
      value: 0.783244
      objectReference: {fileID: 0}
    - target: {fileID: 4146343072474270, guid: c04940e57f4a3d846b889d90970118af, type: 2}
      propertyPath: m_LocalRotation.z
      value: 0.1255978
      objectReference: {fileID: 0}
    - target: {fileID: 4146343072474270, guid: c04940e57f4a3d846b889d90970118af, type: 2}
      propertyPath: m_LocalRotation.w
      value: 0.009568832
      objectReference: {fileID: 0}
    - target: {fileID: 4349565628466964, guid: c04940e57f4a3d846b889d90970118af, type: 2}
      propertyPath: m_LocalRotation.x
      value: -0.40998152
      objectReference: {fileID: 0}
    - target: {fileID: 4349565628466964, guid: c04940e57f4a3d846b889d90970118af, type: 2}
      propertyPath: m_LocalRotation.y
      value: -0.10416589
      objectReference: {fileID: 0}
    - target: {fileID: 4349565628466964, guid: c04940e57f4a3d846b889d90970118af, type: 2}
      propertyPath: m_LocalRotation.z
      value: -0.90611947
      objectReference: {fileID: 0}
    - target: {fileID: 4349565628466964, guid: c04940e57f4a3d846b889d90970118af, type: 2}
      propertyPath: m_LocalRotation.w
      value: -0.0034840254
      objectReference: {fileID: 0}
    - target: {fileID: 4679138962442260, guid: c04940e57f4a3d846b889d90970118af, type: 2}
      propertyPath: m_LocalRotation.x
      value: -0.41817763
      objectReference: {fileID: 0}
    - target: {fileID: 4679138962442260, guid: c04940e57f4a3d846b889d90970118af, type: 2}
      propertyPath: m_LocalRotation.y
      value: 0.11062542
      objectReference: {fileID: 0}
    - target: {fileID: 4679138962442260, guid: c04940e57f4a3d846b889d90970118af, type: 2}
      propertyPath: m_LocalRotation.z
      value: -0.8651935
      objectReference: {fileID: 0}
    - target: {fileID: 4679138962442260, guid: c04940e57f4a3d846b889d90970118af, type: 2}
      propertyPath: m_LocalRotation.w
      value: 0.25363308
      objectReference: {fileID: 0}
    - target: {fileID: 4826921239204520, guid: c04940e57f4a3d846b889d90970118af, type: 2}
      propertyPath: m_LocalRotation.x
      value: 0.62259567
      objectReference: {fileID: 0}
    - target: {fileID: 4826921239204520, guid: c04940e57f4a3d846b889d90970118af, type: 2}
      propertyPath: m_LocalRotation.y
      value: 0.5003144
      objectReference: {fileID: 0}
    - target: {fileID: 4826921239204520, guid: c04940e57f4a3d846b889d90970118af, type: 2}
      propertyPath: m_LocalRotation.z
      value: -0.52101564
      objectReference: {fileID: 0}
    - target: {fileID: 4826921239204520, guid: c04940e57f4a3d846b889d90970118af, type: 2}
      propertyPath: m_LocalRotation.w
      value: 0.30100337
      objectReference: {fileID: 0}
    - target: {fileID: 4842507164774730, guid: c04940e57f4a3d846b889d90970118af, type: 2}
      propertyPath: m_LocalRotation.x
      value: -0.41817763
      objectReference: {fileID: 0}
    - target: {fileID: 4842507164774730, guid: c04940e57f4a3d846b889d90970118af, type: 2}
      propertyPath: m_LocalRotation.y
      value: 0.11062542
      objectReference: {fileID: 0}
    - target: {fileID: 4842507164774730, guid: c04940e57f4a3d846b889d90970118af, type: 2}
      propertyPath: m_LocalRotation.z
      value: -0.8651935
      objectReference: {fileID: 0}
    - target: {fileID: 4842507164774730, guid: c04940e57f4a3d846b889d90970118af, type: 2}
      propertyPath: m_LocalRotation.w
      value: 0.25363308
      objectReference: {fileID: 0}
    - target: {fileID: 4553611073334140, guid: c04940e57f4a3d846b889d90970118af, type: 2}
      propertyPath: m_LocalRotation.x
      value: -0.81456566
      objectReference: {fileID: 0}
    - target: {fileID: 4553611073334140, guid: c04940e57f4a3d846b889d90970118af, type: 2}
      propertyPath: m_LocalRotation.y
      value: 0.42022324
      objectReference: {fileID: 0}
    - target: {fileID: 4553611073334140, guid: c04940e57f4a3d846b889d90970118af, type: 2}
      propertyPath: m_LocalRotation.z
      value: 0.35186586
      objectReference: {fileID: 0}
    - target: {fileID: 4553611073334140, guid: c04940e57f4a3d846b889d90970118af, type: 2}
      propertyPath: m_LocalRotation.w
      value: -0.1899624
      objectReference: {fileID: 0}
    - target: {fileID: 4651047192386528, guid: c04940e57f4a3d846b889d90970118af, type: 2}
      propertyPath: m_LocalRotation.x
      value: -0.8965486
      objectReference: {fileID: 0}
    - target: {fileID: 4651047192386528, guid: c04940e57f4a3d846b889d90970118af, type: 2}
      propertyPath: m_LocalRotation.y
      value: -0.09670333
      objectReference: {fileID: 0}
    - target: {fileID: 4651047192386528, guid: c04940e57f4a3d846b889d90970118af, type: 2}
      propertyPath: m_LocalRotation.z
      value: 0.42993358
      objectReference: {fileID: 0}
    - target: {fileID: 4651047192386528, guid: c04940e57f4a3d846b889d90970118af, type: 2}
      propertyPath: m_LocalRotation.w
      value: 0.044790283
      objectReference: {fileID: 0}
    - target: {fileID: 4175469172985808, guid: c04940e57f4a3d846b889d90970118af, type: 2}
      propertyPath: m_LocalRotation.x
      value: -0.81456566
      objectReference: {fileID: 0}
    - target: {fileID: 4175469172985808, guid: c04940e57f4a3d846b889d90970118af, type: 2}
      propertyPath: m_LocalRotation.y
      value: 0.42022324
      objectReference: {fileID: 0}
    - target: {fileID: 4175469172985808, guid: c04940e57f4a3d846b889d90970118af, type: 2}
      propertyPath: m_LocalRotation.z
      value: 0.35186586
      objectReference: {fileID: 0}
    - target: {fileID: 4175469172985808, guid: c04940e57f4a3d846b889d90970118af, type: 2}
      propertyPath: m_LocalRotation.w
      value: -0.1899624
      objectReference: {fileID: 0}
    - target: {fileID: 4154725856101460, guid: c04940e57f4a3d846b889d90970118af, type: 2}
      propertyPath: m_LocalRotation.x
      value: -0.40998152
      objectReference: {fileID: 0}
    - target: {fileID: 4154725856101460, guid: c04940e57f4a3d846b889d90970118af, type: 2}
      propertyPath: m_LocalRotation.y
      value: -0.10416589
      objectReference: {fileID: 0}
    - target: {fileID: 4154725856101460, guid: c04940e57f4a3d846b889d90970118af, type: 2}
      propertyPath: m_LocalRotation.z
      value: -0.90611947
      objectReference: {fileID: 0}
    - target: {fileID: 4154725856101460, guid: c04940e57f4a3d846b889d90970118af, type: 2}
      propertyPath: m_LocalRotation.w
      value: -0.0034840254
      objectReference: {fileID: 0}
    - target: {fileID: 4104393592804500, guid: c04940e57f4a3d846b889d90970118af, type: 2}
      propertyPath: m_LocalRotation.x
      value: -0.07637842
      objectReference: {fileID: 0}
    - target: {fileID: 4104393592804500, guid: c04940e57f4a3d846b889d90970118af, type: 2}
      propertyPath: m_LocalRotation.y
      value: -0.3925068
      objectReference: {fileID: 0}
    - target: {fileID: 4104393592804500, guid: c04940e57f4a3d846b889d90970118af, type: 2}
      propertyPath: m_LocalRotation.z
      value: -0.19191803
      objectReference: {fileID: 0}
    - target: {fileID: 4104393592804500, guid: c04940e57f4a3d846b889d90970118af, type: 2}
      propertyPath: m_LocalRotation.w
      value: -0.8962546
      objectReference: {fileID: 0}
    - target: {fileID: 4078302978225242, guid: c04940e57f4a3d846b889d90970118af, type: 2}
      propertyPath: m_LocalRotation.x
      value: 0.5619165
      objectReference: {fileID: 0}
    - target: {fileID: 4078302978225242, guid: c04940e57f4a3d846b889d90970118af, type: 2}
      propertyPath: m_LocalRotation.y
      value: 0.6393188
      objectReference: {fileID: 0}
    - target: {fileID: 4078302978225242, guid: c04940e57f4a3d846b889d90970118af, type: 2}
      propertyPath: m_LocalRotation.z
      value: -0.50859195
      objectReference: {fileID: 0}
    - target: {fileID: 4078302978225242, guid: c04940e57f4a3d846b889d90970118af, type: 2}
      propertyPath: m_LocalRotation.w
      value: 0.12982936
      objectReference: {fileID: 0}
    - target: {fileID: 4871907223401574, guid: c04940e57f4a3d846b889d90970118af, type: 2}
      propertyPath: m_LocalRotation.x
      value: -0.09067683
      objectReference: {fileID: 0}
    - target: {fileID: 4871907223401574, guid: c04940e57f4a3d846b889d90970118af, type: 2}
      propertyPath: m_LocalRotation.y
      value: 0.92888415
      objectReference: {fileID: 0}
    - target: {fileID: 4871907223401574, guid: c04940e57f4a3d846b889d90970118af, type: 2}
      propertyPath: m_LocalRotation.z
      value: 0.009801653
      objectReference: {fileID: 0}
    - target: {fileID: 4871907223401574, guid: c04940e57f4a3d846b889d90970118af, type: 2}
      propertyPath: m_LocalRotation.w
      value: 0.3589651
      objectReference: {fileID: 0}
    - target: {fileID: 4180195002967292, guid: c04940e57f4a3d846b889d90970118af, type: 2}
      propertyPath: m_LocalRotation.x
      value: 0.15455881
      objectReference: {fileID: 0}
    - target: {fileID: 4180195002967292, guid: c04940e57f4a3d846b889d90970118af, type: 2}
      propertyPath: m_LocalRotation.y
      value: -0.3687911
      objectReference: {fileID: 0}
    - target: {fileID: 4180195002967292, guid: c04940e57f4a3d846b889d90970118af, type: 2}
      propertyPath: m_LocalRotation.z
      value: 0.33835837
      objectReference: {fileID: 0}
    - target: {fileID: 4180195002967292, guid: c04940e57f4a3d846b889d90970118af, type: 2}
      propertyPath: m_LocalRotation.w
      value: -0.8518324
      objectReference: {fileID: 0}
    - target: {fileID: 4289587878540288, guid: c04940e57f4a3d846b889d90970118af, type: 2}
      propertyPath: m_LocalRotation.x
      value: -0.40998152
      objectReference: {fileID: 0}
    - target: {fileID: 4289587878540288, guid: c04940e57f4a3d846b889d90970118af, type: 2}
      propertyPath: m_LocalRotation.y
      value: -0.10416589
      objectReference: {fileID: 0}
    - target: {fileID: 4289587878540288, guid: c04940e57f4a3d846b889d90970118af, type: 2}
      propertyPath: m_LocalRotation.z
      value: -0.90611947
      objectReference: {fileID: 0}
    - target: {fileID: 4289587878540288, guid: c04940e57f4a3d846b889d90970118af, type: 2}
      propertyPath: m_LocalRotation.w
      value: -0.0034840254
      objectReference: {fileID: 0}
    - target: {fileID: 4945781385316982, guid: c04940e57f4a3d846b889d90970118af, type: 2}
      propertyPath: m_LocalRotation.x
      value: -0.40998152
      objectReference: {fileID: 0}
    - target: {fileID: 4945781385316982, guid: c04940e57f4a3d846b889d90970118af, type: 2}
      propertyPath: m_LocalRotation.y
      value: -0.10416589
      objectReference: {fileID: 0}
    - target: {fileID: 4945781385316982, guid: c04940e57f4a3d846b889d90970118af, type: 2}
      propertyPath: m_LocalRotation.z
      value: -0.90611947
      objectReference: {fileID: 0}
    - target: {fileID: 4945781385316982, guid: c04940e57f4a3d846b889d90970118af, type: 2}
      propertyPath: m_LocalRotation.w
      value: -0.0034840254
      objectReference: {fileID: 0}
    - target: {fileID: 4802163281738444, guid: c04940e57f4a3d846b889d90970118af, type: 2}
      propertyPath: m_LocalRotation.x
      value: -0.38469276
      objectReference: {fileID: 0}
    - target: {fileID: 4802163281738444, guid: c04940e57f4a3d846b889d90970118af, type: 2}
      propertyPath: m_LocalRotation.y
      value: -0.10695963
      objectReference: {fileID: 0}
    - target: {fileID: 4802163281738444, guid: c04940e57f4a3d846b889d90970118af, type: 2}
      propertyPath: m_LocalRotation.z
      value: -0.91674984
      objectReference: {fileID: 0}
    - target: {fileID: 4802163281738444, guid: c04940e57f4a3d846b889d90970118af, type: 2}
      propertyPath: m_LocalRotation.w
      value: -0.011873326
      objectReference: {fileID: 0}
    - target: {fileID: 4549141066778990, guid: c04940e57f4a3d846b889d90970118af, type: 2}
      propertyPath: m_LocalRotation.x
      value: -0.5385014
      objectReference: {fileID: 0}
    - target: {fileID: 4549141066778990, guid: c04940e57f4a3d846b889d90970118af, type: 2}
      propertyPath: m_LocalRotation.y
      value: -0.14870645
      objectReference: {fileID: 0}
    - target: {fileID: 4549141066778990, guid: c04940e57f4a3d846b889d90970118af, type: 2}
      propertyPath: m_LocalRotation.z
      value: -0.6437326
      objectReference: {fileID: 0}
    - target: {fileID: 4549141066778990, guid: c04940e57f4a3d846b889d90970118af, type: 2}
      propertyPath: m_LocalRotation.w
      value: 0.52298295
      objectReference: {fileID: 0}
    - target: {fileID: 4975227883560026, guid: c04940e57f4a3d846b889d90970118af, type: 2}
      propertyPath: m_LocalRotation.x
      value: -0.28157142
      objectReference: {fileID: 0}
    - target: {fileID: 4975227883560026, guid: c04940e57f4a3d846b889d90970118af, type: 2}
      propertyPath: m_LocalRotation.y
      value: -0.28392392
      objectReference: {fileID: 0}
    - target: {fileID: 4975227883560026, guid: c04940e57f4a3d846b889d90970118af, type: 2}
      propertyPath: m_LocalRotation.z
      value: -0.65750635
      objectReference: {fileID: 0}
    - target: {fileID: 4975227883560026, guid: c04940e57f4a3d846b889d90970118af, type: 2}
      propertyPath: m_LocalRotation.w
      value: -0.6385845
      objectReference: {fileID: 0}
    - target: {fileID: 4595959426333408, guid: c04940e57f4a3d846b889d90970118af, type: 2}
      propertyPath: m_LocalRotation.x
      value: -0.85061026
      objectReference: {fileID: 0}
    - target: {fileID: 4595959426333408, guid: c04940e57f4a3d846b889d90970118af, type: 2}
      propertyPath: m_LocalRotation.y
      value: 0.3275876
      objectReference: {fileID: 0}
    - target: {fileID: 4595959426333408, guid: c04940e57f4a3d846b889d90970118af, type: 2}
      propertyPath: m_LocalRotation.z
      value: 0.39316946
      objectReference: {fileID: 0}
    - target: {fileID: 4595959426333408, guid: c04940e57f4a3d846b889d90970118af, type: 2}
      propertyPath: m_LocalRotation.w
      value: -0.12069151
      objectReference: {fileID: 0}
    - target: {fileID: 4870243090295626, guid: c04940e57f4a3d846b889d90970118af, type: 2}
      propertyPath: m_LocalRotation.x
      value: -0.3310635
      objectReference: {fileID: 0}
    - target: {fileID: 4870243090295626, guid: c04940e57f4a3d846b889d90970118af, type: 2}
      propertyPath: m_LocalRotation.y
      value: -0.22425933
      objectReference: {fileID: 0}
    - target: {fileID: 4870243090295626, guid: c04940e57f4a3d846b889d90970118af, type: 2}
      propertyPath: m_LocalRotation.z
      value: -0.76836586
      objectReference: {fileID: 0}
    - target: {fileID: 4870243090295626, guid: c04940e57f4a3d846b889d90970118af, type: 2}
      propertyPath: m_LocalRotation.w
      value: -0.49971864
      objectReference: {fileID: 0}
    - target: {fileID: 4150495606409770, guid: c04940e57f4a3d846b889d90970118af, type: 2}
      propertyPath: m_LocalRotation.x
      value: -0.40998152
      objectReference: {fileID: 0}
    - target: {fileID: 4150495606409770, guid: c04940e57f4a3d846b889d90970118af, type: 2}
      propertyPath: m_LocalRotation.y
      value: -0.10416589
      objectReference: {fileID: 0}
    - target: {fileID: 4150495606409770, guid: c04940e57f4a3d846b889d90970118af, type: 2}
      propertyPath: m_LocalRotation.z
      value: -0.90611947
      objectReference: {fileID: 0}
    - target: {fileID: 4150495606409770, guid: c04940e57f4a3d846b889d90970118af, type: 2}
      propertyPath: m_LocalRotation.w
      value: -0.0034840254
      objectReference: {fileID: 0}
    - target: {fileID: 4599673321438104, guid: c04940e57f4a3d846b889d90970118af, type: 2}
      propertyPath: m_LocalRotation.x
      value: -0.84159195
      objectReference: {fileID: 0}
    - target: {fileID: 4599673321438104, guid: c04940e57f4a3d846b889d90970118af, type: 2}
      propertyPath: m_LocalRotation.y
      value: -0.36308098
      objectReference: {fileID: 0}
    - target: {fileID: 4599673321438104, guid: c04940e57f4a3d846b889d90970118af, type: 2}
      propertyPath: m_LocalRotation.z
      value: 0.37006426
      objectReference: {fileID: 0}
    - target: {fileID: 4599673321438104, guid: c04940e57f4a3d846b889d90970118af, type: 2}
      propertyPath: m_LocalRotation.w
      value: 0.15148513
      objectReference: {fileID: 0}
    - target: {fileID: 4658525110792002, guid: c04940e57f4a3d846b889d90970118af, type: 2}
      propertyPath: m_LocalRotation.x
      value: 0.04258437
      objectReference: {fileID: 0}
    - target: {fileID: 4658525110792002, guid: c04940e57f4a3d846b889d90970118af, type: 2}
      propertyPath: m_LocalRotation.y
      value: -0.39759508
      objectReference: {fileID: 0}
    - target: {fileID: 4658525110792002, guid: c04940e57f4a3d846b889d90970118af, type: 2}
      propertyPath: m_LocalRotation.z
      value: 0.08049949
      objectReference: {fileID: 0}
    - target: {fileID: 4658525110792002, guid: c04940e57f4a3d846b889d90970118af, type: 2}
      propertyPath: m_LocalRotation.w
      value: -0.91303045
      objectReference: {fileID: 0}
    - target: {fileID: 4257071241137348, guid: c04940e57f4a3d846b889d90970118af, type: 2}
      propertyPath: m_LocalRotation.x
      value: 0.15455881
      objectReference: {fileID: 0}
    - target: {fileID: 4257071241137348, guid: c04940e57f4a3d846b889d90970118af, type: 2}
      propertyPath: m_LocalRotation.y
      value: -0.3687911
      objectReference: {fileID: 0}
    - target: {fileID: 4257071241137348, guid: c04940e57f4a3d846b889d90970118af, type: 2}
      propertyPath: m_LocalRotation.z
      value: 0.33835837
      objectReference: {fileID: 0}
    - target: {fileID: 4257071241137348, guid: c04940e57f4a3d846b889d90970118af, type: 2}
      propertyPath: m_LocalRotation.w
      value: -0.8518324
      objectReference: {fileID: 0}
    - target: {fileID: 4846381979231634, guid: c04940e57f4a3d846b889d90970118af, type: 2}
      propertyPath: m_LocalRotation.x
      value: 0.013379764
      objectReference: {fileID: 0}
    - target: {fileID: 4846381979231634, guid: c04940e57f4a3d846b889d90970118af, type: 2}
      propertyPath: m_LocalRotation.y
      value: -0.91647464
      objectReference: {fileID: 0}
    - target: {fileID: 4846381979231634, guid: c04940e57f4a3d846b889d90970118af, type: 2}
      propertyPath: m_LocalRotation.z
      value: 0.0016634614
      objectReference: {fileID: 0}
    - target: {fileID: 4846381979231634, guid: c04940e57f4a3d846b889d90970118af, type: 2}
      propertyPath: m_LocalRotation.w
      value: 0.39986563
      objectReference: {fileID: 0}
    - target: {fileID: 4751645970343938, guid: c04940e57f4a3d846b889d90970118af, type: 2}
      propertyPath: m_LocalRotation.x
      value: -0.3310635
      objectReference: {fileID: 0}
    - target: {fileID: 4751645970343938, guid: c04940e57f4a3d846b889d90970118af, type: 2}
      propertyPath: m_LocalRotation.y
      value: -0.22425933
      objectReference: {fileID: 0}
    - target: {fileID: 4751645970343938, guid: c04940e57f4a3d846b889d90970118af, type: 2}
      propertyPath: m_LocalRotation.z
      value: -0.76836586
      objectReference: {fileID: 0}
    - target: {fileID: 4751645970343938, guid: c04940e57f4a3d846b889d90970118af, type: 2}
      propertyPath: m_LocalRotation.w
      value: -0.49971864
      objectReference: {fileID: 0}
    - target: {fileID: 4009862896212554, guid: c04940e57f4a3d846b889d90970118af, type: 2}
      propertyPath: m_LocalRotation.x
      value: 0.15455881
      objectReference: {fileID: 0}
    - target: {fileID: 4009862896212554, guid: c04940e57f4a3d846b889d90970118af, type: 2}
      propertyPath: m_LocalRotation.y
      value: -0.3687911
      objectReference: {fileID: 0}
    - target: {fileID: 4009862896212554, guid: c04940e57f4a3d846b889d90970118af, type: 2}
      propertyPath: m_LocalRotation.z
      value: 0.33835837
      objectReference: {fileID: 0}
    - target: {fileID: 4009862896212554, guid: c04940e57f4a3d846b889d90970118af, type: 2}
      propertyPath: m_LocalRotation.w
      value: -0.8518324
      objectReference: {fileID: 0}
    - target: {fileID: 4437224533763768, guid: c04940e57f4a3d846b889d90970118af, type: 2}
      propertyPath: m_LocalRotation.x
      value: -0.3406603
      objectReference: {fileID: 0}
    - target: {fileID: 4437224533763768, guid: c04940e57f4a3d846b889d90970118af, type: 2}
      propertyPath: m_LocalRotation.y
      value: -0.26657274
      objectReference: {fileID: 0}
    - target: {fileID: 4437224533763768, guid: c04940e57f4a3d846b889d90970118af, type: 2}
      propertyPath: m_LocalRotation.z
      value: -0.72454596
      objectReference: {fileID: 0}
    - target: {fileID: 4437224533763768, guid: c04940e57f4a3d846b889d90970118af, type: 2}
      propertyPath: m_LocalRotation.w
      value: -0.5365842
      objectReference: {fileID: 0}
    - target: {fileID: 4752846746821518, guid: c04940e57f4a3d846b889d90970118af, type: 2}
      propertyPath: m_LocalRotation.x
      value: -0.6088207
      objectReference: {fileID: 0}
    - target: {fileID: 4752846746821518, guid: c04940e57f4a3d846b889d90970118af, type: 2}
      propertyPath: m_LocalRotation.y
      value: 0.783244
      objectReference: {fileID: 0}
    - target: {fileID: 4752846746821518, guid: c04940e57f4a3d846b889d90970118af, type: 2}
      propertyPath: m_LocalRotation.z
      value: 0.1255978
      objectReference: {fileID: 0}
    - target: {fileID: 4752846746821518, guid: c04940e57f4a3d846b889d90970118af, type: 2}
      propertyPath: m_LocalRotation.w
      value: 0.009568832
      objectReference: {fileID: 0}
    - target: {fileID: 4035162961650646, guid: c04940e57f4a3d846b889d90970118af, type: 2}
      propertyPath: m_LocalRotation.x
      value: -0.012878989
      objectReference: {fileID: 0}
    - target: {fileID: 4035162961650646, guid: c04940e57f4a3d846b889d90970118af, type: 2}
      propertyPath: m_LocalRotation.y
      value: -0.39966163
      objectReference: {fileID: 0}
    - target: {fileID: 4035162961650646, guid: c04940e57f4a3d846b889d90970118af, type: 2}
      propertyPath: m_LocalRotation.z
      value: -0.04669906
      objectReference: {fileID: 0}
    - target: {fileID: 4035162961650646, guid: c04940e57f4a3d846b889d90970118af, type: 2}
      propertyPath: m_LocalRotation.w
      value: -0.91538185
      objectReference: {fileID: 0}
    - target: {fileID: 4436941610317220, guid: c04940e57f4a3d846b889d90970118af, type: 2}
      propertyPath: m_LocalRotation.x
      value: -0.40998152
      objectReference: {fileID: 0}
    - target: {fileID: 4436941610317220, guid: c04940e57f4a3d846b889d90970118af, type: 2}
      propertyPath: m_LocalRotation.y
      value: -0.10416589
      objectReference: {fileID: 0}
    - target: {fileID: 4436941610317220, guid: c04940e57f4a3d846b889d90970118af, type: 2}
      propertyPath: m_LocalRotation.z
      value: -0.90611947
      objectReference: {fileID: 0}
    - target: {fileID: 4436941610317220, guid: c04940e57f4a3d846b889d90970118af, type: 2}
      propertyPath: m_LocalRotation.w
      value: -0.0034840254
      objectReference: {fileID: 0}
    - target: {fileID: 4038517093081788, guid: c04940e57f4a3d846b889d90970118af, type: 2}
      propertyPath: m_LocalRotation.x
      value: -0.84159195
      objectReference: {fileID: 0}
    - target: {fileID: 4038517093081788, guid: c04940e57f4a3d846b889d90970118af, type: 2}
      propertyPath: m_LocalRotation.y
      value: -0.36308098
      objectReference: {fileID: 0}
    - target: {fileID: 4038517093081788, guid: c04940e57f4a3d846b889d90970118af, type: 2}
      propertyPath: m_LocalRotation.z
      value: 0.37006426
      objectReference: {fileID: 0}
    - target: {fileID: 4038517093081788, guid: c04940e57f4a3d846b889d90970118af, type: 2}
      propertyPath: m_LocalRotation.w
      value: 0.15148513
      objectReference: {fileID: 0}
    - target: {fileID: 4291955201800406, guid: c04940e57f4a3d846b889d90970118af, type: 2}
      propertyPath: m_LocalRotation.x
      value: -0.40998152
      objectReference: {fileID: 0}
    - target: {fileID: 4291955201800406, guid: c04940e57f4a3d846b889d90970118af, type: 2}
      propertyPath: m_LocalRotation.y
      value: -0.10416589
      objectReference: {fileID: 0}
    - target: {fileID: 4291955201800406, guid: c04940e57f4a3d846b889d90970118af, type: 2}
      propertyPath: m_LocalRotation.z
      value: -0.90611947
      objectReference: {fileID: 0}
    - target: {fileID: 4291955201800406, guid: c04940e57f4a3d846b889d90970118af, type: 2}
      propertyPath: m_LocalRotation.w
      value: -0.0034840254
      objectReference: {fileID: 0}
    - target: {fileID: 4220345252679526, guid: c04940e57f4a3d846b889d90970118af, type: 2}
      propertyPath: m_LocalRotation.x
      value: -0.85061026
      objectReference: {fileID: 0}
    - target: {fileID: 4220345252679526, guid: c04940e57f4a3d846b889d90970118af, type: 2}
      propertyPath: m_LocalRotation.y
      value: 0.3275876
      objectReference: {fileID: 0}
    - target: {fileID: 4220345252679526, guid: c04940e57f4a3d846b889d90970118af, type: 2}
      propertyPath: m_LocalRotation.z
      value: 0.39316946
      objectReference: {fileID: 0}
    - target: {fileID: 4220345252679526, guid: c04940e57f4a3d846b889d90970118af, type: 2}
      propertyPath: m_LocalRotation.w
      value: -0.12069151
      objectReference: {fileID: 0}
    - target: {fileID: 4121040898268346, guid: c04940e57f4a3d846b889d90970118af, type: 2}
      propertyPath: m_LocalRotation.x
      value: -0.6385845
      objectReference: {fileID: 0}
    - target: {fileID: 4121040898268346, guid: c04940e57f4a3d846b889d90970118af, type: 2}
      propertyPath: m_LocalRotation.y
      value: -0.65750635
      objectReference: {fileID: 0}
    - target: {fileID: 4121040898268346, guid: c04940e57f4a3d846b889d90970118af, type: 2}
      propertyPath: m_LocalRotation.z
      value: 0.28392392
      objectReference: {fileID: 0}
    - target: {fileID: 4121040898268346, guid: c04940e57f4a3d846b889d90970118af, type: 2}
      propertyPath: m_LocalRotation.w
      value: 0.28157142
      objectReference: {fileID: 0}
    - target: {fileID: 4552653945993280, guid: c04940e57f4a3d846b889d90970118af, type: 2}
      propertyPath: m_LocalRotation.x
      value: -0.41736475
      objectReference: {fileID: 0}
    - target: {fileID: 4552653945993280, guid: c04940e57f4a3d846b889d90970118af, type: 2}
      propertyPath: m_LocalRotation.y
      value: -0.11365351
      objectReference: {fileID: 0}
    - target: {fileID: 4552653945993280, guid: c04940e57f4a3d846b889d90970118af, type: 2}
      propertyPath: m_LocalRotation.z
      value: -0.87590736
      objectReference: {fileID: 0}
    - target: {fileID: 4552653945993280, guid: c04940e57f4a3d846b889d90970118af, type: 2}
      propertyPath: m_LocalRotation.w
      value: -0.21371876
      objectReference: {fileID: 0}
    - target: {fileID: 4405693441621730, guid: c04940e57f4a3d846b889d90970118af, type: 2}
      propertyPath: m_LocalRotation.x
      value: -0.38469276
      objectReference: {fileID: 0}
    - target: {fileID: 4405693441621730, guid: c04940e57f4a3d846b889d90970118af, type: 2}
      propertyPath: m_LocalRotation.y
      value: -0.10695963
      objectReference: {fileID: 0}
    - target: {fileID: 4405693441621730, guid: c04940e57f4a3d846b889d90970118af, type: 2}
      propertyPath: m_LocalRotation.z
      value: -0.91674984
      objectReference: {fileID: 0}
    - target: {fileID: 4405693441621730, guid: c04940e57f4a3d846b889d90970118af, type: 2}
      propertyPath: m_LocalRotation.w
      value: -0.011873326
      objectReference: {fileID: 0}
    - target: {fileID: 4611509147850328, guid: c04940e57f4a3d846b889d90970118af, type: 2}
      propertyPath: m_LocalRotation.x
      value: -0.41736475
      objectReference: {fileID: 0}
    - target: {fileID: 4611509147850328, guid: c04940e57f4a3d846b889d90970118af, type: 2}
      propertyPath: m_LocalRotation.y
      value: -0.11365351
      objectReference: {fileID: 0}
    - target: {fileID: 4611509147850328, guid: c04940e57f4a3d846b889d90970118af, type: 2}
      propertyPath: m_LocalRotation.z
      value: -0.87590736
      objectReference: {fileID: 0}
    - target: {fileID: 4611509147850328, guid: c04940e57f4a3d846b889d90970118af, type: 2}
      propertyPath: m_LocalRotation.w
      value: -0.21371876
      objectReference: {fileID: 0}
    - target: {fileID: 4922967426430126, guid: c04940e57f4a3d846b889d90970118af, type: 2}
      propertyPath: m_LocalRotation.x
      value: -0.3873019
      objectReference: {fileID: 0}
    - target: {fileID: 4922967426430126, guid: c04940e57f4a3d846b889d90970118af, type: 2}
      propertyPath: m_LocalRotation.y
      value: -0.24323253
      objectReference: {fileID: 0}
    - target: {fileID: 4922967426430126, guid: c04940e57f4a3d846b889d90970118af, type: 2}
      propertyPath: m_LocalRotation.z
      value: -0.80560607
      objectReference: {fileID: 0}
    - target: {fileID: 4922967426430126, guid: c04940e57f4a3d846b889d90970118af, type: 2}
      propertyPath: m_LocalRotation.w
      value: -0.3766086
      objectReference: {fileID: 0}
    - target: {fileID: 4259708388127436, guid: c04940e57f4a3d846b889d90970118af, type: 2}
      propertyPath: m_LocalRotation.x
      value: 0.013379764
      objectReference: {fileID: 0}
    - target: {fileID: 4259708388127436, guid: c04940e57f4a3d846b889d90970118af, type: 2}
      propertyPath: m_LocalRotation.y
      value: -0.91647464
      objectReference: {fileID: 0}
    - target: {fileID: 4259708388127436, guid: c04940e57f4a3d846b889d90970118af, type: 2}
      propertyPath: m_LocalRotation.z
      value: 0.0016634614
      objectReference: {fileID: 0}
    - target: {fileID: 4259708388127436, guid: c04940e57f4a3d846b889d90970118af, type: 2}
      propertyPath: m_LocalRotation.w
      value: 0.39986563
      objectReference: {fileID: 0}
    - target: {fileID: 4848209984837050, guid: c04940e57f4a3d846b889d90970118af, type: 2}
      propertyPath: m_LocalRotation.x
      value: -0.40998152
      objectReference: {fileID: 0}
    - target: {fileID: 4848209984837050, guid: c04940e57f4a3d846b889d90970118af, type: 2}
      propertyPath: m_LocalRotation.y
      value: -0.10416589
      objectReference: {fileID: 0}
    - target: {fileID: 4848209984837050, guid: c04940e57f4a3d846b889d90970118af, type: 2}
      propertyPath: m_LocalRotation.z
      value: -0.90611947
      objectReference: {fileID: 0}
    - target: {fileID: 4848209984837050, guid: c04940e57f4a3d846b889d90970118af, type: 2}
      propertyPath: m_LocalRotation.w
      value: -0.0034840254
      objectReference: {fileID: 0}
    - target: {fileID: 4922084182627416, guid: c04940e57f4a3d846b889d90970118af, type: 2}
      propertyPath: m_LocalRotation.x
      value: -0.23737817
      objectReference: {fileID: 0}
    - target: {fileID: 4922084182627416, guid: c04940e57f4a3d846b889d90970118af, type: 2}
      propertyPath: m_LocalRotation.y
      value: -0.365469
      objectReference: {fileID: 0}
    - target: {fileID: 4922084182627416, guid: c04940e57f4a3d846b889d90970118af, type: 2}
      propertyPath: m_LocalRotation.z
      value: -0.45779428
      objectReference: {fileID: 0}
    - target: {fileID: 4922084182627416, guid: c04940e57f4a3d846b889d90970118af, type: 2}
      propertyPath: m_LocalRotation.w
      value: -0.7749248
      objectReference: {fileID: 0}
    - target: {fileID: 4991339849532558, guid: c04940e57f4a3d846b889d90970118af, type: 2}
      propertyPath: m_LocalRotation.x
      value: 0.04258437
      objectReference: {fileID: 0}
    - target: {fileID: 4991339849532558, guid: c04940e57f4a3d846b889d90970118af, type: 2}
      propertyPath: m_LocalRotation.y
      value: -0.39759508
      objectReference: {fileID: 0}
    - target: {fileID: 4991339849532558, guid: c04940e57f4a3d846b889d90970118af, type: 2}
      propertyPath: m_LocalRotation.z
      value: 0.08049949
      objectReference: {fileID: 0}
    - target: {fileID: 4991339849532558, guid: c04940e57f4a3d846b889d90970118af, type: 2}
      propertyPath: m_LocalRotation.w
      value: -0.91303045
      objectReference: {fileID: 0}
    - target: {fileID: 4404639717945764, guid: c04940e57f4a3d846b889d90970118af, type: 2}
      propertyPath: m_LocalRotation.x
      value: -0.38469276
      objectReference: {fileID: 0}
    - target: {fileID: 4404639717945764, guid: c04940e57f4a3d846b889d90970118af, type: 2}
      propertyPath: m_LocalRotation.y
      value: -0.10695963
      objectReference: {fileID: 0}
    - target: {fileID: 4404639717945764, guid: c04940e57f4a3d846b889d90970118af, type: 2}
      propertyPath: m_LocalRotation.z
      value: -0.91674984
      objectReference: {fileID: 0}
    - target: {fileID: 4404639717945764, guid: c04940e57f4a3d846b889d90970118af, type: 2}
      propertyPath: m_LocalRotation.w
      value: -0.011873326
      objectReference: {fileID: 0}
    - target: {fileID: 4644180366942622, guid: c04940e57f4a3d846b889d90970118af, type: 2}
      propertyPath: m_LocalRotation.x
      value: -0.8962546
      objectReference: {fileID: 0}
    - target: {fileID: 4644180366942622, guid: c04940e57f4a3d846b889d90970118af, type: 2}
      propertyPath: m_LocalRotation.y
      value: -0.19191803
      objectReference: {fileID: 0}
    - target: {fileID: 4644180366942622, guid: c04940e57f4a3d846b889d90970118af, type: 2}
      propertyPath: m_LocalRotation.z
      value: 0.3925068
      objectReference: {fileID: 0}
    - target: {fileID: 4644180366942622, guid: c04940e57f4a3d846b889d90970118af, type: 2}
      propertyPath: m_LocalRotation.w
      value: 0.07637843
      objectReference: {fileID: 0}
    - target: {fileID: 4785600233045388, guid: c04940e57f4a3d846b889d90970118af, type: 2}
      propertyPath: m_LocalRotation.x
      value: -0.37870267
      objectReference: {fileID: 0}
    - target: {fileID: 4785600233045388, guid: c04940e57f4a3d846b889d90970118af, type: 2}
      propertyPath: m_LocalRotation.y
      value: -0.14245272
      objectReference: {fileID: 0}
    - target: {fileID: 4785600233045388, guid: c04940e57f4a3d846b889d90970118af, type: 2}
      propertyPath: m_LocalRotation.z
      value: -0.9086435
      objectReference: {fileID: 0}
    - target: {fileID: 4785600233045388, guid: c04940e57f4a3d846b889d90970118af, type: 2}
      propertyPath: m_LocalRotation.w
      value: -0.103240445
      objectReference: {fileID: 0}
    - target: {fileID: 4398640642003160, guid: c04940e57f4a3d846b889d90970118af, type: 2}
      propertyPath: m_LocalRotation.x
      value: -0.07637842
      objectReference: {fileID: 0}
    - target: {fileID: 4398640642003160, guid: c04940e57f4a3d846b889d90970118af, type: 2}
      propertyPath: m_LocalRotation.y
      value: -0.3925068
      objectReference: {fileID: 0}
    - target: {fileID: 4398640642003160, guid: c04940e57f4a3d846b889d90970118af, type: 2}
      propertyPath: m_LocalRotation.z
      value: -0.19191803
      objectReference: {fileID: 0}
    - target: {fileID: 4398640642003160, guid: c04940e57f4a3d846b889d90970118af, type: 2}
      propertyPath: m_LocalRotation.w
      value: -0.8962546
      objectReference: {fileID: 0}
    - target: {fileID: 4066017275398194, guid: c04940e57f4a3d846b889d90970118af, type: 2}
      propertyPath: m_LocalRotation.x
      value: -0.8271624
      objectReference: {fileID: 0}
    - target: {fileID: 4066017275398194, guid: c04940e57f4a3d846b889d90970118af, type: 2}
      propertyPath: m_LocalRotation.y
      value: -0.35910088
      objectReference: {fileID: 0}
    - target: {fileID: 4066017275398194, guid: c04940e57f4a3d846b889d90970118af, type: 2}
      propertyPath: m_LocalRotation.z
      value: 0.39713094
      objectReference: {fileID: 0}
    - target: {fileID: 4066017275398194, guid: c04940e57f4a3d846b889d90970118af, type: 2}
      propertyPath: m_LocalRotation.w
      value: 0.1706929
      objectReference: {fileID: 0}
    - target: {fileID: 4720779435577812, guid: c04940e57f4a3d846b889d90970118af, type: 2}
      propertyPath: m_LocalRotation.x
      value: -0.28157142
      objectReference: {fileID: 0}
    - target: {fileID: 4720779435577812, guid: c04940e57f4a3d846b889d90970118af, type: 2}
      propertyPath: m_LocalRotation.y
      value: -0.28392392
      objectReference: {fileID: 0}
    - target: {fileID: 4720779435577812, guid: c04940e57f4a3d846b889d90970118af, type: 2}
      propertyPath: m_LocalRotation.z
      value: -0.65750635
      objectReference: {fileID: 0}
    - target: {fileID: 4720779435577812, guid: c04940e57f4a3d846b889d90970118af, type: 2}
      propertyPath: m_LocalRotation.w
      value: -0.6385845
      objectReference: {fileID: 0}
    - target: {fileID: 4427721930504996, guid: c04940e57f4a3d846b889d90970118af, type: 2}
      propertyPath: m_LocalRotation.x
      value: 0.28392392
      objectReference: {fileID: 0}
    - target: {fileID: 4427721930504996, guid: c04940e57f4a3d846b889d90970118af, type: 2}
      propertyPath: m_LocalRotation.y
      value: -0.28157142
      objectReference: {fileID: 0}
    - target: {fileID: 4427721930504996, guid: c04940e57f4a3d846b889d90970118af, type: 2}
      propertyPath: m_LocalRotation.z
      value: 0.6385845
      objectReference: {fileID: 0}
    - target: {fileID: 4427721930504996, guid: c04940e57f4a3d846b889d90970118af, type: 2}
      propertyPath: m_LocalRotation.w
      value: -0.65750635
      objectReference: {fileID: 0}
    - target: {fileID: 4495683966342726, guid: c04940e57f4a3d846b889d90970118af, type: 2}
      propertyPath: m_LocalRotation.x
      value: 0.77240545
      objectReference: {fileID: 0}
    - target: {fileID: 4495683966342726, guid: c04940e57f4a3d846b889d90970118af, type: 2}
      propertyPath: m_LocalRotation.y
      value: -0.48398477
      objectReference: {fileID: 0}
    - target: {fileID: 4495683966342726, guid: c04940e57f4a3d846b889d90970118af, type: 2}
      propertyPath: m_LocalRotation.z
      value: -0.3628888
      objectReference: {fileID: 0}
    - target: {fileID: 4495683966342726, guid: c04940e57f4a3d846b889d90970118af, type: 2}
      propertyPath: m_LocalRotation.w
      value: 0.19354689
      objectReference: {fileID: 0}
    - target: {fileID: 4851623490069502, guid: c04940e57f4a3d846b889d90970118af, type: 2}
      propertyPath: m_LocalRotation.x
      value: -0.3925068
      objectReference: {fileID: 0}
    - target: {fileID: 4851623490069502, guid: c04940e57f4a3d846b889d90970118af, type: 2}
      propertyPath: m_LocalRotation.y
      value: 0.07637843
      objectReference: {fileID: 0}
    - target: {fileID: 4851623490069502, guid: c04940e57f4a3d846b889d90970118af, type: 2}
      propertyPath: m_LocalRotation.z
      value: -0.8962546
      objectReference: {fileID: 0}
    - target: {fileID: 4851623490069502, guid: c04940e57f4a3d846b889d90970118af, type: 2}
      propertyPath: m_LocalRotation.w
      value: 0.19191803
      objectReference: {fileID: 0}
    - target: {fileID: 4888548634590800, guid: c04940e57f4a3d846b889d90970118af, type: 2}
      propertyPath: m_LocalRotation.x
      value: -0.40998152
      objectReference: {fileID: 0}
    - target: {fileID: 4888548634590800, guid: c04940e57f4a3d846b889d90970118af, type: 2}
      propertyPath: m_LocalRotation.y
      value: -0.10416589
      objectReference: {fileID: 0}
    - target: {fileID: 4888548634590800, guid: c04940e57f4a3d846b889d90970118af, type: 2}
      propertyPath: m_LocalRotation.z
      value: -0.90611947
      objectReference: {fileID: 0}
    - target: {fileID: 4888548634590800, guid: c04940e57f4a3d846b889d90970118af, type: 2}
      propertyPath: m_LocalRotation.w
      value: -0.0034840254
      objectReference: {fileID: 0}
    - target: {fileID: 4859662958572978, guid: c04940e57f4a3d846b889d90970118af, type: 2}
      propertyPath: m_LocalRotation.x
      value: 0.053129993
      objectReference: {fileID: 0}
    - target: {fileID: 4859662958572978, guid: c04940e57f4a3d846b889d90970118af, type: 2}
      propertyPath: m_LocalRotation.y
      value: -0.39632374
      objectReference: {fileID: 0}
    - target: {fileID: 4859662958572978, guid: c04940e57f4a3d846b889d90970118af, type: 2}
      propertyPath: m_LocalRotation.z
      value: 0.10472236
      objectReference: {fileID: 0}
    - target: {fileID: 4859662958572978, guid: c04940e57f4a3d846b889d90970118af, type: 2}
      propertyPath: m_LocalRotation.w
      value: -0.91057014
      objectReference: {fileID: 0}
    - target: {fileID: 4140193135555038, guid: c04940e57f4a3d846b889d90970118af, type: 2}
      propertyPath: m_LocalRotation.x
      value: 0.6225956
      objectReference: {fileID: 0}
    - target: {fileID: 4140193135555038, guid: c04940e57f4a3d846b889d90970118af, type: 2}
      propertyPath: m_LocalRotation.y
      value: 0.50031435
      objectReference: {fileID: 0}
    - target: {fileID: 4140193135555038, guid: c04940e57f4a3d846b889d90970118af, type: 2}
      propertyPath: m_LocalRotation.z
      value: -0.5210156
      objectReference: {fileID: 0}
    - target: {fileID: 4140193135555038, guid: c04940e57f4a3d846b889d90970118af, type: 2}
      propertyPath: m_LocalRotation.w
      value: 0.30100334
      objectReference: {fileID: 0}
    - target: {fileID: 4754399624871128, guid: c04940e57f4a3d846b889d90970118af, type: 2}
      propertyPath: m_LocalRotation.x
      value: -0.015779996
      objectReference: {fileID: 0}
    - target: {fileID: 4754399624871128, guid: c04940e57f4a3d846b889d90970118af, type: 2}
      propertyPath: m_LocalRotation.y
      value: -0.3995576
      objectReference: {fileID: 0}
    - target: {fileID: 4754399624871128, guid: c04940e57f4a3d846b889d90970118af, type: 2}
      propertyPath: m_LocalRotation.z
      value: -0.053343095
      objectReference: {fileID: 0}
    - target: {fileID: 4754399624871128, guid: c04940e57f4a3d846b889d90970118af, type: 2}
      propertyPath: m_LocalRotation.w
      value: -0.91501874
      objectReference: {fileID: 0}
    - target: {fileID: 4351703935176016, guid: c04940e57f4a3d846b889d90970118af, type: 2}
      propertyPath: m_LocalRotation.x
      value: 0.057024345
      objectReference: {fileID: 0}
    - target: {fileID: 4351703935176016, guid: c04940e57f4a3d846b889d90970118af, type: 2}
      propertyPath: m_LocalRotation.y
      value: -0.39578214
      objectReference: {fileID: 0}
    - target: {fileID: 4351703935176016, guid: c04940e57f4a3d846b889d90970118af, type: 2}
      propertyPath: m_LocalRotation.z
      value: 0.11367064
      objectReference: {fileID: 0}
    - target: {fileID: 4351703935176016, guid: c04940e57f4a3d846b889d90970118af, type: 2}
      propertyPath: m_LocalRotation.w
      value: -0.9094964
      objectReference: {fileID: 0}
    - target: {fileID: 4491575553010018, guid: c04940e57f4a3d846b889d90970118af, type: 2}
      propertyPath: m_LocalRotation.x
      value: -0.382553
      objectReference: {fileID: 0}
    - target: {fileID: 4491575553010018, guid: c04940e57f4a3d846b889d90970118af, type: 2}
      propertyPath: m_LocalRotation.y
      value: -0.20190017
      objectReference: {fileID: 0}
    - target: {fileID: 4491575553010018, guid: c04940e57f4a3d846b889d90970118af, type: 2}
      propertyPath: m_LocalRotation.z
      value: -0.8082557
      objectReference: {fileID: 0}
    - target: {fileID: 4491575553010018, guid: c04940e57f4a3d846b889d90970118af, type: 2}
      propertyPath: m_LocalRotation.w
      value: -0.3995151
      objectReference: {fileID: 0}
    - target: {fileID: 4184676971606768, guid: c04940e57f4a3d846b889d90970118af, type: 2}
      propertyPath: m_LocalRotation.x
      value: -0.8962546
      objectReference: {fileID: 0}
    - target: {fileID: 4184676971606768, guid: c04940e57f4a3d846b889d90970118af, type: 2}
      propertyPath: m_LocalRotation.y
      value: -0.19191803
      objectReference: {fileID: 0}
    - target: {fileID: 4184676971606768, guid: c04940e57f4a3d846b889d90970118af, type: 2}
      propertyPath: m_LocalRotation.z
      value: 0.3925068
      objectReference: {fileID: 0}
    - target: {fileID: 4184676971606768, guid: c04940e57f4a3d846b889d90970118af, type: 2}
      propertyPath: m_LocalRotation.w
      value: 0.07637843
      objectReference: {fileID: 0}
    - target: {fileID: 4493862706605276, guid: c04940e57f4a3d846b889d90970118af, type: 2}
      propertyPath: m_LocalRotation.x
      value: -0.90064013
      objectReference: {fileID: 0}
    - target: {fileID: 4493862706605276, guid: c04940e57f4a3d846b889d90970118af, type: 2}
      propertyPath: m_LocalRotation.y
      value: 0.044703323
      objectReference: {fileID: 0}
    - target: {fileID: 4493862706605276, guid: c04940e57f4a3d846b889d90970118af, type: 2}
      propertyPath: m_LocalRotation.z
      value: 0.43164805
      objectReference: {fileID: 0}
    - target: {fileID: 4493862706605276, guid: c04940e57f4a3d846b889d90970118af, type: 2}
      propertyPath: m_LocalRotation.w
      value: -0.023000807
      objectReference: {fileID: 0}
    - target: {fileID: 4591068531591350, guid: c04940e57f4a3d846b889d90970118af, type: 2}
      propertyPath: m_LocalRotation.x
      value: -0.38469276
      objectReference: {fileID: 0}
    - target: {fileID: 4591068531591350, guid: c04940e57f4a3d846b889d90970118af, type: 2}
      propertyPath: m_LocalRotation.y
      value: -0.10695963
      objectReference: {fileID: 0}
    - target: {fileID: 4591068531591350, guid: c04940e57f4a3d846b889d90970118af, type: 2}
      propertyPath: m_LocalRotation.z
      value: -0.91674984
      objectReference: {fileID: 0}
    - target: {fileID: 4591068531591350, guid: c04940e57f4a3d846b889d90970118af, type: 2}
      propertyPath: m_LocalRotation.w
      value: -0.011873326
      objectReference: {fileID: 0}
    - target: {fileID: 4603555519561452, guid: c04940e57f4a3d846b889d90970118af, type: 2}
      propertyPath: m_LocalRotation.x
      value: 0.65750635
      objectReference: {fileID: 0}
    - target: {fileID: 4603555519561452, guid: c04940e57f4a3d846b889d90970118af, type: 2}
      propertyPath: m_LocalRotation.y
      value: -0.6385845
      objectReference: {fileID: 0}
    - target: {fileID: 4603555519561452, guid: c04940e57f4a3d846b889d90970118af, type: 2}
      propertyPath: m_LocalRotation.z
      value: -0.28157142
      objectReference: {fileID: 0}
    - target: {fileID: 4603555519561452, guid: c04940e57f4a3d846b889d90970118af, type: 2}
      propertyPath: m_LocalRotation.w
      value: 0.28392392
      objectReference: {fileID: 0}
    - target: {fileID: 4079773536548374, guid: c04940e57f4a3d846b889d90970118af, type: 2}
      propertyPath: m_LocalRotation.x
      value: -0.40998152
      objectReference: {fileID: 0}
    - target: {fileID: 4079773536548374, guid: c04940e57f4a3d846b889d90970118af, type: 2}
      propertyPath: m_LocalRotation.y
      value: -0.10416589
      objectReference: {fileID: 0}
    - target: {fileID: 4079773536548374, guid: c04940e57f4a3d846b889d90970118af, type: 2}
      propertyPath: m_LocalRotation.z
      value: -0.90611947
      objectReference: {fileID: 0}
    - target: {fileID: 4079773536548374, guid: c04940e57f4a3d846b889d90970118af, type: 2}
      propertyPath: m_LocalRotation.w
      value: -0.0034840254
      objectReference: {fileID: 0}
    - target: {fileID: 4190811510149654, guid: c04940e57f4a3d846b889d90970118af, type: 2}
      propertyPath: m_LocalRotation.x
      value: 0.5619164
      objectReference: {fileID: 0}
    - target: {fileID: 4190811510149654, guid: c04940e57f4a3d846b889d90970118af, type: 2}
      propertyPath: m_LocalRotation.y
      value: 0.63931876
      objectReference: {fileID: 0}
    - target: {fileID: 4190811510149654, guid: c04940e57f4a3d846b889d90970118af, type: 2}
      propertyPath: m_LocalRotation.z
      value: -0.5085919
      objectReference: {fileID: 0}
    - target: {fileID: 4190811510149654, guid: c04940e57f4a3d846b889d90970118af, type: 2}
      propertyPath: m_LocalRotation.w
      value: 0.12982935
      objectReference: {fileID: 0}
    - target: {fileID: 4082577820104954, guid: c04940e57f4a3d846b889d90970118af, type: 2}
      propertyPath: m_LocalRotation.x
      value: -0.40998152
      objectReference: {fileID: 0}
    - target: {fileID: 4082577820104954, guid: c04940e57f4a3d846b889d90970118af, type: 2}
      propertyPath: m_LocalRotation.y
      value: -0.10416589
      objectReference: {fileID: 0}
    - target: {fileID: 4082577820104954, guid: c04940e57f4a3d846b889d90970118af, type: 2}
      propertyPath: m_LocalRotation.z
      value: -0.90611947
      objectReference: {fileID: 0}
    - target: {fileID: 4082577820104954, guid: c04940e57f4a3d846b889d90970118af, type: 2}
      propertyPath: m_LocalRotation.w
      value: -0.0034840254
      objectReference: {fileID: 0}
    - target: {fileID: 4450832781844754, guid: c04940e57f4a3d846b889d90970118af, type: 2}
      propertyPath: m_LocalRotation.x
      value: -0.8965486
      objectReference: {fileID: 0}
    - target: {fileID: 4450832781844754, guid: c04940e57f4a3d846b889d90970118af, type: 2}
      propertyPath: m_LocalRotation.y
      value: -0.09670333
      objectReference: {fileID: 0}
    - target: {fileID: 4450832781844754, guid: c04940e57f4a3d846b889d90970118af, type: 2}
      propertyPath: m_LocalRotation.z
      value: 0.42993358
      objectReference: {fileID: 0}
    - target: {fileID: 4450832781844754, guid: c04940e57f4a3d846b889d90970118af, type: 2}
      propertyPath: m_LocalRotation.w
      value: 0.044790283
      objectReference: {fileID: 0}
    - target: {fileID: 4329796113397464, guid: c04940e57f4a3d846b889d90970118af, type: 2}
      propertyPath: m_LocalRotation.x
      value: -0.40998152
      objectReference: {fileID: 0}
    - target: {fileID: 4329796113397464, guid: c04940e57f4a3d846b889d90970118af, type: 2}
      propertyPath: m_LocalRotation.y
      value: -0.10416589
      objectReference: {fileID: 0}
    - target: {fileID: 4329796113397464, guid: c04940e57f4a3d846b889d90970118af, type: 2}
      propertyPath: m_LocalRotation.z
      value: -0.90611947
      objectReference: {fileID: 0}
    - target: {fileID: 4329796113397464, guid: c04940e57f4a3d846b889d90970118af, type: 2}
      propertyPath: m_LocalRotation.w
      value: -0.0034840254
      objectReference: {fileID: 0}
    - target: {fileID: 4431424127643690, guid: c04940e57f4a3d846b889d90970118af, type: 2}
      propertyPath: m_LocalRotation.x
      value: -0.3925068
      objectReference: {fileID: 0}
    - target: {fileID: 4431424127643690, guid: c04940e57f4a3d846b889d90970118af, type: 2}
      propertyPath: m_LocalRotation.y
      value: 0.07637843
      objectReference: {fileID: 0}
    - target: {fileID: 4431424127643690, guid: c04940e57f4a3d846b889d90970118af, type: 2}
      propertyPath: m_LocalRotation.z
      value: -0.8962546
      objectReference: {fileID: 0}
    - target: {fileID: 4431424127643690, guid: c04940e57f4a3d846b889d90970118af, type: 2}
      propertyPath: m_LocalRotation.w
      value: 0.19191803
      objectReference: {fileID: 0}
    - target: {fileID: 4104360602136022, guid: c04940e57f4a3d846b889d90970118af, type: 2}
      propertyPath: m_LocalRotation.x
      value: -0.40998152
      objectReference: {fileID: 0}
    - target: {fileID: 4104360602136022, guid: c04940e57f4a3d846b889d90970118af, type: 2}
      propertyPath: m_LocalRotation.y
      value: -0.10416589
      objectReference: {fileID: 0}
    - target: {fileID: 4104360602136022, guid: c04940e57f4a3d846b889d90970118af, type: 2}
      propertyPath: m_LocalRotation.z
      value: -0.90611947
      objectReference: {fileID: 0}
    - target: {fileID: 4104360602136022, guid: c04940e57f4a3d846b889d90970118af, type: 2}
      propertyPath: m_LocalRotation.w
      value: -0.0034840254
      objectReference: {fileID: 0}
    - target: {fileID: 4162773737494474, guid: c04940e57f4a3d846b889d90970118af, type: 2}
      propertyPath: m_LocalRotation.x
      value: -0.40998152
      objectReference: {fileID: 0}
    - target: {fileID: 4162773737494474, guid: c04940e57f4a3d846b889d90970118af, type: 2}
      propertyPath: m_LocalRotation.y
      value: -0.10416589
      objectReference: {fileID: 0}
    - target: {fileID: 4162773737494474, guid: c04940e57f4a3d846b889d90970118af, type: 2}
      propertyPath: m_LocalRotation.z
      value: -0.90611947
      objectReference: {fileID: 0}
    - target: {fileID: 4162773737494474, guid: c04940e57f4a3d846b889d90970118af, type: 2}
      propertyPath: m_LocalRotation.w
      value: -0.0034840254
      objectReference: {fileID: 0}
    - target: {fileID: 4497146077487126, guid: c04940e57f4a3d846b889d90970118af, type: 2}
      propertyPath: m_LocalRotation.x
      value: -0.012878989
      objectReference: {fileID: 0}
    - target: {fileID: 4497146077487126, guid: c04940e57f4a3d846b889d90970118af, type: 2}
      propertyPath: m_LocalRotation.y
      value: -0.39966163
      objectReference: {fileID: 0}
    - target: {fileID: 4497146077487126, guid: c04940e57f4a3d846b889d90970118af, type: 2}
      propertyPath: m_LocalRotation.z
      value: -0.04669906
      objectReference: {fileID: 0}
    - target: {fileID: 4497146077487126, guid: c04940e57f4a3d846b889d90970118af, type: 2}
      propertyPath: m_LocalRotation.w
      value: -0.91538185
      objectReference: {fileID: 0}
    - target: {fileID: 4440063926021784, guid: c04940e57f4a3d846b889d90970118af, type: 2}
      propertyPath: m_LocalRotation.x
      value: -0.85061026
      objectReference: {fileID: 0}
    - target: {fileID: 4440063926021784, guid: c04940e57f4a3d846b889d90970118af, type: 2}
      propertyPath: m_LocalRotation.y
      value: 0.3275876
      objectReference: {fileID: 0}
    - target: {fileID: 4440063926021784, guid: c04940e57f4a3d846b889d90970118af, type: 2}
      propertyPath: m_LocalRotation.z
      value: 0.39316946
      objectReference: {fileID: 0}
    - target: {fileID: 4440063926021784, guid: c04940e57f4a3d846b889d90970118af, type: 2}
      propertyPath: m_LocalRotation.w
      value: -0.12069151
      objectReference: {fileID: 0}
    - target: {fileID: 4184432940583686, guid: c04940e57f4a3d846b889d90970118af, type: 2}
      propertyPath: m_LocalRotation.x
      value: -0.3406603
      objectReference: {fileID: 0}
    - target: {fileID: 4184432940583686, guid: c04940e57f4a3d846b889d90970118af, type: 2}
      propertyPath: m_LocalRotation.y
      value: -0.26657274
      objectReference: {fileID: 0}
    - target: {fileID: 4184432940583686, guid: c04940e57f4a3d846b889d90970118af, type: 2}
      propertyPath: m_LocalRotation.z
      value: -0.72454596
      objectReference: {fileID: 0}
    - target: {fileID: 4184432940583686, guid: c04940e57f4a3d846b889d90970118af, type: 2}
      propertyPath: m_LocalRotation.w
      value: -0.5365842
      objectReference: {fileID: 0}
    - target: {fileID: 4036297849170800, guid: c04940e57f4a3d846b889d90970118af, type: 2}
      propertyPath: m_LocalRotation.x
      value: -0.8271624
      objectReference: {fileID: 0}
    - target: {fileID: 4036297849170800, guid: c04940e57f4a3d846b889d90970118af, type: 2}
      propertyPath: m_LocalRotation.y
      value: -0.35910088
      objectReference: {fileID: 0}
    - target: {fileID: 4036297849170800, guid: c04940e57f4a3d846b889d90970118af, type: 2}
      propertyPath: m_LocalRotation.z
      value: 0.39713094
      objectReference: {fileID: 0}
    - target: {fileID: 4036297849170800, guid: c04940e57f4a3d846b889d90970118af, type: 2}
      propertyPath: m_LocalRotation.w
      value: 0.1706929
      objectReference: {fileID: 0}
    - target: {fileID: 4630608092417058, guid: c04940e57f4a3d846b889d90970118af, type: 2}
      propertyPath: m_LocalRotation.x
      value: -0.913373
      objectReference: {fileID: 0}
    - target: {fileID: 4630608092417058, guid: c04940e57f4a3d846b889d90970118af, type: 2}
      propertyPath: m_LocalRotation.y
      value: 0.0765149
      objectReference: {fileID: 0}
    - target: {fileID: 4630608092417058, guid: c04940e57f4a3d846b889d90970118af, type: 2}
      propertyPath: m_LocalRotation.z
      value: 0.3977771
      objectReference: {fileID: 0}
    - target: {fileID: 4630608092417058, guid: c04940e57f4a3d846b889d90970118af, type: 2}
      propertyPath: m_LocalRotation.w
      value: -0.040849146
      objectReference: {fileID: 0}
    - target: {fileID: 4722626113172124, guid: c04940e57f4a3d846b889d90970118af, type: 2}
      propertyPath: m_LocalRotation.x
      value: -0.913373
      objectReference: {fileID: 0}
    - target: {fileID: 4722626113172124, guid: c04940e57f4a3d846b889d90970118af, type: 2}
      propertyPath: m_LocalRotation.y
      value: 0.0765149
      objectReference: {fileID: 0}
    - target: {fileID: 4722626113172124, guid: c04940e57f4a3d846b889d90970118af, type: 2}
      propertyPath: m_LocalRotation.z
      value: 0.3977771
      objectReference: {fileID: 0}
    - target: {fileID: 4722626113172124, guid: c04940e57f4a3d846b889d90970118af, type: 2}
      propertyPath: m_LocalRotation.w
      value: -0.040849146
      objectReference: {fileID: 0}
    - target: {fileID: 4487437091570868, guid: c04940e57f4a3d846b889d90970118af, type: 2}
      propertyPath: m_LocalRotation.x
      value: -0.3406603
      objectReference: {fileID: 0}
    - target: {fileID: 4487437091570868, guid: c04940e57f4a3d846b889d90970118af, type: 2}
      propertyPath: m_LocalRotation.y
      value: -0.26657274
      objectReference: {fileID: 0}
    - target: {fileID: 4487437091570868, guid: c04940e57f4a3d846b889d90970118af, type: 2}
      propertyPath: m_LocalRotation.z
      value: -0.72454596
      objectReference: {fileID: 0}
    - target: {fileID: 4487437091570868, guid: c04940e57f4a3d846b889d90970118af, type: 2}
      propertyPath: m_LocalRotation.w
      value: -0.5365842
      objectReference: {fileID: 0}
    - target: {fileID: 4879907953263794, guid: c04940e57f4a3d846b889d90970118af, type: 2}
      propertyPath: m_LocalRotation.x
      value: -0.8518324
      objectReference: {fileID: 0}
    - target: {fileID: 4879907953263794, guid: c04940e57f4a3d846b889d90970118af, type: 2}
      propertyPath: m_LocalRotation.y
      value: 0.33835837
      objectReference: {fileID: 0}
    - target: {fileID: 4879907953263794, guid: c04940e57f4a3d846b889d90970118af, type: 2}
      propertyPath: m_LocalRotation.z
      value: 0.3687911
      objectReference: {fileID: 0}
    - target: {fileID: 4879907953263794, guid: c04940e57f4a3d846b889d90970118af, type: 2}
      propertyPath: m_LocalRotation.w
      value: -0.15455881
      objectReference: {fileID: 0}
    - target: {fileID: 4769521026727884, guid: c04940e57f4a3d846b889d90970118af, type: 2}
      propertyPath: m_LocalRotation.x
      value: -0.382553
      objectReference: {fileID: 0}
    - target: {fileID: 4769521026727884, guid: c04940e57f4a3d846b889d90970118af, type: 2}
      propertyPath: m_LocalRotation.y
      value: -0.20190017
      objectReference: {fileID: 0}
    - target: {fileID: 4769521026727884, guid: c04940e57f4a3d846b889d90970118af, type: 2}
      propertyPath: m_LocalRotation.z
      value: -0.8082557
      objectReference: {fileID: 0}
    - target: {fileID: 4769521026727884, guid: c04940e57f4a3d846b889d90970118af, type: 2}
      propertyPath: m_LocalRotation.w
      value: -0.3995151
      objectReference: {fileID: 0}
    - target: {fileID: 4061822260142946, guid: c04940e57f4a3d846b889d90970118af, type: 2}
      propertyPath: m_LocalRotation.x
      value: -0.19549687
      objectReference: {fileID: 0}
    - target: {fileID: 4061822260142946, guid: c04940e57f4a3d846b889d90970118af, type: 2}
      propertyPath: m_LocalRotation.y
      value: -0.38256037
      objectReference: {fileID: 0}
    - target: {fileID: 4061822260142946, guid: c04940e57f4a3d846b889d90970118af, type: 2}
      propertyPath: m_LocalRotation.z
      value: -0.35773754
      objectReference: {fileID: 0}
    - target: {fileID: 4061822260142946, guid: c04940e57f4a3d846b889d90970118af, type: 2}
      propertyPath: m_LocalRotation.w
      value: -0.82912755
      objectReference: {fileID: 0}
    m_RemovedComponents: []
  m_ParentPrefab: {fileID: 100100000, guid: c04940e57f4a3d846b889d90970118af, type: 2}
  m_IsPrefabParent: 0
